<svg width="24" height="24" viewBox="0 0 24 24" fill="none" xmlns="http://www.w3.org/2000/svg">
<path d="M11.458 7.27639C11.7964 7.05223 12.2368 7.05491 12.5725 7.28318L14.0725 8.30318C14.5292 8.61374 14.6477 9.23572 14.3371 9.69242C14.0266 10.1491 13.4046 10.2676 12.9479 9.95703L12.0029 9.31442L11.0224 9.96382C10.5619 10.2688 9.94145 10.1428 9.63647 9.68231C9.3315 9.22186 9.45754 8.60137 9.91799 8.29639L11.458 7.27639Z" fill="#0F2C4D"/>
<path d="M11.0261 14.1789C10.5671 13.8719 9.946 13.9951 9.63896 14.4542C9.33192 14.9132 9.45517 15.5343 9.91424 15.8413L11.4542 16.8713C11.7944 17.0989 12.2389 17.0961 12.5762 16.8645L14.0762 15.8345C14.5315 15.5218 14.6472 14.8993 14.3345 14.4441C14.0219 13.9888 13.3994 13.8731 12.9441 14.1858L12.0028 14.8321L11.0261 14.1789Z" fill="#0F2C4D"/>
<path d="M15.2272 10.4165C15.5329 9.95658 16.1536 9.83154 16.6136 10.1373L18.2836 11.2473C18.5594 11.4306 18.7266 11.7386 18.73 12.0698C18.7334 12.401 18.5725 12.7124 18.3005 12.9014L16.6305 14.0614C16.1769 14.3765 15.5538 14.2642 15.2387 13.8106C14.9237 13.357 15.0359 12.7338 15.4895 12.4188L15.9509 12.0983L15.5065 11.8029C15.0465 11.4972 14.9215 10.8765 15.2272 10.4165Z" fill="#0F2C4D"/>
<path d="M8.63102 11.8044C9.09181 11.5 9.21855 10.8796 8.9141 10.4188C8.60965 9.95803 7.9893 9.83129 7.52851 10.1357L5.84851 11.2457C5.57134 11.4289 5.40321 11.7377 5.39982 12.0699C5.39642 12.402 5.55821 12.7142 5.83157 12.903L7.51157 14.063C7.96605 14.3768 8.58886 14.2627 8.90266 13.8083C9.21647 13.3538 9.10243 12.731 8.64796 12.4172L8.18617 12.0983L8.63102 11.8044Z" fill="#0F2C4D"/>
<path fill-rule="evenodd" clip-rule="evenodd" d="M12.5835 3.22791C12.2348 2.97741 11.7652 2.97741 11.4165 3.22791L0.476513 11.0879C0.175707 11.304 0.0305957 11.6563 0.0648478 12.0001C0.0305957 12.344 0.175707 12.6962 0.476514 12.9123L11.4165 20.7723C11.7652 21.0228 12.2348 21.0228 12.5835 20.7723L23.5235 12.9123C23.8243 12.6962 23.9694 12.344 23.9351 12.0001C23.9694 11.6563 23.8243 11.304 23.5235 11.0879L12.5835 3.22791ZM21.3654 12.0001L12 5.27138L2.63456 12.0001L12 18.7288L21.3654 12.0001Z" fill="#0F2C4D"/>
</svg>
