<svg width="24" height="25" viewBox="0 0 24 25" fill="none" xmlns="http://www.w3.org/2000/svg">
<path fill-rule="evenodd" clip-rule="evenodd" d="M3.85761 14.4906C4.11885 14.004 4.72509 13.8213 5.21168 14.0825L11.9452 17.6975L18.6787 14.0825C19.1653 13.8213 19.7715 14.004 20.0327 14.4906C20.294 14.9772 20.1113 15.5834 19.6247 15.8446L12.4182 19.7136C12.1228 19.8722 11.7676 19.8722 11.4722 19.7136L4.26566 15.8446C3.77906 15.5834 3.59637 14.9772 3.85761 14.4906Z" fill="#0F2C4D"/>
<path fill-rule="evenodd" clip-rule="evenodd" d="M4.73773 5.83057C5.29002 5.83057 5.73773 6.27828 5.73773 6.83057V18.8038L10.9697 21.6687V10.8325C10.9697 10.2802 11.4174 9.83252 11.9697 9.83252C12.522 9.83252 12.9697 10.2802 12.9697 10.8325V23.3563C12.9697 23.7095 12.7834 24.0366 12.4795 24.2166C12.1756 24.3967 11.7993 24.4031 11.4894 24.2334L4.25746 20.2735C3.93699 20.098 3.73773 19.7617 3.73773 19.3964V6.83057C3.73773 6.27828 4.18545 5.83057 4.73773 5.83057Z" fill="#0F2C4D"/>
<path fill-rule="evenodd" clip-rule="evenodd" d="M19.2119 9.83252C19.7642 9.83252 20.2119 10.2802 20.2119 10.8325V19.3962C20.2119 19.7615 20.0126 20.0978 19.6922 20.2733L12.4602 24.2332C11.9758 24.4985 11.368 24.3208 11.1028 23.8364C10.8376 23.352 11.0152 22.7442 11.4996 22.479L18.2119 18.8036V10.8325C18.2119 10.2802 18.6596 9.83252 19.2119 9.83252Z" fill="#0F2C4D"/>
<path fill-rule="evenodd" clip-rule="evenodd" d="M11.4251 0.864234C11.7312 0.68886 12.1071 0.687772 12.4142 0.861371L19.6692 4.96204C19.9865 5.14136 20.1811 5.47907 20.1771 5.84348C20.1732 6.20788 19.9713 6.54128 19.6502 6.71366L12.4437 10.5826C12.1483 10.7412 11.7931 10.7412 11.4977 10.5826L4.29116 6.71366C3.97099 6.54177 3.76927 6.20973 3.76427 5.84637C3.75926 5.48302 3.95177 5.14554 4.26708 4.96491L11.4251 0.864234ZM11.9255 2.8825L6.82542 5.80422L11.9707 8.56655L17.105 5.81007L11.9255 2.8825Z" fill="#209564"/>
<path fill-rule="evenodd" clip-rule="evenodd" d="M11.9698 8.83273C12.5221 8.83273 12.9698 9.28044 12.9698 9.83273V13.8327C12.9698 14.385 12.5221 14.8327 11.9698 14.8327C11.4175 14.8327 10.9698 14.385 10.9698 13.8327V9.83273C10.9698 9.28044 11.4175 8.83273 11.9698 8.83273Z" fill="#209564"/>
<path fill-rule="evenodd" clip-rule="evenodd" d="M4.73781 4.8326C5.29009 4.8326 5.73781 5.28032 5.73781 5.8326H3.73781C3.73781 5.28032 4.18552 4.8326 4.73781 4.8326ZM3.73781 5.8326V10.3326C3.73781 10.8849 4.18552 11.3326 4.73781 11.3326C5.29009 11.3326 5.73781 10.8849 5.73781 10.3326V5.8326H3.73781Z" fill="#209564"/>
<path fill-rule="evenodd" clip-rule="evenodd" d="M19.2632 4.8326C19.8155 4.8326 20.2632 5.28032 20.2632 5.8326H18.2632C18.2632 5.28032 18.7109 4.8326 19.2632 4.8326ZM18.2632 5.8326V10.3326C18.2632 10.8849 18.7109 11.3326 19.2632 11.3326C19.8155 11.3326 20.2632 10.8849 20.2632 10.3326V5.8326H18.2632Z" fill="#209564"/>
<path fill-rule="evenodd" clip-rule="evenodd" d="M3.85644 9.98912C4.11774 9.50256 4.72401 9.31995 5.21056 9.58125L11.9506 13.2009L18.8 9.62509C19.2896 9.3695 19.8937 9.55919 20.1493 10.0488C20.4049 10.5384 20.2152 11.1424 19.7256 11.398L12.4067 15.2189C12.1131 15.3722 11.7626 15.3701 11.4708 15.2134L4.26431 11.3432C3.77775 11.0819 3.59514 10.4757 3.85644 9.98912Z" fill="#209564"/>
</svg>
