<svg width="24" height="24" viewBox="0 0 24 24" fill="none" xmlns="http://www.w3.org/2000/svg">
<path fill-rule="evenodd" clip-rule="evenodd" d="M10.5274 2.33457C10.9767 2.08162 11.4836 1.94873 11.9992 1.94873C12.5148 1.94873 13.0217 2.08162 13.471 2.33457C13.9203 2.58753 14.2968 2.95201 14.5642 3.39285L14.5671 3.3976L23.0371 17.5376L23.0452 17.5514C23.3072 18.005 23.4458 18.5194 23.4472 19.0432C23.4487 19.567 23.313 20.0821 23.0536 20.5372C22.7942 20.9923 22.4201 21.3715 21.9687 21.6372C21.5172 21.9028 21.004 22.0457 20.4802 22.0514L20.4692 22.0515L3.51824 22.0515C2.99443 22.0457 2.48127 21.9028 2.0298 21.6372C1.57832 21.3715 1.20428 20.9923 0.944877 20.5372C0.685473 20.0821 0.549754 19.567 0.55122 19.0432C0.552687 18.5194 0.691289 18.005 0.953237 17.5514L0.96136 17.5376L9.43136 3.3976L10.2892 3.91146L9.43423 3.39285C9.70163 2.95201 10.0781 2.58753 10.5274 2.33457ZM11.1454 4.42811L2.68191 18.5573C2.59674 18.7071 2.5517 18.8764 2.55121 19.0488C2.55072 19.2234 2.59596 19.3951 2.68243 19.5468C2.7689 19.6985 2.89358 19.8249 3.04407 19.9135C3.19325 20.0012 3.36262 20.0488 3.53562 20.0515H20.4628C20.6358 20.0488 20.8052 20.0012 20.9544 19.9135C21.1049 19.8249 21.2296 19.6985 21.316 19.5468C21.4025 19.3951 21.4477 19.2234 21.4472 19.0488C21.4468 18.8764 21.4017 18.7071 21.3166 18.5574L12.8542 4.4301L12.853 4.42811C12.764 4.28206 12.6389 4.16128 12.4898 4.07734C12.3401 3.99303 12.1711 3.94873 11.9992 3.94873C11.8274 3.94873 11.6584 3.99303 11.5086 4.07734C11.3595 4.16128 11.2345 4.28206 11.1454 4.42811Z" fill="#0F2C4D"/>
<path fill-rule="evenodd" clip-rule="evenodd" d="M11.9992 8.05147C12.5515 8.05147 12.9992 8.49919 12.9992 9.05147V13.0515C12.9992 13.6038 12.5515 14.0515 11.9992 14.0515C11.4469 14.0515 10.9992 13.6038 10.9992 13.0515V9.05147C10.9992 8.49919 11.4469 8.05147 11.9992 8.05147Z" fill="#0F2C4D"/>
<path fill-rule="evenodd" clip-rule="evenodd" d="M10.9992 17.0515C10.9992 16.4992 11.4469 16.0515 11.9992 16.0515H12.0092C12.5615 16.0515 13.0092 16.4992 13.0092 17.0515C13.0092 17.6038 12.5615 18.0515 12.0092 18.0515H11.9992C11.4469 18.0515 10.9992 17.6038 10.9992 17.0515Z" fill="#0F2C4D"/>
</svg>
