<svg width="24" height="25" viewBox="0 0 24 25" fill="none" xmlns="http://www.w3.org/2000/svg">
<g clip-path="url(#clip0)">
<path fill-rule="evenodd" clip-rule="evenodd" d="M11.86 0.544189C12.4123 0.544189 12.86 0.991905 12.86 1.54419V4.6075L20.0509 8.76866C20.3598 8.94742 20.55 9.27728 20.55 9.63419V17.5342L22.9607 18.9286C23.4388 19.2051 23.6021 19.8168 23.3256 20.2949C23.0491 20.7729 22.4374 20.9363 21.9593 20.6598L19.8984 19.4678L12.36 23.8202C12.0506 23.9988 11.6694 23.9988 11.36 23.8202L4.05123 19.6003L1.48634 21.028C1.00377 21.2966 0.39483 21.1231 0.12623 20.6405C-0.142369 20.158 0.0310867 19.549 0.513656 19.2804L3.17 17.8019V9.63419C3.17 9.27728 3.36022 8.94742 3.66914 8.76866L10.86 4.6075V1.54419C10.86 0.991905 11.3077 0.544189 11.86 0.544189ZM11.86 6.33955L6.16825 9.63322L11.86 12.9195L17.5517 9.63322L11.86 6.33955ZM18.55 11.3663L12.86 14.6515V21.2221L18.55 17.9368V11.3663ZM10.86 21.2221L5.17 17.9368V11.3663L10.86 14.6515V21.2221Z" fill="#0F2C4D"/>
</g>
<defs>
<clipPath id="clip0">
<rect width="24" height="24" fill="white" transform="translate(0 0.544189)"/>
</clipPath>
</defs>
</svg>
