<svg width="24" height="25" viewBox="0 0 24 25" fill="none" xmlns="http://www.w3.org/2000/svg">
<path fill-rule="evenodd" clip-rule="evenodd" d="M12 4.63318C12.5523 4.63318 13 5.08089 13 5.63318V19.6332C13 20.1855 12.5523 20.6332 12 20.6332C11.4477 20.6332 11 20.1855 11 19.6332V5.63318C11 5.08089 11.4477 4.63318 12 4.63318Z" fill="#0F2C4D"/>
<path fill-rule="evenodd" clip-rule="evenodd" d="M4.29289 11.9261C4.68342 11.5355 5.31658 11.5355 5.70711 11.9261L12 18.219L18.2929 11.9261C18.6834 11.5355 19.3166 11.5355 19.7071 11.9261C20.0976 12.3166 20.0976 12.9498 19.7071 13.3403L12.7071 20.3403C12.3166 20.7308 11.6834 20.7308 11.2929 20.3403L4.29289 13.3403C3.90237 12.9498 3.90237 12.3166 4.29289 11.9261Z" fill="#0F2C4D"/>
</svg>
