<svg width="24" height="25" viewBox="0 0 24 25" fill="none" xmlns="http://www.w3.org/2000/svg">
<path fill-rule="evenodd" clip-rule="evenodd" d="M6.29289 6.92607C6.68342 6.53555 7.31658 6.53555 7.70711 6.92607L17.7071 16.9261C18.0976 17.3166 18.0976 17.9498 17.7071 18.3403C17.3166 18.7308 16.6834 18.7308 16.2929 18.3403L6.29289 8.34029C5.90237 7.94976 5.90237 7.3166 6.29289 6.92607Z" fill="#0F2C4D"/>
<path fill-rule="evenodd" clip-rule="evenodd" d="M17 6.63318C17.5523 6.63318 18 7.08089 18 7.63318V17.6332C18 18.1855 17.5523 18.6332 17 18.6332H7C6.44772 18.6332 6 18.1855 6 17.6332C6 17.0809 6.44772 16.6332 7 16.6332H16V7.63318C16 7.08089 16.4477 6.63318 17 6.63318Z" fill="#0F2C4D"/>
</svg>
