<svg width="24" height="24" viewBox="0 0 24 24" fill="none" xmlns="http://www.w3.org/2000/svg">
<path fill-rule="evenodd" clip-rule="evenodd" d="M12 8.9995C10.3432 8.9995 9.00001 10.3426 9.00001 11.9995C9.00001 13.6564 10.3432 14.9995 12 14.9995C13.6569 14.9995 15 13.6564 15 11.9995C15 10.3426 13.6569 8.9995 12 8.9995ZM7.00001 11.9995C7.00001 9.23808 9.23859 6.9995 12 6.9995C14.7614 6.9995 17 9.23808 17 11.9995C17 14.7609 14.7614 16.9995 12 16.9995C9.23859 16.9995 7.00001 14.7609 7.00001 11.9995Z" fill="#0F2C4D"/>
<path fill-rule="evenodd" clip-rule="evenodd" d="M7.30009 2.05474C9.54474 0.993985 12.0822 0.723746 14.4999 1.28797C16.9176 1.85219 19.0734 3.21768 20.6166 5.16242C22.1599 7.10716 22.9999 9.51677 23 11.9994V12.9995C23 14.0604 22.5786 15.0778 21.8284 15.8279C21.0783 16.5781 20.0609 16.9995 19 16.9995C17.9391 16.9995 16.9217 16.5781 16.1716 15.8279C15.4214 15.0778 15 14.0604 15 12.9995V7.9995C15 7.44722 15.4477 6.9995 16 6.9995C16.5523 6.9995 17 7.44722 17 7.9995V12.9995C17 13.5299 17.2107 14.0386 17.5858 14.4137C17.9609 14.7888 18.4696 14.9995 19 14.9995C19.5304 14.9995 20.0392 14.7888 20.4142 14.4137C20.7893 14.0386 21 13.5299 21 12.9995V11.9996C20.9999 9.96831 20.3126 7.99678 19.05 6.40564C17.7873 4.81449 16.0235 3.69727 14.0454 3.23563C12.0673 2.774 9.99115 2.9951 8.15462 3.863C6.3181 4.73089 4.82917 6.19453 3.92994 8.01592C3.03072 9.83731 2.77408 11.9093 3.20176 13.8951C3.62944 15.8808 4.71629 17.6635 6.28558 18.9532C7.85487 20.2429 9.8143 20.9639 11.8453 20.9988C13.8762 21.0337 15.8593 20.3806 17.472 19.1456C17.9105 18.8098 18.5382 18.893 18.874 19.3315C19.2097 19.77 19.1265 20.3976 18.688 20.7334C16.7169 22.2429 14.2932 23.0412 11.8109 22.9985C9.32859 22.9558 6.93372 22.0747 5.0157 20.4983C3.09768 18.922 1.76932 16.7432 1.24659 14.3162C0.723873 11.8892 1.03754 9.35668 2.13659 7.13053C3.23565 4.90439 5.05545 3.1155 7.30009 2.05474Z" fill="#0F2C4D"/>
</svg>
