<svg width="24" height="24" viewBox="0 0 24 24" fill="none" xmlns="http://www.w3.org/2000/svg">
<path fill-rule="evenodd" clip-rule="evenodd" d="M3 6.99986C2.73478 6.99986 2.48043 7.10522 2.29289 7.29276C2.10536 7.48029 2 7.73465 2 7.99986V15.9999C2 16.2651 2.10536 16.5194 2.29289 16.707C2.48043 16.8945 2.73478 16.9999 3 16.9999H4.09426L5.08593 6.99986H3ZM0.87868 5.87854C1.44129 5.31593 2.20435 4.99986 3 4.99986H6.19C6.47239 4.99986 6.74161 5.11925 6.93118 5.32855C7.12074 5.53785 7.21299 5.81754 7.18512 6.09854L5.99512 18.0985C5.94439 18.6101 5.51407 18.9999 5 18.9999H3C2.20435 18.9999 1.44129 18.6838 0.87868 18.1212C0.316071 17.5586 0 16.7955 0 15.9999V7.99986C0 7.20421 0.316071 6.44115 0.87868 5.87854ZM14 5.99986C14 5.44758 14.4477 4.99986 15 4.99986H17C17.7957 4.99986 18.5587 5.31593 19.1213 5.87854C19.6839 6.44115 20 7.20421 20 7.99986V15.9999C20 16.7955 19.6839 17.5586 19.1213 18.1212C18.5587 18.6838 17.7957 18.9999 17 18.9999H13.81C13.2577 18.9999 12.81 18.5521 12.81 17.9999C12.81 17.4476 13.2577 16.9999 13.81 16.9999H17C17.2652 16.9999 17.5196 16.8945 17.7071 16.707C17.8946 16.5194 18 16.2651 18 15.9999V7.99986C18 7.73465 17.8946 7.48029 17.7071 7.29276C17.5196 7.10522 17.2652 6.99986 17 6.99986H15C14.4477 6.99986 14 6.55215 14 5.99986Z" fill="#0F2C4D"/>
<path fill-rule="evenodd" clip-rule="evenodd" d="M23 9.99986C23.5523 9.99986 24 10.4476 24 10.9999V12.9999C24 13.5521 23.5523 13.9999 23 13.9999C22.4477 13.9999 22 13.5521 22 12.9999V10.9999C22 10.4476 22.4477 9.99986 23 9.99986Z" fill="#0F2C4D"/>
<path fill-rule="evenodd" clip-rule="evenodd" d="M11.5547 5.16781C12.0142 5.47416 12.1384 6.09503 11.8321 6.55456L8.86852 10.9999H13C13.3688 10.9999 13.7077 11.2028 13.8817 11.528C14.0557 11.8532 14.0366 12.2477 13.8321 12.5546L9.83205 18.5546C9.5257 19.0141 8.90483 19.1383 8.4453 18.8319C7.98577 18.5256 7.8616 17.9047 8.16795 17.4452L11.1315 12.9999H7C6.6312 12.9999 6.29234 12.7969 6.11833 12.4717C5.94431 12.1466 5.96338 11.752 6.16795 11.4452L10.1679 5.44516C10.4743 4.98563 11.0952 4.86146 11.5547 5.16781Z" fill="#0F2C4D"/>
</svg>
