<svg width="24" height="25" viewBox="0 0 24 25" fill="none" xmlns="http://www.w3.org/2000/svg">
<path fill-rule="evenodd" clip-rule="evenodd" d="M22.625 1.57422C23.1773 1.57422 23.625 2.02193 23.625 2.57422V22.5142C23.625 23.0665 23.1773 23.5142 22.625 23.5142C22.0727 23.5142 21.625 23.0665 21.625 22.5142V20.5043H2.375V22.4244C2.375 22.9767 1.92728 23.4244 1.375 23.4244C0.822715 23.4244 0.375 22.9767 0.375 22.4244V15.0044C0.375 14.9212 0.385156 14.8404 0.404297 14.7631C0.404477 13.6174 0.851717 12.516 1.65207 11.6941C2.46475 10.8596 3.57518 10.3814 4.7399 10.3644L4.75454 10.3643H15.2754V10.0444C15.2754 9.99703 15.2787 9.9504 15.2851 9.90475L15.2851 9.897C15.2923 8.91751 15.6855 7.98038 16.3794 7.28903C17.0733 6.59769 18.0119 6.20793 18.9914 6.20435L18.995 6.20435H21.3813C21.4629 6.20381 21.5442 6.20788 21.625 6.21648V2.57422C21.625 2.02193 22.0727 1.57422 22.625 1.57422ZM15.2754 12.3643H4.76249C4.12963 12.3753 3.52662 12.6359 3.0849 13.0895C2.64162 13.5447 2.39692 14.1571 2.40447 14.7924L2.40461 14.8043L2.40454 18.5043H15.2754V12.3643ZM17.2754 18.5043V12.3643H21.5145V18.5043H17.2754ZM21.396 10.2043C21.4398 10.2044 21.482 10.1875 21.5137 10.1571C21.5425 10.1296 21.5606 10.0928 21.565 10.0534V8.40435C21.565 8.39578 21.5652 8.38722 21.5654 8.37866C21.566 8.35585 21.5619 8.33316 21.5536 8.31193C21.5452 8.2907 21.5326 8.27138 21.5166 8.25511C21.5006 8.23884 21.4815 8.22595 21.4604 8.21723C21.4394 8.2085 21.4167 8.2041 21.3939 8.20431L21.385 8.20438L18.9971 8.20435C18.5448 8.20642 18.1115 8.38659 17.791 8.70586C17.4709 9.02474 17.2892 9.45672 17.285 9.90842V10.0343C17.285 10.0567 17.2894 10.0788 17.298 10.0994C17.3065 10.12 17.319 10.1388 17.3348 10.1546C17.3506 10.1703 17.3694 10.1829 17.39 10.1914C17.4106 10.1999 17.4327 10.2043 17.455 10.2043H21.396Z" fill="#0F2C4D"/>
</svg>
