<svg width="24" height="24" viewBox="0 0 24 24" fill="none" xmlns="http://www.w3.org/2000/svg">
<path fill-rule="evenodd" clip-rule="evenodd" d="M10.5021 1.36187C10.9577 1.09937 11.4742 0.961182 12 0.961182C12.5258 0.961182 13.0424 1.09938 13.4979 1.3619L13.5 1.36311L20.5 5.3631C20.9556 5.62615 21.334 6.00438 21.5973 6.45985C21.8606 6.91532 21.9995 7.43202 22 7.95811V15.9602C21.9995 16.4862 21.8606 17.0029 21.5973 17.4584C21.334 17.9139 20.9556 18.2921 20.5 18.5552L20.4961 18.5574L13.5 22.5552L13.4982 22.5562C13.0426 22.8188 12.5259 22.9571 12 22.9571C11.4741 22.9571 10.9575 22.8188 10.5019 22.5562L10.5 22.5552L3.50386 18.5574L3.5 18.5552C3.04439 18.2921 2.66597 17.9139 2.40269 17.4584C2.13941 17.0029 2.00054 16.4862 2 15.9602V7.95811C2.00054 7.43202 2.13941 6.91532 2.40269 6.45985C2.66597 6.00438 3.04439 5.62615 3.5 5.3631L3.50386 5.36088L10.5021 1.36187ZM12 2.96118C11.8245 2.96118 11.652 3.00739 11.5 3.09516L11.4961 3.09738L4.5 7.09516L4.49842 7.09607C4.34726 7.18371 4.22169 7.30944 4.13423 7.46074C4.04654 7.61244 4.00025 7.78451 4 7.95972V15.9585C4.00025 16.1338 4.04654 16.3058 4.13423 16.4575C4.22169 16.6088 4.34726 16.7346 4.49842 16.8222L4.5 16.8231L11.5 20.8231C11.652 20.9109 11.8245 20.9571 12 20.9571C12.1755 20.9571 12.348 20.9109 12.5 20.8231L12.5039 20.8209L19.5 16.8231L19.5016 16.8222C19.6527 16.7345 19.7783 16.6088 19.8658 16.4575C19.9535 16.3057 19.9998 16.1335 20 15.9581V7.96016C19.9998 7.78479 19.9535 7.61256 19.8658 7.46074C19.7783 7.30944 19.6527 7.18372 19.5016 7.09607L19.5 7.09516L12.5 3.09516C12.348 3.0074 12.1755 2.96118 12 2.96118Z" fill="#0F2C4D"/>
<path fill-rule="evenodd" clip-rule="evenodd" d="M2.40439 6.41841C2.68093 5.94035 3.29266 5.77698 3.77072 6.05352L12 10.8139L20.2293 6.05352C20.7073 5.77698 21.3191 5.94035 21.5956 6.41841C21.8721 6.89647 21.7088 7.5082 21.2307 7.78474L12.5007 12.8347C12.191 13.0139 11.809 13.0139 11.4993 12.8347L2.76928 7.78474C2.29121 7.5082 2.12785 6.89647 2.40439 6.41841Z" fill="#0F2C4D"/>
<path fill-rule="evenodd" clip-rule="evenodd" d="M12 10.9591C12.5523 10.9591 13 11.4068 13 11.9591V22.0391C13 22.5914 12.5523 23.0391 12 23.0391C11.4477 23.0391 11 22.5914 11 22.0391V11.9591C11 11.4068 11.4477 10.9591 12 10.9591Z" fill="#0F2C4D"/>
</svg>
