<svg width="24" height="24" viewBox="0 0 24 24" fill="none" xmlns="http://www.w3.org/2000/svg">
<g clip-path="url(#clip0)">
<path fill-rule="evenodd" clip-rule="evenodd" d="M8.16856 2.4453C8.35403 2.1671 8.66626 2 9.00061 2H15.0006C15.335 2 15.6472 2.1671 15.8327 2.4453L17.5358 5H21.0006C21.7963 5 22.5593 5.31607 23.1219 5.87868C23.6845 6.44129 24.0006 7.20435 24.0006 8V19C24.0006 19.7957 23.6845 20.5587 23.1219 21.1213C22.5593 21.6839 21.7963 22 21.0006 22H3.00061C2.20496 22 1.4419 21.6839 0.87929 21.1213C0.316681 20.5587 0.000610352 19.7957 0.000610352 19V8C0.000610352 7.20435 0.316681 6.44129 0.87929 5.87868C1.4419 5.31607 2.20496 5 3.00061 5H6.46543L8.16856 2.4453ZM9.53579 4L7.83266 6.5547C7.64719 6.8329 7.33496 7 7.00061 7H3.00061C2.73539 7 2.48104 7.10536 2.2935 7.29289C2.10597 7.48043 2.00061 7.73478 2.00061 8V19C2.00061 19.2652 2.10597 19.5196 2.2935 19.7071C2.48104 19.8946 2.73539 20 3.00061 20H21.0006C21.2658 20 21.5202 19.8946 21.7077 19.7071C21.8953 19.5196 22.0006 19.2652 22.0006 19V8C22.0006 7.73478 21.8953 7.48043 21.7077 7.29289C21.5202 7.10536 21.2658 7 21.0006 7H17.0006C16.6663 7 16.354 6.8329 16.1686 6.5547L14.4654 4H9.53579Z" fill="#0F2C4D"/>
<path fill-rule="evenodd" clip-rule="evenodd" d="M12.0006 10C10.3438 10 9.00061 11.3431 9.00061 13C9.00061 14.6569 10.3438 16 12.0006 16C13.6575 16 15.0006 14.6569 15.0006 13C15.0006 11.3431 13.6575 10 12.0006 10ZM7.00061 13C7.00061 10.2386 9.23919 8 12.0006 8C14.762 8 17.0006 10.2386 17.0006 13C17.0006 15.7614 14.762 18 12.0006 18C9.23919 18 7.00061 15.7614 7.00061 13Z" fill="#0F2C4D"/>
</g>
<defs>
<clipPath id="clip0">
<rect width="24" height="24" fill="white" transform="translate(0.000610352)"/>
</clipPath>
</defs>
</svg>
