<svg width="24" height="24" viewBox="0 0 24 24" fill="none" xmlns="http://www.w3.org/2000/svg">
<path d="M5.9081 21C5.4081 21 5.0081 20.7 4.9081 20.2C4.6081 18.6 3.4081 17.4 1.8081 17.1C1.3081 17 0.908102 16.4 1.0081 15.9C1.1081 15.4 1.6081 15 2.2081 15.1C4.6081 15.6 6.4081 17.4 6.9081 19.8C7.0081 20.3 6.6081 20.9 6.1081 21C6.0081 21 6.0081 21 5.9081 21ZM9.9081 21C9.4081 21 9.0081 20.6 8.9081 20.1C8.5081 16.4 5.6081 13.4 1.8081 13C1.3081 13 0.908102 12.5 1.0081 11.9C1.1081 11.4 1.6081 11 2.1081 11.1C6.8081 11.6 10.4081 15.3 10.9081 19.9C11.0081 20.4 10.6081 20.9 10.0081 21C10.0081 21 10.0081 21 9.9081 21ZM20.0081 21H14.0081C13.4081 21 13.0081 20.6 13.0081 20C13.0081 19.4 13.4081 19 14.0081 19H20.0081C20.6081 19 21.0081 18.6 21.0081 18V6C21.0081 5.4 20.6081 5 20.0081 5H4.0081C3.4081 5 3.0081 5.4 3.0081 6V8C3.0081 8.6 2.6081 9 2.0081 9C1.4081 9 1.0081 8.6 1.0081 8V6C1.0081 4.3 2.3081 3 4.0081 3H20.0081C21.7081 3 23.0081 4.3 23.0081 6V18C23.0081 19.7 21.7081 21 20.0081 21Z" fill="#0F2C4D"/>
<path d="M2.0081 21C1.4081 21 1.0081 20.6 1.0081 20C1.0081 19.4 1.4081 19 2.0081 19C2.6081 19 3.0081 19.4 3.0081 20C3.0081 20.6 2.6081 21 2.0081 21Z" fill="#0F2C4D"/>
</svg>
