<svg width="24" height="24" viewBox="0 0 24 24" fill="none" xmlns="http://www.w3.org/2000/svg">
<path fill-rule="evenodd" clip-rule="evenodd" d="M22.2071 3.29289C22.5976 3.68342 22.5976 4.31658 22.2071 4.70711L12.2071 14.7071C11.8166 15.0976 11.1834 15.0976 10.7929 14.7071L7.79289 11.7071C7.40237 11.3166 7.40237 10.6834 7.79289 10.2929C8.18342 9.90237 8.81658 9.90237 9.20711 10.2929L11.5 12.5858L20.7929 3.29289C21.1834 2.90237 21.8166 2.90237 22.2071 3.29289Z" fill="#0F2C4D"/>
<path fill-rule="evenodd" clip-rule="evenodd" d="M4.5 4C4.23478 4 3.98043 4.10536 3.79289 4.29289C3.60536 4.48043 3.5 4.73478 3.5 5V19C3.5 19.2652 3.60536 19.5196 3.79289 19.7071C3.98043 19.8946 4.23478 20 4.5 20H18.5C18.7652 20 19.0196 19.8946 19.2071 19.7071C19.3946 19.5196 19.5 19.2652 19.5 19V12C19.5 11.4477 19.9477 11 20.5 11C21.0523 11 21.5 11.4477 21.5 12V19C21.5 19.7957 21.1839 20.5587 20.6213 21.1213C20.0587 21.6839 19.2957 22 18.5 22H4.5C3.70435 22 2.94129 21.6839 2.37868 21.1213C1.81607 20.5587 1.5 19.7957 1.5 19V5C1.5 4.20435 1.81607 3.44129 2.37868 2.87868C2.94129 2.31607 3.70435 2 4.5 2H15.5C16.0523 2 16.5 2.44772 16.5 3C16.5 3.55228 16.0523 4 15.5 4H4.5Z" fill="#0F2C4D"/>
</svg>
