<svg width="24" height="25" viewBox="0 0 24 25" fill="none" xmlns="http://www.w3.org/2000/svg">
<path fill-rule="evenodd" clip-rule="evenodd" d="M11.3753 3.85231C11.7406 3.56013 12.2595 3.56013 12.6247 3.85231L17.6247 7.85231C18.056 8.19732 18.1259 8.82661 17.7809 9.25787C17.4359 9.68914 16.8066 9.75906 16.3753 9.41405L12 5.9138L7.62473 9.41405C7.19347 9.75906 6.56418 9.68914 6.21917 9.25787C5.87416 8.82661 5.94408 8.19732 6.37534 7.85231L11.3753 3.85231Z" fill="#0F2C4D"/>
<path fill-rule="evenodd" clip-rule="evenodd" d="M6.21917 16.0085C6.56418 15.5773 7.19347 15.5073 7.62473 15.8523L12 19.3526L16.3753 15.8523C16.8066 15.5073 17.4359 15.5773 17.7809 16.0085C18.1259 16.4398 18.056 17.0691 17.6247 17.4141L12.6247 21.4141C12.2595 21.7063 11.7406 21.7063 11.3753 21.4141L6.37534 17.4141C5.94408 17.0691 5.87416 16.4398 6.21917 16.0085Z" fill="#0F2C4D"/>
</svg>
