<svg width="24" height="25" viewBox="0 0 24 25" fill="none" xmlns="http://www.w3.org/2000/svg">
<path fill-rule="evenodd" clip-rule="evenodd" d="M11.7071 6.92607C12.0976 7.3166 12.0976 7.94976 11.7071 8.34029L7.41421 12.6332L11.7071 16.9261C12.0976 17.3166 12.0976 17.9498 11.7071 18.3403C11.3166 18.7308 10.6834 18.7308 10.2929 18.3403L5.29289 13.3403C4.90237 12.9498 4.90237 12.3166 5.29289 11.9261L10.2929 6.92607C10.6834 6.53555 11.3166 6.53555 11.7071 6.92607Z" fill="#0F2C4D"/>
<path fill-rule="evenodd" clip-rule="evenodd" d="M18.7071 6.92607C19.0976 7.3166 19.0976 7.94976 18.7071 8.34029L14.4142 12.6332L18.7071 16.9261C19.0976 17.3166 19.0976 17.9498 18.7071 18.3403C18.3166 18.7308 17.6834 18.7308 17.2929 18.3403L12.2929 13.3403C11.9024 12.9498 11.9024 12.3166 12.2929 11.9261L17.2929 6.92607C17.6834 6.53555 18.3166 6.53555 18.7071 6.92607Z" fill="#0F2C4D"/>
</svg>
