<svg width="24" height="25" viewBox="0 0 24 25" fill="none" xmlns="http://www.w3.org/2000/svg">
<path fill-rule="evenodd" clip-rule="evenodd" d="M5.29289 8.92607C5.68342 8.53555 6.31658 8.53555 6.70711 8.92607L12 14.219L17.2929 8.92607C17.6834 8.53555 18.3166 8.53555 18.7071 8.92607C19.0976 9.3166 19.0976 9.94976 18.7071 10.3403L12.7071 16.3403C12.3166 16.7308 11.6834 16.7308 11.2929 16.3403L5.29289 10.3403C4.90237 9.94976 4.90237 9.3166 5.29289 8.92607Z" fill="#0F2C4D"/>
</svg>
