<svg width="24" height="25" viewBox="0 0 24 25" fill="none" xmlns="http://www.w3.org/2000/svg">
<path fill-rule="evenodd" clip-rule="evenodd" d="M15.2929 5.92607C15.6834 5.53555 16.3166 5.53555 16.7071 5.92607L22.7071 11.9261C23.0976 12.3166 23.0976 12.9498 22.7071 13.3403L16.7071 19.3403C16.3166 19.7308 15.6834 19.7308 15.2929 19.3403C14.9024 18.9498 14.9024 18.3166 15.2929 17.9261L20.5858 12.6332L15.2929 7.34029C14.9024 6.94976 14.9024 6.3166 15.2929 5.92607Z" fill="#0F2C4D"/>
<path fill-rule="evenodd" clip-rule="evenodd" d="M8.70711 5.92607C9.09763 6.3166 9.09763 6.94976 8.70711 7.34029L3.41421 12.6332L8.70711 17.9261C9.09763 18.3166 9.09763 18.9498 8.70711 19.3403C8.31658 19.7308 7.68342 19.7308 7.29289 19.3403L1.29289 13.3403C0.902369 12.9498 0.902369 12.3166 1.29289 11.9261L7.29289 5.92607C7.68342 5.53555 8.31658 5.53555 8.70711 5.92607Z" fill="#0F2C4D"/>
</svg>
