<svg width="24" height="25" viewBox="0 0 24 25" fill="none" xmlns="http://www.w3.org/2000/svg">
<path fill-rule="evenodd" clip-rule="evenodd" d="M10.5026 1.72869C10.9581 1.46619 11.4747 1.328 12.0005 1.328C12.5263 1.328 13.0428 1.4662 13.4984 1.72872L13.5005 1.72993L20.5005 5.72992C20.9561 5.99297 21.3345 6.3712 21.5978 6.82667C21.8611 7.28214 21.9999 7.79884 22.0005 8.32493V16.327C21.9999 16.8531 21.8611 17.3698 21.5978 17.8252C21.3345 18.2807 20.9561 18.6589 20.5005 18.922L20.4966 18.9242L13.5005 22.922L13.4987 22.923C13.0431 23.1856 12.5264 23.3239 12.0005 23.3239C11.4746 23.3239 10.9579 23.1857 10.5023 22.923L10.5005 22.922L3.50433 18.9242L3.50047 18.922C3.04487 18.6589 2.66644 18.2807 2.40316 17.8252C2.13989 17.3698 2.00101 16.8531 2.00047 16.327V8.32493C2.00101 7.79884 2.13989 7.28214 2.40316 6.82667C2.66644 6.3712 3.04487 5.99297 3.50047 5.72993L3.50433 5.7277L10.5026 1.72869ZM12.0005 3.328C11.8249 3.328 11.6525 3.37421 11.5005 3.46198L11.4966 3.4642L4.50047 7.46198L4.4989 7.46289C4.34773 7.55053 4.22216 7.67626 4.1347 7.82756C4.04701 7.97926 4.00073 8.15133 4.00047 8.32655V16.3254C4.00073 16.5006 4.04701 16.6726 4.1347 16.8243C4.22216 16.9756 4.34773 17.1014 4.4989 17.189L4.50047 17.1899L11.5005 21.1899C11.6525 21.2777 11.8249 21.3239 12.0005 21.3239C12.176 21.3239 12.3485 21.2777 12.5005 21.1899L12.5043 21.1877L19.5005 17.1899L19.5021 17.189C19.6532 17.1014 19.7788 16.9756 19.8662 16.8243C19.954 16.6725 20.0003 16.5003 20.0005 16.3249V8.32698C20.0003 8.15161 19.954 7.97938 19.8662 7.82756C19.7788 7.67626 19.6532 7.55054 19.5021 7.46289L19.5005 7.46198L12.5005 3.46199C12.3484 3.37422 12.176 3.328 12.0005 3.328Z" fill="#0F2C4D"/>
<path fill-rule="evenodd" clip-rule="evenodd" d="M6.63461 4.03567C6.9109 3.55747 7.52254 3.39379 8.00075 3.67009L12.0005 5.98104L16.0002 3.67009C16.4784 3.39379 17.09 3.55747 17.3663 4.03567C17.6426 4.51388 17.479 5.12552 17.0007 5.40182L12.5007 8.00182C12.1912 8.18066 11.8097 8.18066 11.5002 8.00182L7.00019 5.40182C6.52199 5.12552 6.35831 4.51388 6.63461 4.03567Z" fill="#0F2C4D"/>
<path fill-rule="evenodd" clip-rule="evenodd" d="M2.13461 11.8257C2.4109 11.3475 3.02255 11.1838 3.50075 11.4601L8.00075 14.0601C8.30999 14.2388 8.50047 14.5688 8.50047 14.926V20.116C8.50047 20.6682 8.05276 21.116 7.50047 21.116C6.94819 21.116 6.50047 20.6682 6.50047 20.116V15.5031L2.50019 13.1918C2.02199 12.9155 1.85831 12.3039 2.13461 11.8257Z" fill="#0F2C4D"/>
<path fill-rule="evenodd" clip-rule="evenodd" d="M21.8663 11.8257C22.1426 12.3039 21.979 12.9155 21.5007 13.1918L17.5005 15.5031V20.116C17.5005 20.6682 17.0528 21.116 16.5005 21.116C15.9482 21.116 15.5005 20.6682 15.5005 20.116V14.926C15.5005 14.5688 15.691 14.2388 16.0002 14.0601L20.5002 11.4601C20.9784 11.1838 21.59 11.3475 21.8663 11.8257Z" fill="#0F2C4D"/>
<path fill-rule="evenodd" clip-rule="evenodd" d="M2.40486 6.78523C2.68141 6.30717 3.29313 6.1438 3.7712 6.42034L12.0005 11.1807L20.2297 6.42034C20.7078 6.1438 21.3195 6.30717 21.5961 6.78523C21.8726 7.26329 21.7093 7.87502 21.2312 8.15156L12.5012 13.2016C12.1914 13.3807 11.8095 13.3807 11.4997 13.2016L2.76975 8.15156C2.29169 7.87502 2.12832 7.26329 2.40486 6.78523Z" fill="#0F2C4D"/>
<path fill-rule="evenodd" clip-rule="evenodd" d="M12.0005 11.326C12.5528 11.326 13.0005 11.7737 13.0005 12.326V22.406C13.0005 22.9582 12.5528 23.406 12.0005 23.406C11.4482 23.406 11.0005 22.9582 11.0005 22.406V12.326C11.0005 11.7737 11.4482 11.326 12.0005 11.326Z" fill="#0F2C4D"/>
</svg>
