<svg width="24" height="25" viewBox="0 0 24 25" fill="none" xmlns="http://www.w3.org/2000/svg">
<path fill-rule="evenodd" clip-rule="evenodd" d="M14.2929 3.92607C14.6834 3.53555 15.3166 3.53555 15.7071 3.92607L20.7071 8.92607C21.0976 9.3166 21.0976 9.94976 20.7071 10.3403C20.3166 10.7308 19.6834 10.7308 19.2929 10.3403L15 6.04739L10.7071 10.3403C10.3166 10.7308 9.68342 10.7308 9.29289 10.3403C8.90237 9.94976 8.90237 9.3166 9.29289 8.92607L14.2929 3.92607Z" fill="#0F2C4D"/>
<path fill-rule="evenodd" clip-rule="evenodd" d="M15 3.63318C15.5523 3.63318 16 4.08089 16 4.63318V16.6332C16 17.9593 15.4732 19.231 14.5355 20.1687C13.5979 21.1064 12.3261 21.6332 11 21.6332H4C3.44772 21.6332 3 21.1855 3 20.6332C3 20.0809 3.44772 19.6332 4 19.6332H11C11.7956 19.6332 12.5587 19.3171 13.1213 18.7545C13.6839 18.1919 14 17.4288 14 16.6332V4.63318C14 4.08089 14.4477 3.63318 15 3.63318Z" fill="#0F2C4D"/>
</svg>
