<svg width="24" height="25" viewBox="0 0 24 25" fill="none" xmlns="http://www.w3.org/2000/svg">
<path d="M5 17.5442L5 7.54419" stroke="#2CA874" stroke-width="2" stroke-linecap="round" stroke-linejoin="round"/>
<path d="M8 5.54419L17 5.54419" stroke="#0F2C4D" stroke-width="2" stroke-linecap="round" stroke-linejoin="round"/>
<path d="M8 19.5442H16" stroke="#0F2C4D" stroke-width="2" stroke-linecap="round" stroke-linejoin="round"/>
<path d="M19 16.5442V8.54419" stroke="#0F2C4D" stroke-width="2" stroke-linecap="round" stroke-linejoin="round"/>
<mask id="path-5-inside-1" fill="white">
<rect x="1.75" y="16.7942" width="6" height="6" rx="1.5"/>
</mask>
<rect x="1.75" y="16.7942" width="6" height="6" rx="1.5" stroke="#2CA874" stroke-width="4" mask="url(#path-5-inside-1)"/>
<mask id="path-6-inside-2" fill="white">
<rect x="2" y="2.54419" width="6" height="6" rx="1.5"/>
</mask>
<rect x="2" y="2.54419" width="6" height="6" rx="1.5" stroke="#209564" stroke-width="4" mask="url(#path-6-inside-2)"/>
<mask id="path-7-inside-3" fill="white">
<rect x="16.25" y="2.29419" width="6" height="6" rx="1.5"/>
</mask>
<rect x="16.25" y="2.29419" width="6" height="6" rx="1.5" stroke="#0F2C4D" stroke-width="4" mask="url(#path-7-inside-3)"/>
<mask id="path-8-inside-4" fill="white">
<rect x="16.25" y="16.7942" width="6" height="6" rx="1.5"/>
</mask>
<rect x="16.25" y="16.7942" width="6" height="6" rx="1.5" stroke="#0F2C4D" stroke-width="4" mask="url(#path-8-inside-4)"/>
</svg>
