<svg width="24" height="25" viewBox="0 0 24 25" fill="none" xmlns="http://www.w3.org/2000/svg">
<path fill-rule="evenodd" clip-rule="evenodd" d="M2.60914 13.5683C2.7424 13.5524 2.88049 13.5442 3.02107 13.5442H4.51756C5.06985 13.5442 5.51756 13.9919 5.51756 14.5442C5.51756 15.0965 5.06985 15.5442 4.51756 15.5442H3.02107C3.01399 15.5442 3.00697 15.5442 3 15.5443L3 16.7484C3 17.3007 2.55228 17.7484 2 17.7484C1.44772 17.7484 1 17.3007 1 16.7484L1 14.9526C1 14.3342 1.44808 13.9949 1.65087 13.8721C1.81509 13.7728 1.99651 13.7262 2.17534 13.7275C2.30146 13.6438 2.44857 13.5876 2.60914 13.5683ZM6.51054 14.5442C6.51054 13.9919 6.95825 13.5442 7.51054 13.5442L10.5035 13.5442C11.0558 13.5442 11.5035 13.9919 11.5035 14.5442C11.5035 15.0965 11.0558 15.5442 10.5035 15.5442L7.51054 15.5442C6.95825 15.5442 6.51054 15.0965 6.51054 14.5442ZM12.4965 14.5442C12.4965 13.9919 12.9442 13.5442 13.4965 13.5442H16.4895C17.0417 13.5442 17.4895 13.9919 17.4895 14.5442C17.4895 15.0965 17.0417 15.5442 16.4895 15.5442H13.4965C12.9442 15.5442 12.4965 15.0965 12.4965 14.5442ZM18.4824 14.5442C18.4824 13.9919 18.9302 13.5442 19.4824 13.5442H20.9789C21.1195 13.5442 21.2576 13.5524 21.3909 13.5683C21.5514 13.5876 21.6985 13.6438 21.8247 13.7275C22.0035 13.7262 22.1849 13.7728 22.3491 13.8721C22.5519 13.9949 23 14.3342 23 14.9526V16.7484C23 17.3007 22.5523 17.7484 22 17.7484C21.4477 17.7484 21 17.3007 21 16.7484V15.5443C20.993 15.5442 20.986 15.5442 20.9789 15.5442L19.4824 15.5442C18.9302 15.5442 18.4824 15.0965 18.4824 14.5442ZM2 19.34C2.55228 19.34 3 19.7877 3 20.34V21.5441C3.00697 21.5441 3.01399 21.5442 3.02107 21.5442H4.51756C5.06985 21.5442 5.51756 21.9919 5.51756 22.5442C5.51756 23.0965 5.06985 23.5442 4.51756 23.5442H3.02107C2.88049 23.5442 2.7424 23.536 2.60914 23.52C2.44857 23.5008 2.30146 23.4446 2.17534 23.3608C1.99651 23.3622 1.81509 23.3156 1.65087 23.2162C1.44808 23.0935 1 22.7542 1 22.1358L1 20.34C1 19.7877 1.44772 19.34 2 19.34ZM22 19.34C22.5523 19.34 23 19.7877 23 20.34V22.1358C23 22.7542 22.5519 23.0935 22.3491 23.2162C22.1849 23.3156 22.0035 23.3622 21.8247 23.3608C21.6985 23.4446 21.5514 23.5008 21.3909 23.52C21.2576 23.536 21.1195 23.5442 20.9789 23.5442H19.4824C18.9302 23.5442 18.4824 23.0965 18.4824 22.5442C18.4824 21.9919 18.9302 21.5442 19.4824 21.5442H20.9789C20.986 21.5442 20.993 21.5441 21 21.5441V20.34C21 19.7877 21.4477 19.34 22 19.34ZM6.51054 22.5442C6.51054 21.9919 6.95825 21.5442 7.51054 21.5442H10.5035C11.0558 21.5442 11.5035 21.9919 11.5035 22.5442C11.5035 23.0965 11.0558 23.5442 10.5035 23.5442H7.51054C6.95825 23.5442 6.51054 23.0965 6.51054 22.5442ZM12.4965 22.5442C12.4965 21.9919 12.9442 21.5442 13.4965 21.5442H16.4895C17.0417 21.5442 17.4895 21.9919 17.4895 22.5442C17.4895 23.0965 17.0417 23.5442 16.4895 23.5442H13.4965C12.9442 23.5442 12.4965 23.0965 12.4965 22.5442Z" fill="#B0BEC5"/>
<path fill-rule="evenodd" clip-rule="evenodd" d="M13.8135 11.496C13.6754 11.528 13.5322 11.5442 13.3874 11.5442L12.0405 11.5442C11.4882 11.5442 11.0405 11.0965 11.0405 10.5442C11.0405 9.9919 11.4882 9.54419 12.0405 9.54419L13 9.54419L13 8.33997C13 7.78769 13.4477 7.33997 14 7.33997C14.5523 7.33997 15 7.78769 15 8.33997L15 10.1358C15 10.4566 14.8811 10.7304 14.7234 10.9343C14.5979 11.0966 14.4323 11.2098 14.2514 11.2705C14.1305 11.3777 13.982 11.4571 13.8135 11.496ZM10.3468 10.5442C10.3468 11.0965 9.89912 11.5442 9.34684 11.5442L6.65316 11.5442C6.10088 11.5442 5.65316 11.0965 5.65316 10.5442C5.65316 9.99191 6.10088 9.54419 6.65316 9.54419L9.34684 9.54419C9.89912 9.54419 10.3468 9.9919 10.3468 10.5442ZM4.95948 10.5442C4.95948 11.0965 4.51177 11.5442 3.95948 11.5442L2.61264 11.5442C2.46783 11.5442 2.32463 11.528 2.18652 11.496C2.01805 11.4571 1.86946 11.3777 1.74862 11.2705C1.56766 11.2098 1.40209 11.0966 1.27658 10.9343C1.11894 10.7304 1 10.4566 1 10.1358L1 8.33998C1 7.78769 1.44772 7.33998 2 7.33998C2.55228 7.33998 3 7.78769 3 8.33998L3 9.54419L3.95948 9.54419C4.51177 9.54419 4.95948 9.99191 4.95948 10.5442ZM14 5.7484C13.4477 5.7484 13 5.30069 13 4.7484L13 3.54419L12.0405 3.54419C11.4882 3.54419 11.0405 3.09647 11.0405 2.54419C11.0405 1.99191 11.4882 1.54419 12.0405 1.54419L13.3874 1.54419C13.5322 1.54419 13.6754 1.56041 13.8135 1.59234C13.9819 1.63129 14.1305 1.71068 14.2514 1.81789C14.4323 1.87863 14.5979 1.99175 14.7234 2.1541C14.8811 2.35802 15 2.63179 15 2.95262L15 4.7484C15 5.30069 14.5523 5.7484 14 5.7484ZM2 5.74841C1.44772 5.74841 1 5.30069 1 4.74841L1 2.95262C1 2.63179 1.11894 2.35802 1.27658 2.1541C1.40209 1.99175 1.56767 1.87863 1.74862 1.81789C1.86946 1.71068 2.01805 1.63129 2.18652 1.59234C2.32463 1.56041 2.46783 1.54419 2.61264 1.54419L3.95948 1.54419C4.51177 1.54419 4.95948 1.99191 4.95948 2.54419C4.95948 3.09647 4.51177 3.54419 3.95948 3.54419L3 3.54419L3 4.74841C3 5.30069 2.55228 5.74841 2 5.74841ZM10.3468 2.54419C10.3468 3.09647 9.89912 3.54419 9.34684 3.54419L6.65316 3.54419C6.10088 3.54419 5.65316 3.09647 5.65316 2.54419C5.65316 1.99191 6.10088 1.54419 6.65316 1.54419L9.34684 1.54419C9.89912 1.54419 10.3468 1.99191 10.3468 2.54419Z" fill="#209564"/>
<path fill-rule="evenodd" clip-rule="evenodd" d="M19.0002 10.3918C18.5316 10.3918 18.1518 10.0119 18.1518 9.54334L18.1518 3.5441C18.1518 3.07553 18.5316 2.69568 19.0002 2.69568C19.4687 2.69568 19.8486 3.07553 19.8486 3.5441L19.8486 9.54334C19.8486 10.0119 19.4687 10.3918 19.0002 10.3918Z" fill="#209564"/>
<path fill-rule="evenodd" clip-rule="evenodd" d="M15.1523 6.54359C15.1523 6.07502 15.5321 5.69517 16.0007 5.69517L21.9999 5.69517C22.4685 5.69517 22.8484 6.07502 22.8484 6.54359C22.8484 7.01216 22.4685 7.39201 21.9999 7.39201L16.0007 7.39201C15.5321 7.39201 15.1523 7.01216 15.1523 6.54359Z" fill="#209564"/>
</svg>
