<svg width="24" height="24" viewBox="0 0 24 24" fill="none" xmlns="http://www.w3.org/2000/svg">
<path fill-rule="evenodd" clip-rule="evenodd" d="M19.0857 3.08594C18.8456 3.08594 18.6078 3.13323 18.386 3.22512C18.1642 3.31701 17.9626 3.45169 17.7928 3.62147L4.48061 16.9337L3.51094 20.4891L7.06639 19.5195L20.3786 6.20726C20.5484 6.03747 20.6831 5.83591 20.775 5.61407C20.8668 5.39224 20.9141 5.15448 20.9141 4.91436C20.9141 4.67425 20.8668 4.43649 20.775 4.21466C20.6831 3.99282 20.5484 3.79126 20.3786 3.62147C20.2088 3.45169 20.0073 3.31701 19.7854 3.22512C19.5636 3.13323 19.3258 3.08594 19.0857 3.08594ZM17.6206 1.37736C18.0851 1.18496 18.583 1.08594 19.0857 1.08594C19.5885 1.08594 20.0863 1.18496 20.5508 1.37736C21.0153 1.56976 21.4373 1.85176 21.7928 2.20726C22.1483 2.56276 22.4303 2.9848 22.6227 3.44929C22.8151 3.91378 22.9141 4.41161 22.9141 4.91436C22.9141 5.41712 22.8151 5.91495 22.6227 6.37944C22.4303 6.84393 22.1483 7.26597 21.7928 7.62147L8.29282 21.1215C8.16977 21.2445 8.01673 21.3333 7.84883 21.3791L2.34883 22.8791C2.00262 22.9735 1.63236 22.8752 1.37861 22.6215C1.12486 22.3677 1.02653 21.9975 1.12095 21.6512L2.62095 16.1512C2.66674 15.9834 2.75555 15.8303 2.87861 15.7073L16.3786 2.20726C16.7341 1.85176 17.1562 1.56976 17.6206 1.37736Z" fill="#0F2C4D"/>
</svg>
