<svg width="24" height="24" viewBox="0 0 24 24" fill="none" xmlns="http://www.w3.org/2000/svg">
<path fill-rule="evenodd" clip-rule="evenodd" d="M1.81801 3.93909C2.38062 3.37648 3.14368 3.06041 3.93933 3.06041H10.9393C11.4916 3.06041 11.9393 3.50812 11.9393 4.06041C11.9393 4.61269 11.4916 5.06041 10.9393 5.06041H3.93933C3.67411 5.06041 3.41976 5.16576 3.23222 5.3533C3.04469 5.54084 2.93933 5.79519 2.93933 6.06041V20.0604C2.93933 20.3256 3.04469 20.58 3.23222 20.7675C3.41976 20.9551 3.67411 21.0604 3.93933 21.0604H17.9393C18.2045 21.0604 18.4589 20.9551 18.6464 20.7675C18.834 20.58 18.9393 20.3256 18.9393 20.0604V13.0604C18.9393 12.5081 19.387 12.0604 19.9393 12.0604C20.4916 12.0604 20.9393 12.5081 20.9393 13.0604V20.0604C20.9393 20.8561 20.6233 21.6191 20.0607 22.1817C19.498 22.7443 18.735 23.0604 17.9393 23.0604H3.93933C3.14368 23.0604 2.38062 22.7443 1.81801 22.1817C1.2554 21.6191 0.939331 20.8561 0.939331 20.0604V6.06041C0.939331 5.26476 1.2554 4.5017 1.81801 3.93909Z" fill="#0F2C4D"/>
<path fill-rule="evenodd" clip-rule="evenodd" d="M19.9393 2.93909C19.6419 2.93909 19.3567 3.05723 19.1464 3.26751L9.84229 12.5717L9.3137 14.686L11.4281 14.1574L20.7322 4.8533C20.9425 4.64301 21.0607 4.3578 21.0607 4.06041C21.0607 3.76302 20.9425 3.4778 20.7322 3.26751C20.5219 3.05723 20.2367 2.93909 19.9393 2.93909ZM17.7322 1.8533C18.3176 1.26794 19.1115 0.939087 19.9393 0.939087C20.7672 0.939087 21.5611 1.26794 22.1464 1.8533C22.7318 2.43866 23.0607 3.23258 23.0607 4.06041C23.0607 4.88823 22.7318 5.68215 22.1464 6.26751L12.6464 15.7675C12.5183 15.8957 12.3577 15.9866 12.1819 16.0306L8.18187 17.0306C7.84109 17.1157 7.4806 17.0159 7.23222 16.7675C6.98384 16.5191 6.884 16.1586 6.96919 15.8179L7.96919 11.8179C8.01315 11.642 8.10407 11.4815 8.23222 11.3533L17.7322 1.8533Z" fill="#0F2C4D"/>
</svg>
