<svg width="24" height="25" viewBox="0 0 24 25" fill="none" xmlns="http://www.w3.org/2000/svg">
<path fill-rule="evenodd" clip-rule="evenodd" d="M11.0444 3.4139C12.3577 2.10052 14.1391 1.36267 15.9965 1.36267C17.8539 1.36267 19.6352 2.10052 20.9486 3.4139C22.262 4.72728 22.9998 6.50861 22.9998 8.36601C22.9998 10.223 22.2622 12.004 20.9493 13.3173L20.9486 13.3181L14.2096 20.0771C14.022 20.2652 13.7672 20.371 13.5015 20.371H5.00146C4.44918 20.371 4.00146 19.9233 4.00146 19.371V10.871C4.00146 10.6058 4.10682 10.3514 4.29436 10.1639L11.0444 3.4139ZM15.9965 3.36267C14.6695 3.36267 13.3969 3.88981 12.4586 4.82811L6.00146 11.2852V18.371H13.0864L19.5333 11.9049L19.5344 11.9039C20.4727 10.9656 20.9998 9.69297 20.9998 8.36601C20.9998 7.03904 20.4727 5.76642 19.5344 4.82811C18.5961 3.88981 17.3234 3.36267 15.9965 3.36267Z" fill="#0F2C4D"/>
<path fill-rule="evenodd" clip-rule="evenodd" d="M16.7086 7.6639C17.0991 8.05443 17.0991 8.68759 16.7086 9.07811L2.70857 23.0781C2.31805 23.4686 1.68488 23.4686 1.29436 23.0781C0.903834 22.6876 0.903834 22.0544 1.29436 21.6639L15.2944 7.6639C15.6849 7.27338 16.318 7.27338 16.7086 7.6639Z" fill="#0F2C4D"/>
<path fill-rule="evenodd" clip-rule="evenodd" d="M8.00146 15.371C8.00146 14.8187 8.44918 14.371 9.00146 14.371H17.5015C18.0537 14.371 18.5015 14.8187 18.5015 15.371C18.5015 15.9233 18.0537 16.371 17.5015 16.371H9.00146C8.44918 16.371 8.00146 15.9233 8.00146 15.371Z" fill="#0F2C4D"/>
</svg>
