<svg width="24" height="24" viewBox="0 0 24 24" fill="none" xmlns="http://www.w3.org/2000/svg">
<path fill-rule="evenodd" clip-rule="evenodd" d="M11.9942 9C10.3373 9 8.99419 10.3431 8.99419 12C8.99419 13.6569 10.3373 15 11.9942 15C13.651 15 14.9942 13.6569 14.9942 12C14.9942 10.3431 13.651 9 11.9942 9ZM6.99419 12C6.99419 9.23858 9.23277 7 11.9942 7C14.7556 7 16.9942 9.23858 16.9942 12C16.9942 14.7614 14.7556 17 11.9942 17C9.23277 17 6.99419 14.7614 6.99419 12Z" fill="#0F2C4D"/>
<path fill-rule="evenodd" clip-rule="evenodd" d="M0.0441895 12C0.0441895 11.4477 0.491905 11 1.04419 11H6.99419C7.54647 11 7.99419 11.4477 7.99419 12C7.99419 12.5523 7.54647 13 6.99419 13H1.04419C0.491905 13 0.0441895 12.5523 0.0441895 12Z" fill="#0F2C4D"/>
<path fill-rule="evenodd" clip-rule="evenodd" d="M16.0042 12C16.0042 11.4477 16.4519 11 17.0042 11H22.9542C23.5065 11 23.9542 11.4477 23.9542 12C23.9542 12.5523 23.5065 13 22.9542 13H17.0042C16.4519 13 16.0042 12.5523 16.0042 12Z" fill="#0F2C4D"/>
</svg>
