<svg width="24" height="24" viewBox="0 0 24 24" fill="none" xmlns="http://www.w3.org/2000/svg">
<path fill-rule="evenodd" clip-rule="evenodd" d="M3 8.99997C3 8.44768 3.44772 7.99997 4 7.99997H20C20.5523 7.99997 21 8.44768 21 8.99997C21 9.55225 20.5523 9.99997 20 9.99997H4C3.44772 9.99997 3 9.55225 3 8.99997Z" fill="#0F2C4D"/>
<path fill-rule="evenodd" clip-rule="evenodd" d="M3 15C3 14.4477 3.44772 14 4 14H20C20.5523 14 21 14.4477 21 15C21 15.5523 20.5523 16 20 16H4C3.44772 16 3 15.5523 3 15Z" fill="#0F2C4D"/>
<path fill-rule="evenodd" clip-rule="evenodd" d="M10.1104 2.00608C10.6593 2.06707 11.0549 2.56149 10.9939 3.1104L8.99388 21.1104C8.93289 21.6593 8.43848 22.0548 7.88957 21.9938C7.34066 21.9329 6.94513 21.4384 7.00612 20.8895L9.00612 2.88953C9.06711 2.34063 9.56152 1.94509 10.1104 2.00608Z" fill="#0F2C4D"/>
<path fill-rule="evenodd" clip-rule="evenodd" d="M16.1104 2.00608C16.6593 2.06707 17.0549 2.56149 16.9939 3.1104L14.9939 21.1104C14.9329 21.6593 14.4385 22.0548 13.8896 21.9938C13.3407 21.9329 12.9451 21.4384 13.0061 20.8895L15.0061 2.88953C15.0671 2.34063 15.5615 1.94509 16.1104 2.00608Z" fill="#0F2C4D"/>
</svg>
