<svg width="82" height="48" viewBox="0 0 82 48" fill="none" xmlns="http://www.w3.org/2000/svg">
<path d="M22.0625 35.0999C21.7625 35.0999 21.5625 34.9999 21.3625 34.7999L12.5625 25.9999C11.2625 24.7999 10.5625 23.0999 10.5625 21.3999C10.5625 19.6999 11.2625 17.9999 12.4625 16.7999C13.6625 15.5999 15.3625 14.8999 17.0625 14.8999C18.7625 14.8999 20.4625 15.5999 21.6625 16.7999L22.0625 17.1999L22.4625 16.7999C23.5625 15.5999 25.2625 14.8999 26.9625 14.8999C28.6625 14.8999 30.3625 15.5999 31.5625 16.7999C34.0625 19.2999 34.0625 23.4999 31.5625 25.9999L22.7625 34.7999C22.5625 34.9999 22.2625 35.0999 22.0625 35.0999ZM17.0625 16.8999C15.8625 16.8999 14.7625 17.2999 13.8625 18.1999C12.0625 19.9999 12.0625 22.7999 13.8625 24.5999L21.9625 32.6999L30.0625 24.5999C30.9625 23.6999 31.3625 22.5999 31.3625 21.3999C31.3625 20.1999 30.8625 19.0999 30.0625 18.1999C29.2625 17.2999 28.0625 16.8999 26.8625 16.8999C25.6625 16.8999 24.5625 17.3999 23.6625 18.1999L22.6625 19.2999C22.2625 19.6999 21.6625 19.6999 21.2625 19.2999L20.2625 18.1999C19.3625 17.2999 18.2625 16.8999 17.0625 16.8999Z" fill="#0F2C4D"/>
<path d="M60.3625 34.7999C60.5625 34.9999 60.7625 35.0999 61.0625 35.0999C61.2625 35.0999 61.5625 34.9999 61.7625 34.7999L70.5625 25.9999C73.0625 23.4999 73.0625 19.2999 70.5625 16.7999C69.3625 15.5999 67.6625 14.8999 65.9625 14.8999C64.2625 14.8999 62.5625 15.5999 61.4625 16.7999L61.0625 17.1999L60.6625 16.7999C59.4625 15.5999 57.7625 14.8999 56.0625 14.8999C54.3625 14.8999 52.6625 15.5999 51.4625 16.7999C50.2625 17.9999 49.5625 19.6999 49.5625 21.3999C49.5625 23.0999 50.2625 24.7999 51.5625 25.9999L60.3625 34.7999Z" fill="#0F2C4D"/>
<rect x="0.5" y="0.5" width="81" height="47" rx="4.5" stroke="#7B61FF" stroke-dasharray="10 5"/>
</svg>
