<svg width="24" height="24" viewBox="0 0 24 24" fill="none" xmlns="http://www.w3.org/2000/svg">
<path d="M21.74 5.25853C21.74 5.25853 21.74 5.20853 21.74 5.18853C21.7273 5.0896 21.7038 4.99236 21.67 4.89853C21.67 4.89853 21.67 4.89853 21.67 4.84853C21.67 4.79853 21.67 4.84853 21.67 4.84853C21.6147 4.75364 21.5475 4.66626 21.47 4.58853C21.3997 4.52944 21.3224 4.47908 21.24 4.43853L12.38 0.238529C12.2457 0.174555 12.0988 0.141357 11.95 0.141357C11.8012 0.141357 11.6543 0.174555 11.52 0.238529L2.66 4.43853C2.57329 4.4769 2.49246 4.5274 2.41998 4.58853C2.33946 4.66359 2.2719 4.75144 2.22 4.84853C2.22 4.84853 2.22 4.84853 2.22 4.89853C2.1823 4.99115 2.15869 5.0889 2.14999 5.18853C2.14999 5.18853 2.14999 5.18853 2.14999 5.25853V18.4985C2.14999 18.4985 2.14999 18.4985 2.14999 18.5685C2.12958 18.7725 2.17235 18.9778 2.27252 19.1567C2.37269 19.3356 2.5254 19.4793 2.70999 19.5685L11.57 23.7585C11.7034 23.8255 11.8508 23.8598 12 23.8585C12.149 23.8576 12.2959 23.8235 12.43 23.7585L21.29 19.5685C21.4746 19.4793 21.6273 19.3356 21.7275 19.1567C21.8276 18.9778 21.8704 18.7725 21.85 18.5685C21.85 18.5685 21.85 18.5685 21.85 18.4985V11.9285L21.74 5.25853ZM4.01999 6.83853L11.45 10.3585C11.5855 10.4179 11.732 10.4486 11.88 10.4485C12.0279 10.4475 12.1741 10.4169 12.31 10.3585L19.74 6.83853V11.3585L11.84 15.0785L3.98001 11.3585L4.01999 6.83853ZM11.84 2.16853L18.36 5.25853L11.84 8.34853L5.30999 5.25853L11.84 2.16853ZM11.84 21.7185L3.98001 17.9985V13.5785L11.41 17.0885C11.5434 17.1555 11.6908 17.1898 11.84 17.1885C11.989 17.1876 12.1359 17.1535 12.27 17.0885L19.7 13.5785V17.9985L11.84 21.7185Z" fill="#0F2C4D"/>
</svg>
