<svg width="24" height="25" viewBox="0 0 24 25" fill="none" xmlns="http://www.w3.org/2000/svg">
<path fill-rule="evenodd" clip-rule="evenodd" d="M14 3.63318C14 3.08089 14.4477 2.63318 15 2.63318H19C19.7957 2.63318 20.5587 2.94925 21.1213 3.51186C21.6839 4.07447 22 4.83753 22 5.63318V19.6332C22 20.4288 21.6839 21.1919 21.1213 21.7545C20.5587 22.3171 19.7957 22.6332 19 22.6332H15C14.4477 22.6332 14 22.1855 14 21.6332C14 21.0809 14.4477 20.6332 15 20.6332H19C19.2652 20.6332 19.5196 20.5278 19.7071 20.3403C19.8946 20.1527 20 19.8984 20 19.6332V5.63318C20 5.36796 19.8946 5.11361 19.7071 4.92607C19.5196 4.73854 19.2652 4.63318 19 4.63318H15C14.4477 4.63318 14 4.18546 14 3.63318Z" fill="#0F2C4D"/>
<path fill-rule="evenodd" clip-rule="evenodd" d="M9.29289 6.92607C9.68342 6.53555 10.3166 6.53555 10.7071 6.92607L15.7071 11.9261C16.0976 12.3166 16.0976 12.9498 15.7071 13.3403L10.7071 18.3403C10.3166 18.7308 9.68342 18.7308 9.29289 18.3403C8.90237 17.9498 8.90237 17.3166 9.29289 16.9261L13.5858 12.6332L9.29289 8.34029C8.90237 7.94976 8.90237 7.3166 9.29289 6.92607Z" fill="#0F2C4D"/>
<path fill-rule="evenodd" clip-rule="evenodd" d="M2 12.6332C2 12.0809 2.44772 11.6332 3 11.6332H15C15.5523 11.6332 16 12.0809 16 12.6332C16 13.1855 15.5523 13.6332 15 13.6332H3C2.44772 13.6332 2 13.1855 2 12.6332Z" fill="#0F2C4D"/>
</svg>
