<svg width="24" height="25" viewBox="0 0 24 25" fill="none" xmlns="http://www.w3.org/2000/svg">
<path fill-rule="evenodd" clip-rule="evenodd" d="M20 4.54419H4V20.5442H20V4.54419ZM4 2.54419C2.89543 2.54419 2 3.43962 2 4.54419V20.5442C2 21.6488 2.89543 22.5442 4 22.5442H20C21.1046 22.5442 22 21.6488 22 20.5442V4.54419C22 3.43962 21.1046 2.54419 20 2.54419H4Z" fill="#0F2C4D"/>
<path fill-rule="evenodd" clip-rule="evenodd" d="M6.33496 17.2202V9.35718H8.33496V16.2202H14.6466V18.2202H7.33496C6.78268 18.2202 6.33496 17.7725 6.33496 17.2202Z" fill="#0F2C4D"/>
<path d="M17.3795 17.021C17.5063 17.1211 17.5063 17.3134 17.3795 17.4135L14.9519 19.3297C14.788 19.4591 14.547 19.3423 14.547 19.1335V15.301C14.547 15.0921 14.788 14.9754 14.9519 15.1048L17.3795 17.021Z" fill="#0F2C4D"/>
<path d="M7.07691 6.88832C7.177 6.76151 7.36928 6.76151 7.46937 6.88832L9.3856 9.31588C9.51501 9.47982 9.39824 9.72077 9.18937 9.72077H5.35691C5.14804 9.72077 5.03127 9.47982 5.16068 9.31587L7.07691 6.88832Z" fill="#0F2C4D"/>
</svg>
