<svg width="24" height="24" viewBox="0 0 24 24" fill="none" xmlns="http://www.w3.org/2000/svg">
<path fill-rule="evenodd" clip-rule="evenodd" d="M3.99996 5C3.45225 5 2.99996 5.45228 2.99996 6V18C2.99996 18.5477 3.45225 19 3.99996 19H20C20.5477 19 21 18.5477 21 18V6C21 5.45228 20.5477 5 20 5H3.99996ZM0.999964 6C0.999964 4.34772 2.34768 3 3.99996 3H20C21.6522 3 23 4.34772 23 6V18C23 19.6523 21.6522 21 20 21H3.99996C2.34768 21 0.999964 19.6523 0.999964 18V6Z" fill="#0F2C4D"/>
<path fill-rule="evenodd" clip-rule="evenodd" d="M1.18073 5.42654C1.49745 4.97409 2.12098 4.86405 2.57343 5.18077L12 11.7793L21.4265 5.18077C21.879 4.86405 22.5025 4.97409 22.8192 5.42654C23.1359 5.87899 23.0259 6.50252 22.5734 6.81923L12.5734 13.8192C12.2291 14.0603 11.7708 14.0603 11.4265 13.8192L1.4265 6.81923C0.974052 6.50252 0.864017 5.87899 1.18073 5.42654Z" fill="#0F2C4D"/>
</svg>
