<svg width="24" height="25" viewBox="0 0 24 25" fill="none" xmlns="http://www.w3.org/2000/svg">
<path fill-rule="evenodd" clip-rule="evenodd" d="M14 3.63318C14 3.08089 14.4477 2.63318 15 2.63318H21C21.5523 2.63318 22 3.08089 22 3.63318V9.63318C22 10.1855 21.5523 10.6332 21 10.6332C20.4477 10.6332 20 10.1855 20 9.63318V4.63318H15C14.4477 4.63318 14 4.18546 14 3.63318Z" fill="#0F2C4D"/>
<path fill-rule="evenodd" clip-rule="evenodd" d="M3 14.6332C3.55228 14.6332 4 15.0809 4 15.6332V20.6332H9C9.55228 20.6332 10 21.0809 10 21.6332C10 22.1855 9.55228 22.6332 9 22.6332H3C2.44772 22.6332 2 22.1855 2 21.6332V15.6332C2 15.0809 2.44772 14.6332 3 14.6332Z" fill="#0F2C4D"/>
<path fill-rule="evenodd" clip-rule="evenodd" d="M21.7071 2.92607C22.0976 3.3166 22.0976 3.94976 21.7071 4.34029L14.7071 11.3403C14.3166 11.7308 13.6834 11.7308 13.2929 11.3403C12.9024 10.9498 12.9024 10.3166 13.2929 9.92607L20.2929 2.92607C20.6834 2.53555 21.3166 2.53555 21.7071 2.92607Z" fill="#0F2C4D"/>
<path fill-rule="evenodd" clip-rule="evenodd" d="M10.7071 13.9261C11.0976 14.3166 11.0976 14.9498 10.7071 15.3403L3.70711 22.3403C3.31658 22.7308 2.68342 22.7308 2.29289 22.3403C1.90237 21.9498 1.90237 21.3166 2.29289 20.9261L9.29289 13.9261C9.68342 13.5355 10.3166 13.5355 10.7071 13.9261Z" fill="#0F2C4D"/>
</svg>
