<svg width="24" height="24" viewBox="0 0 24 24" fill="none" xmlns="http://www.w3.org/2000/svg">
<g clip-path="url(#clip0)">
<path d="M23.0006 24C22.7006 24 22.5006 23.9 22.3006 23.7L0.30061 1.7C-0.0993896 1.3 -0.0993896 0.7 0.30061 0.3C0.70061 -0.1 1.30061 -0.1 1.70061 0.3L23.7006 22.3C24.1006 22.7 24.1006 23.3 23.7006 23.7C23.5006 23.9 23.3006 24 23.0006 24Z" fill="#0F2C4D"/>
<path d="M12.0006 16C10.9006 16 9.90061 15.6 9.20061 14.8C8.40061 14.1 8.00061 13.1 8.00061 12V9C8.00061 8.4 8.40061 8 9.00061 8C9.60061 8 10.0006 8.4 10.0006 9V12C10.0006 12.5 10.2006 13 10.6006 13.4C11.0006 13.8 11.5006 14 12.0006 14C12.5006 14 13.0006 13.8 13.4006 13.4C13.8006 13 14.4006 13 14.8006 13.4C15.2006 13.8 15.2006 14.4 14.8006 14.8C14.1006 15.6 13.1006 16 12.0006 16ZM15.0006 10.3C14.4006 10.3 14.0006 9.9 14.0006 9.3V4C14.0006 3.5 13.8006 3 13.4006 2.6C13.0006 2.2 12.5006 2 12.0006 2C11.1006 2 10.2006 2.7 10.0006 3.6C9.90061 4.1 9.40061 4.5 8.90061 4.4C8.30061 4.3 8.00061 3.7 8.10061 3.2C8.50061 1.3 10.1006 0 12.0006 0C13.1006 0 14.1006 0.4 14.8006 1.2C15.6006 1.9 16.0006 2.9 16.0006 4V9.3C16.0006 9.9 15.6006 10.3 15.0006 10.3Z" fill="#0F2C4D"/>
<path d="M12.0006 20.1C10.0006 20.1 8.00061 19.3 6.40061 17.8C4.90061 16.3 4.00061 14.2 4.00061 12V10C4.00061 9.4 4.40061 9 5.00061 9C5.60061 9 6.00061 9.4 6.00061 10V12C6.00061 13.6 6.60061 15.2 7.80061 16.3C10.2006 18.6 14.0006 18.6 16.3006 16.2C16.7006 15.8 17.3006 15.8 17.7006 16.2C18.1006 16.6 18.1006 17.2 17.7006 17.6C16.2006 19.2 14.1006 20.1 12.0006 20.1ZM18.9006 14.2C18.8006 14.2 18.8006 14.2 18.7006 14.2C18.2006 14.1 17.8006 13.6 17.9006 13C18.0006 12.7 18.0006 12.4 18.0006 12V10C18.0006 9.4 18.4006 9 19.0006 9C19.6006 9 20.0006 9.4 20.0006 10V12C20.0006 12.5 20.0006 12.9 19.9006 13.4C19.8006 13.9 19.4006 14.2 18.9006 14.2Z" fill="#0F2C4D"/>
<path d="M12.0006 24C11.4006 24 11.0006 23.6 11.0006 23V19C11.0006 18.4 11.4006 18 12.0006 18C12.6006 18 13.0006 18.4 13.0006 19V23C13.0006 23.6 12.6006 24 12.0006 24Z" fill="#0F2C4D"/>
<path d="M16.0006 24H8.00061C7.40061 24 7.00061 23.6 7.00061 23C7.00061 22.4 7.40061 22 8.00061 22H16.0006C16.6006 22 17.0006 22.4 17.0006 23C17.0006 23.6 16.6006 24 16.0006 24Z" fill="#0F2C4D"/>
</g>
<defs>
<clipPath id="clip0">
<rect width="24" height="24" fill="white" transform="translate(0.000610352)"/>
</clipPath>
</defs>
</svg>
