<svg width="24" height="25" viewBox="0 0 24 25" fill="none" xmlns="http://www.w3.org/2000/svg">
<path fill-rule="evenodd" clip-rule="evenodd" d="M5.70711 8.92607C6.09763 9.3166 6.09763 9.94976 5.70711 10.3403L3.41421 12.6332L5.70711 14.9261C6.09763 15.3166 6.09763 15.9498 5.70711 16.3403C5.31658 16.7308 4.68342 16.7308 4.29289 16.3403L1.29289 13.3403C0.902369 12.9498 0.902369 12.3166 1.29289 11.9261L4.29289 8.92607C4.68342 8.53555 5.31658 8.53555 5.70711 8.92607Z" fill="#0F2C4D"/>
<path fill-rule="evenodd" clip-rule="evenodd" d="M11.2929 1.92607C11.6834 1.53555 12.3166 1.53555 12.7071 1.92607L15.7071 4.92607C16.0976 5.3166 16.0976 5.94976 15.7071 6.34029C15.3166 6.73081 14.6834 6.73081 14.2929 6.34029L12 4.04739L9.70711 6.34029C9.31658 6.73081 8.68342 6.73081 8.29289 6.34029C7.90237 5.94976 7.90237 5.3166 8.29289 4.92607L11.2929 1.92607Z" fill="#0F2C4D"/>
<path fill-rule="evenodd" clip-rule="evenodd" d="M8.29289 18.9261C8.68342 18.5355 9.31658 18.5355 9.70711 18.9261L12 21.219L14.2929 18.9261C14.6834 18.5355 15.3166 18.5355 15.7071 18.9261C16.0976 19.3166 16.0976 19.9498 15.7071 20.3403L12.7071 23.3403C12.3166 23.7308 11.6834 23.7308 11.2929 23.3403L8.29289 20.3403C7.90237 19.9498 7.90237 19.3166 8.29289 18.9261Z" fill="#0F2C4D"/>
<path fill-rule="evenodd" clip-rule="evenodd" d="M18.2929 8.92607C18.6834 8.53555 19.3166 8.53555 19.7071 8.92607L22.7071 11.9261C23.0976 12.3166 23.0976 12.9498 22.7071 13.3403L19.7071 16.3403C19.3166 16.7308 18.6834 16.7308 18.2929 16.3403C17.9024 15.9498 17.9024 15.3166 18.2929 14.9261L20.5858 12.6332L18.2929 10.3403C17.9024 9.94976 17.9024 9.3166 18.2929 8.92607Z" fill="#0F2C4D"/>
<path fill-rule="evenodd" clip-rule="evenodd" d="M1 12.6332C1 12.0809 1.44772 11.6332 2 11.6332H22C22.5523 11.6332 23 12.0809 23 12.6332C23 13.1855 22.5523 13.6332 22 13.6332H2C1.44772 13.6332 1 13.1855 1 12.6332Z" fill="#0F2C4D"/>
<path fill-rule="evenodd" clip-rule="evenodd" d="M12 1.63318C12.5523 1.63318 13 2.08089 13 2.63318V22.6332C13 23.1855 12.5523 23.6332 12 23.6332C11.4477 23.6332 11 23.1855 11 22.6332V2.63318C11 2.08089 11.4477 1.63318 12 1.63318Z" fill="#0F2C4D"/>
</svg>
