<svg width="24" height="24" viewBox="0 0 24 24" fill="none" xmlns="http://www.w3.org/2000/svg">
<path fill-rule="evenodd" clip-rule="evenodd" d="M5.00061 4C5.00061 3.44772 5.44833 3 6.00061 3H10.0006C10.5529 3 11.0006 3.44772 11.0006 4V20C11.0006 20.5523 10.5529 21 10.0006 21H6.00061C5.44833 21 5.00061 20.5523 5.00061 20V4ZM7.00061 5V19H9.00061V5H7.00061Z" fill="#0F2C4D"/>
<path fill-rule="evenodd" clip-rule="evenodd" d="M13.0006 4C13.0006 3.44772 13.4483 3 14.0006 3H18.0006C18.5529 3 19.0006 3.44772 19.0006 4V20C19.0006 20.5523 18.5529 21 18.0006 21H14.0006C13.4483 21 13.0006 20.5523 13.0006 20V4ZM15.0006 5V19H17.0006V5H15.0006Z" fill="#0F2C4D"/>
</svg>
