<svg width="24" height="25" viewBox="0 0 24 25" fill="none" xmlns="http://www.w3.org/2000/svg">
<g clip-path="url(#clip0)">
<path d="M18.4603 10.9167C18.1603 10.9167 17.9603 10.8167 17.7603 10.6167C17.3603 10.2167 17.3603 9.61675 17.7603 9.21675L21.0603 5.91675L17.7603 2.61675C17.3603 2.21675 17.3603 1.61675 17.7603 1.21675C18.1603 0.816748 18.7603 0.816748 19.1603 1.21675L23.1603 5.21675C23.5603 5.61675 23.5603 6.21675 23.1603 6.61675L19.1603 10.6167C18.9603 10.8167 18.6603 10.9167 18.4603 10.9167Z" fill="#0F2C4D"/>
<path d="M22.4603 6.91675H14.4603C13.8603 6.91675 13.4603 6.51675 13.4603 5.91675C13.4603 5.31675 13.8603 4.91675 14.4603 4.91675H22.4603C23.0603 4.91675 23.4603 5.31675 23.4603 5.91675C23.4603 6.51675 22.9603 6.91675 22.4603 6.91675Z" fill="#0F2C4D"/>
<path d="M19.4603 23.8167C19.3603 23.8167 19.2603 23.8167 19.1603 23.8167C15.9603 23.4167 12.7603 22.3167 10.0603 20.6167C7.5603 19.0167 5.3603 16.8167 3.7603 14.3167C2.0603 11.6167 0.960298 8.41675 0.560298 5.21675C0.460298 4.41675 0.760298 3.61675 1.2603 3.01675C1.7603 2.41675 2.4603 2.01675 3.2603 1.91675C3.3603 1.91675 3.4603 1.91675 3.5603 1.91675H6.5603C8.0603 1.91675 9.3603 3.01675 9.5603 4.51675C9.6603 5.41675 9.8603 6.31675 10.1603 7.11675C10.5603 8.21675 10.3603 9.41675 9.5603 10.2167L8.8603 10.9167C10.0603 12.7167 11.5603 14.3167 13.4603 15.5167L14.1603 14.8167C14.9603 14.0167 16.2603 13.7167 17.3603 14.1167C18.1603 14.4167 19.0603 14.6167 19.9603 14.7167C21.4603 14.9167 22.5603 16.2167 22.5603 17.7167V20.7167C22.5603 21.5167 22.2603 22.3167 21.6603 22.8167C21.0603 23.3167 20.2603 23.8167 19.4603 23.8167ZM6.5603 3.91675H3.5603C3.1603 3.91675 2.9603 4.11675 2.7603 4.31675C2.6603 4.51675 2.5603 4.71675 2.5603 5.01675C2.8603 7.91675 3.8603 10.7167 5.4603 13.2167C6.9603 15.5167 8.8603 17.5167 11.1603 18.9167C13.6603 20.5167 16.4603 21.5167 19.3603 21.8167C19.7603 21.8167 19.9603 21.7167 20.1603 21.5167C20.3603 21.3167 20.4603 21.1167 20.4603 20.8167V17.8167C20.4603 17.3167 20.0603 16.9167 19.5603 16.8167C18.5603 16.7167 17.5603 16.4167 16.5603 16.0167C16.1603 15.9167 15.7603 15.9167 15.4603 16.2167L14.1603 17.5167C13.8603 17.8167 13.3603 17.9167 12.9603 17.7167C10.2603 16.2167 8.0603 14.0167 6.5603 11.3167C6.4603 10.9167 6.5603 10.4167 6.8603 10.1167L8.1603 8.81675C8.4603 8.51675 8.5603 8.11675 8.3603 7.71675C7.9603 6.71675 7.7603 5.71675 7.5603 4.71675C7.4603 4.31675 7.0603 3.91675 6.5603 3.91675Z" fill="#0F2C4D"/>
</g>
<defs>
<clipPath id="clip0">
<rect width="24" height="24" fill="white" transform="translate(0 0.366821)"/>
</clipPath>
</defs>
</svg>
