<svg width="24" height="25" viewBox="0 0 24 25" fill="none" xmlns="http://www.w3.org/2000/svg">
<path d="M7 11.6166H1C0.4 11.6166 0 11.2166 0 10.6166V4.61657C0 4.01657 0.4 3.61657 1 3.61657C1.6 3.61657 2 4.01657 2 4.61657V9.61657H7C7.6 9.61657 8 10.0166 8 10.6166C8 11.2166 7.6 11.6166 7 11.6166Z" fill="#0F2C4D"/>
<path d="M23 21.6166C22.4 21.6166 22 21.2166 22 20.6166V15.6166H17C16.4 15.6166 16 15.2166 16 14.6166C16 14.0166 16.4 13.6166 17 13.6166H23C23.6 13.6166 24 14.0166 24 14.6166V20.6166C24 21.2166 23.6 21.6166 23 21.6166Z" fill="#0F2C4D"/>
<path d="M12 22.6166C9.4 22.6166 6.9 21.6166 4.9 19.7166C3.9 18.7166 3 17.4166 2.5 16.0166C2.3 15.5166 2.6 14.9166 3.1 14.7166C3.6 14.5166 4.2 14.8166 4.4 15.3166C4.8 16.4166 5.4 17.5166 6.3 18.3166C9.4 21.4166 14.5 21.4166 17.6 18.3166L22.3 13.9166C22.7 13.5166 23.3 13.5166 23.7 13.9166C24.1 14.3166 24.1 14.9166 23.7 15.3166L19 19.7166C17.1 21.6166 14.6 22.6166 12 22.6166ZM1 11.6166C0.7 11.6166 0.5 11.5166 0.3 11.3166C-0.1 10.9166 -0.1 10.3166 0.3 9.91657L5 5.51657C6 4.51657 7.3 3.71657 8.7 3.21657C11.2 2.31657 13.9 2.51657 16.3 3.61657C18.7 4.81657 20.5 6.81657 21.4 9.31657C21.6 9.81657 21.3 10.4166 20.8 10.6166C20.3 10.8166 19.7 10.5166 19.5 10.0166C18.8 8.01657 17.3 6.41657 15.4 5.41657C13.5 4.51657 11.3 4.41657 9.3 5.11657C8.2 5.51657 7.1 6.11657 6.3 7.01657L1.7 11.3166C1.5 11.5166 1.2 11.6166 1 11.6166Z" fill="#0F2C4D"/>
</svg>
