<svg width="24" height="25" viewBox="0 0 24 25" fill="none" xmlns="http://www.w3.org/2000/svg">
<g clip-path="url(#clip0)">
<path fill-rule="evenodd" clip-rule="evenodd" d="M16.2929 0.926072C16.6834 0.535548 17.3166 0.535548 17.7071 0.926072L21.7071 4.92607C22.0976 5.3166 22.0976 5.94976 21.7071 6.34029L17.7071 10.3403C17.3166 10.7308 16.6834 10.7308 16.2929 10.3403C15.9024 9.94976 15.9024 9.3166 16.2929 8.92607L19.5858 5.63318L16.2929 2.34029C15.9024 1.94976 15.9024 1.3166 16.2929 0.926072Z" fill="#0F2C4D"/>
<path fill-rule="evenodd" clip-rule="evenodd" d="M7 6.63318C6.20435 6.63318 5.44129 6.94925 4.87868 7.51186C4.31607 8.07447 4 8.83753 4 9.63318V11.6332C4 12.1855 3.55228 12.6332 3 12.6332C2.44772 12.6332 2 12.1855 2 11.6332V9.63318C2 8.3071 2.52678 7.03533 3.46447 6.09764C4.40215 5.15996 5.67392 4.63318 7 4.63318H21C21.5523 4.63318 22 5.08089 22 5.63318C22 6.18546 21.5523 6.63318 21 6.63318H7Z" fill="#0F2C4D"/>
<path fill-rule="evenodd" clip-rule="evenodd" d="M7.70711 14.9261C8.09763 15.3166 8.09763 15.9498 7.70711 16.3403L4.41421 19.6332L7.70711 22.9261C8.09763 23.3166 8.09763 23.9498 7.70711 24.3403C7.31658 24.7308 6.68342 24.7308 6.29289 24.3403L2.29289 20.3403C1.90237 19.9498 1.90237 19.3166 2.29289 18.9261L6.29289 14.9261C6.68342 14.5355 7.31658 14.5355 7.70711 14.9261Z" fill="#0F2C4D"/>
<path fill-rule="evenodd" clip-rule="evenodd" d="M21 12.6332C21.5523 12.6332 22 13.0809 22 13.6332V15.6332C22 16.9593 21.4732 18.231 20.5355 19.1687C19.5979 20.1064 18.3261 20.6332 17 20.6332H3C2.44772 20.6332 2 20.1855 2 19.6332C2 19.0809 2.44772 18.6332 3 18.6332H17C17.7956 18.6332 18.5587 18.3171 19.1213 17.7545C19.6839 17.1919 20 16.4288 20 15.6332V13.6332C20 13.0809 20.4477 12.6332 21 12.6332Z" fill="#0F2C4D"/>
</g>
<defs>
<clipPath id="clip0">
<rect width="24" height="24" fill="white" transform="translate(0 0.633179)"/>
</clipPath>
</defs>
</svg>
