<svg width="24" height="24" viewBox="0 0 24 24" fill="none" xmlns="http://www.w3.org/2000/svg">
<path fill-rule="evenodd" clip-rule="evenodd" d="M11.44 4.10169C11.7831 4.2695 12.0006 4.61807 12.0006 5.00001V19C12.0006 19.3819 11.7831 19.7305 11.44 19.8983C11.0969 20.0661 10.6881 20.0238 10.3867 19.7894L1.38667 12.7894C1.14308 12.5999 1.00061 12.3086 1.00061 12C1.00061 11.6914 1.14308 11.4001 1.38667 11.2107L10.3867 4.21066C10.6881 3.97617 11.0969 3.93389 11.44 4.10169ZM3.62943 12L10.0006 16.9554V7.04465L3.62943 12Z" fill="#0F2C4D"/>
<path fill-rule="evenodd" clip-rule="evenodd" d="M22.44 4.10169C22.7831 4.2695 23.0006 4.61807 23.0006 5.00001V19C23.0006 19.3819 22.7831 19.7305 22.44 19.8983C22.0969 20.0661 21.6881 20.0238 21.3867 19.7894L12.3867 12.7894C12.1431 12.5999 12.0006 12.3086 12.0006 12C12.0006 11.6914 12.1431 11.4001 12.3867 11.2107L21.3867 4.21066C21.6881 3.97617 22.0969 3.93389 22.44 4.10169ZM14.6294 12L21.0006 16.9554V7.04465L14.6294 12Z" fill="#0F2C4D"/>
</svg>
