<svg width="24" height="24" viewBox="0 0 24 24" fill="none" xmlns="http://www.w3.org/2000/svg">
<path fill-rule="evenodd" clip-rule="evenodd" d="M6.5 4C5.39543 4 4.5 4.89543 4.5 6C4.5 7.10457 5.39543 8 6.5 8C7.60457 8 8.5 7.10457 8.5 6C8.5 4.89543 7.60457 4 6.5 4ZM2.5 6C2.5 3.79086 4.29086 2 6.5 2C8.70914 2 10.5 3.79086 10.5 6C10.5 8.20914 8.70914 10 6.5 10C4.29086 10 2.5 8.20914 2.5 6Z" fill="#0F2C4D"/>
<path fill-rule="evenodd" clip-rule="evenodd" d="M6.5 16C5.39543 16 4.5 16.8954 4.5 18C4.5 19.1046 5.39543 20 6.5 20C7.60457 20 8.5 19.1046 8.5 18C8.5 16.8954 7.60457 16 6.5 16ZM2.5 18C2.5 15.7909 4.29086 14 6.5 14C8.70914 14 10.5 15.7909 10.5 18C10.5 20.2091 8.70914 22 6.5 22C4.29086 22 2.5 20.2091 2.5 18Z" fill="#0F2C4D"/>
<path fill-rule="evenodd" clip-rule="evenodd" d="M21.2071 3.29289C21.5976 3.68342 21.5976 4.31658 21.2071 4.70711L9.32711 16.5871C8.93658 16.9776 8.30342 16.9776 7.91289 16.5871C7.52237 16.1966 7.52237 15.5634 7.91289 15.1729L19.7929 3.29289C20.1834 2.90237 20.8166 2.90237 21.2071 3.29289Z" fill="#0F2C4D"/>
<path fill-rule="evenodd" clip-rule="evenodd" d="M14.2623 13.7735C14.6524 13.3827 15.2856 13.3821 15.6765 13.7723L21.2065 19.2923C21.5973 19.6824 21.5979 20.3156 21.2077 20.7065C20.8176 21.0973 20.1844 21.0979 19.7935 20.7077L14.2635 15.1877C13.8727 14.7976 13.8721 14.1644 14.2623 13.7735Z" fill="#0F2C4D"/>
<path fill-rule="evenodd" clip-rule="evenodd" d="M7.91289 7.41289C8.30342 7.02237 8.93658 7.02237 9.32711 7.41289L13.2071 11.2929C13.5976 11.6834 13.5976 12.3166 13.2071 12.7071C12.8166 13.0976 12.1834 13.0976 11.7929 12.7071L7.91289 8.82711C7.52237 8.43658 7.52237 7.80342 7.91289 7.41289Z" fill="#0F2C4D"/>
</svg>
