<svg width="24" height="25" viewBox="0 0 24 25" fill="none" xmlns="http://www.w3.org/2000/svg">
<path fill-rule="evenodd" clip-rule="evenodd" d="M16.4397 3.46411C16.4397 2.91183 16.8874 2.46411 17.4397 2.46411C19.4715 2.46411 20.7297 4.48061 20.7297 6.41411V22.4141C20.7297 22.9664 20.2819 23.4141 19.7297 23.4141C19.1774 23.4141 18.7297 22.9664 18.7297 22.4141V6.41411C18.7297 5.08761 17.9278 4.46411 17.4397 4.46411C16.8874 4.46411 16.4397 4.0164 16.4397 3.46411Z" fill="#0F2C4D"/>
<path fill-rule="evenodd" clip-rule="evenodd" d="M6.79965 4.46411C6.30391 4.46411 5.50965 5.08453 5.50965 6.41411V22.4141C5.50965 22.9664 5.06194 23.4141 4.50965 23.4141C3.95737 23.4141 3.50965 22.9664 3.50965 22.4141V6.41411C3.50965 4.48369 4.75539 2.46411 6.79965 2.46411H7.47965C8.03194 2.46411 8.47965 2.91183 8.47965 3.46411C8.47965 4.0164 8.03194 4.46411 7.47965 4.46411H6.79965Z" fill="#0F2C4D"/>
<path fill-rule="evenodd" clip-rule="evenodd" d="M2.38965 12.9141C2.38965 12.3618 2.83736 11.9141 3.38965 11.9141H20.8496C21.4019 11.9141 21.8496 12.3618 21.8496 12.9141C21.8496 13.4664 21.4019 13.9141 20.8496 13.9141H3.38965C2.83736 13.9141 2.38965 13.4664 2.38965 12.9141Z" fill="#0F2C4D"/>
<path fill-rule="evenodd" clip-rule="evenodd" d="M12.12 18.0442C10.9302 18.0442 9.95996 19.0085 9.95996 20.2042V21.9742C9.95996 22.5265 9.51225 22.9742 8.95996 22.9742C8.40768 22.9742 7.95996 22.5265 7.95996 21.9742V20.2042C7.95996 17.8998 9.82974 16.0442 12.12 16.0442C14.4243 16.0442 16.28 17.914 16.28 20.2042V21.9742C16.28 22.5265 15.8322 22.9742 15.28 22.9742C14.7277 22.9742 14.28 22.5265 14.28 21.9742V20.2042C14.28 19.0144 13.3156 18.0442 12.12 18.0442Z" fill="#0F2C4D"/>
<path fill-rule="evenodd" clip-rule="evenodd" d="M6.99023 2.54419C6.99023 1.9919 7.43795 1.54419 7.99023 1.54419H16.2402C16.7925 1.54419 17.2402 1.9919 17.2402 2.54419V7.91419C17.2402 8.46647 16.7925 8.91419 16.2402 8.91419H7.99023C7.43795 8.91419 6.99023 8.46647 6.99023 7.91419V2.54419ZM8.99023 3.54419V6.91419H15.2402V3.54419H8.99023Z" fill="#0F2C4D"/>
</svg>
