<svg width="24" height="25" viewBox="0 0 24 25" fill="none" xmlns="http://www.w3.org/2000/svg">
<path d="M17.0379 21.1146L23.2365 14.9159C23.3496 14.8028 23.4132 14.6496 23.4128 14.4895C23.4124 14.3294 23.3492 14.1766 23.2365 14.063L19.8254 10.6519C19.5897 10.4163 19.2081 10.4163 18.9725 10.6519L12.7739 16.8505C11.3511 18.2733 9.05793 18.3066 7.5929 16.9517C6.23801 15.4875 6.27088 13.1939 7.69407 11.7707L13.8923 5.57255C14.1279 5.33692 14.1279 4.95529 13.8923 4.71966L10.4811 1.30852C10.368 1.1954 10.2148 1.1318 10.0547 1.13222C9.8946 1.13265 9.74221 1.19625 9.62951 1.30895L3.43089 7.50756C-0.308509 11.247 -0.375956 17.2881 3.22685 21.1111L3.22343 21.1146C3.25801 21.1491 3.29344 21.1829 3.32845 21.217C3.3626 21.252 3.39632 21.2874 3.4309 21.322L3.43431 21.3186C7.25738 24.9214 13.2985 24.854 17.0379 21.1146ZM19.3989 11.9312L21.9572 14.4895L20.0811 16.3656L17.5228 13.8074L19.3989 11.9312ZM10.0555 2.58786L12.6138 5.14611L10.7377 7.02221L8.17942 4.46396L10.0555 2.58786ZM4.5207 20.6753L4.195 20.3505L3.87015 20.0248C0.952045 16.6653 1.0895 11.5547 4.28379 8.36046L7.32696 5.31728L9.88521 7.87553L6.84203 10.9187C5.05941 12.7013 4.92666 15.5165 6.44035 17.4546L6.66147 17.6765L6.76477 17.7807L6.8685 17.8844L7.0909 18.1051C9.0289 19.6188 11.8446 19.4856 13.6267 17.7034L16.6699 14.6602L19.2282 17.2185L16.185 20.2617C12.9907 23.456 7.88019 23.5934 4.5207 20.6753Z" fill="#0F2C4D"/>
<path fill-rule="evenodd" clip-rule="evenodd" d="M18.7728 10.4522C19.1187 10.1063 19.6791 10.1063 20.025 10.4522L23.4362 13.8634C23.6012 14.0297 23.6945 14.2545 23.6952 14.4887C23.6958 14.7244 23.6021 14.9496 23.4362 15.1156L17.2376 21.3142C13.4551 25.0967 7.38462 25.2278 3.44277 21.7095L3.4309 21.7213L3.23123 21.5217C3.20658 21.497 3.18092 21.4705 3.15733 21.4461C3.14736 21.4358 3.13776 21.4259 3.12877 21.4167C3.11954 21.4077 3.10962 21.3981 3.09932 21.3881C3.07494 21.3645 3.04842 21.3389 3.02377 21.3142L2.82411 21.1146L2.83598 21.1027C-0.682369 17.1608 -0.55125 11.0904 3.23123 7.3079L9.42985 1.10928C9.59523 0.943903 9.8191 0.850483 10.0539 0.849857C10.2896 0.849228 10.5148 0.942891 10.6808 1.10886L14.0919 4.52C14.4378 4.8659 14.4378 5.42631 14.0919 5.77222L7.89374 11.9704C6.58095 13.2832 6.5479 15.3981 7.7927 16.7518C9.14731 17.9967 11.2618 17.9632 12.5742 16.6509L18.7728 10.4522ZM3.54793 21.0377C3.54232 21.0319 3.53655 21.026 3.53056 21.0198L3.52563 21.0149C3.51949 21.0089 3.51355 21.0031 3.50777 20.9975L3.43235 20.9175C-0.0661067 17.2051 -0.000507009 11.3383 3.63056 7.70723L9.82917 1.50861C9.88918 1.4486 9.9701 1.41482 10.0554 1.41459C10.1399 1.41436 10.2212 1.44791 10.2815 1.50818L13.6926 4.91932C13.818 5.04469 13.818 5.24753 13.6926 5.37289L7.49441 11.5711C5.96342 13.1021 5.92825 15.5685 7.38566 17.1435L7.39312 17.1515L7.40118 17.159C8.97697 18.6163 11.4429 18.5808 12.9735 17.0502L19.1721 10.8516C19.2975 10.7262 19.5003 10.7262 19.6257 10.8516L23.0364 14.2623C23.0966 14.323 23.1302 14.4045 23.1304 14.4902C23.1307 14.5748 23.0971 14.656 23.0368 14.7163L16.8382 20.9149C13.2072 24.546 7.3403 24.6116 3.62797 21.1131L3.54793 21.0377ZM10.0555 2.58786L9.85587 2.38819L7.7801 4.46396L10.7377 7.42154L13.0131 5.14611L10.2552 2.38819L10.0555 2.58786ZM12.2145 5.14611L10.0555 2.98718L8.57875 4.46396L10.7377 6.62288L12.2145 5.14611ZM19.3989 11.5319L22.3565 14.4895L20.0811 16.7649L17.1235 13.8074L19.3989 11.5319ZM19.3989 12.3306L17.9221 13.8074L20.0811 15.9663L21.5578 14.4895L19.3989 12.3306ZM7.32696 4.91795L10.2845 7.87553L7.0417 11.1184C5.36542 12.7946 5.23634 15.4407 6.65258 17.2675L6.96466 17.5808L7.27794 17.8929C9.10471 19.3091 11.7512 19.1796 13.4271 17.5038L16.6699 14.2609L19.6275 17.2185L16.3847 20.4613C13.0847 23.7613 7.80607 23.903 4.33553 20.8885L4.32819 20.8821L3.9956 20.5504L3.66335 20.2173L3.65697 20.2099C0.642407 16.7394 0.784178 11.4607 4.08412 8.16079L7.32696 4.91795ZM6.26253 17.6761L6.22829 17.6418L6.21782 17.6284C4.61759 15.5796 4.75746 12.604 6.64237 10.719L9.48588 7.87553L7.32696 5.71661L4.48345 8.56012C1.39713 11.6464 1.26189 16.5838 4.07699 19.8323L4.3944 20.1505L4.71316 20.4685C7.9617 23.2836 12.899 23.1483 15.9853 20.062L18.8288 17.2185L16.6699 15.0596L13.8264 17.9031C11.9419 19.7876 8.9659 19.9279 6.91709 18.3276L6.90368 18.3172L6.86931 18.2829L6.8685 18.2837L6.26171 17.677L6.26253 17.6761Z" fill="#0F2C4D"/>
<path fill-rule="evenodd" clip-rule="evenodd" d="M10.0762 2.98784L8.6165 4.44753L10.7498 6.58082L12.2095 5.12113L10.0762 2.98784ZM9.38775 1.12059C9.76794 0.740402 10.3844 0.740402 10.7646 1.12059L14.0767 4.43269C14.4569 4.81288 14.4569 5.42938 14.0767 5.80958L11.4382 8.44808C11.058 8.82827 10.4415 8.82826 10.0614 8.44807L6.74925 5.13597C6.36907 4.75578 6.36906 4.13928 6.74925 3.75909L9.38775 1.12059Z" fill="#209564"/>
<path fill-rule="evenodd" clip-rule="evenodd" d="M19.4222 12.3338L17.9625 13.7935L20.0958 15.9268L21.5555 14.4671L19.4222 12.3338ZM18.7337 10.4666C19.1139 10.0864 19.7304 10.0864 20.1106 10.4666L23.4227 13.7787C23.8029 14.1589 23.8029 14.7754 23.4227 15.1555L20.7842 17.794C20.404 18.1742 19.7875 18.1742 19.4073 17.794L16.0952 14.4819C15.715 14.1018 15.715 13.4852 16.0952 13.1051L18.7337 10.4666Z" fill="#209564"/>
</svg>
