<svg width="24" height="25" viewBox="0 0 24 25" fill="none" xmlns="http://www.w3.org/2000/svg">
<path fill-rule="evenodd" clip-rule="evenodd" d="M4.42 4.0293H19.59V8.0493H4.42V4.0293ZM4.42 10.0493V13.7393H19.59V10.0493H4.42ZM4.42 21.0593V15.7393H19.59V21.0593H15.55H15.43V20.8793C15.43 19.959 15.0644 19.0764 14.4137 18.4256C13.7629 17.7749 12.8803 17.4093 11.96 17.4093C11.0397 17.4093 10.1571 17.7749 9.50634 18.4256C8.85559 19.0764 8.49 19.959 8.49 20.8793V21.0593H4.42ZM10.49 21.0593H13.43V20.8793C13.43 20.6863 13.392 20.4951 13.3181 20.3168C13.2442 20.1384 13.136 19.9764 12.9995 19.8398C12.8629 19.7033 12.7009 19.5951 12.5225 19.5212C12.3442 19.4473 12.153 19.4093 11.96 19.4093C11.767 19.4093 11.5758 19.4473 11.3975 19.5212C11.2191 19.5951 11.0571 19.7033 10.9206 19.8398C10.7841 19.9764 10.6758 20.1384 10.6019 20.3168C10.528 20.4951 10.49 20.6863 10.49 20.8793V21.0593ZM2.41 3.0293C2.41 3.07716 2.41344 3.12467 2.42016 3.1715L2.42 3.1893V22.0593C2.42 22.3245 2.52536 22.5789 2.7129 22.7664C2.90043 22.9539 3.15479 23.0593 3.42 23.0593H14.5H15.55H20.5C20.515 23.0593 20.53 23.059 20.545 23.0583C20.56 23.059 20.575 23.0593 20.59 23.0593C20.8552 23.0593 21.1096 22.9539 21.2971 22.7664C21.4846 22.5789 21.59 22.3245 21.59 22.0593V3.1893C21.59 3.14143 21.5866 3.09392 21.5798 3.04709L21.58 3.0293C21.58 2.76408 21.4746 2.50973 21.2871 2.32219C21.0996 2.13465 20.8452 2.0293 20.58 2.0293H3.41C3.14479 2.0293 2.89043 2.13465 2.7029 2.32219C2.51536 2.50973 2.41 2.76408 2.41 3.0293Z" fill="#0F2C4D"/>
</svg>
