<svg width="24" height="25" viewBox="0 0 24 25" fill="none" xmlns="http://www.w3.org/2000/svg">
<path fill-rule="evenodd" clip-rule="evenodd" d="M5 10.3668C5 9.81454 5.44772 9.36682 6 9.36682H18C18.5523 9.36682 19 9.81454 19 10.3668C19 10.9191 18.5523 11.3668 18 11.3668H6C5.44772 11.3668 5 10.9191 5 10.3668Z" fill="#0F2C4D"/>
<path fill-rule="evenodd" clip-rule="evenodd" d="M2 6.36682C2 5.81454 2.44772 5.36682 3 5.36682H21C21.5523 5.36682 22 5.81454 22 6.36682C22 6.91911 21.5523 7.36682 21 7.36682H3C2.44772 7.36682 2 6.91911 2 6.36682Z" fill="#0F2C4D"/>
<path fill-rule="evenodd" clip-rule="evenodd" d="M2 14.3668C2 13.8145 2.44772 13.3668 3 13.3668H21C21.5523 13.3668 22 13.8145 22 14.3668C22 14.9191 21.5523 15.3668 21 15.3668H3C2.44772 15.3668 2 14.9191 2 14.3668Z" fill="#0F2C4D"/>
<path fill-rule="evenodd" clip-rule="evenodd" d="M5 18.3668C5 17.8145 5.44772 17.3668 6 17.3668H18C18.5523 17.3668 19 17.8145 19 18.3668C19 18.9191 18.5523 19.3668 18 19.3668H6C5.44772 19.3668 5 18.9191 5 18.3668Z" fill="#0F2C4D"/>
</svg>
