<svg width="24" height="25" viewBox="0 0 24 25" fill="none" xmlns="http://www.w3.org/2000/svg">
<path fill-rule="evenodd" clip-rule="evenodd" d="M4.5 4.36682C4.5 3.81454 4.94772 3.36682 5.5 3.36682H13.5C14.8261 3.36682 16.0979 3.89361 17.0355 4.83129C17.9732 5.76897 18.5 7.04074 18.5 8.36682C18.5 9.6929 17.9732 10.9647 17.0355 11.9024C16.0979 12.84 14.8261 13.3668 13.5 13.3668H5.5C4.94772 13.3668 4.5 12.9191 4.5 12.3668V4.36682ZM6.5 5.36682V11.3668H13.5C14.2956 11.3668 15.0587 11.0508 15.6213 10.4881C16.1839 9.92553 16.5 9.16247 16.5 8.36682C16.5 7.57117 16.1839 6.80811 15.6213 6.2455C15.0587 5.68289 14.2956 5.36682 13.5 5.36682H6.5Z" fill="#0F2C4D"/>
<path fill-rule="evenodd" clip-rule="evenodd" d="M4.5 12.3668C4.5 11.8145 4.94772 11.3668 5.5 11.3668H14.5C15.8261 11.3668 17.0979 11.8936 18.0355 12.8313C18.9732 13.769 19.5 15.0407 19.5 16.3668C19.5 17.6929 18.9732 18.9647 18.0355 19.9024C17.0979 20.84 15.8261 21.3668 14.5 21.3668H5.5C4.94772 21.3668 4.5 20.9191 4.5 20.3668V12.3668ZM6.5 13.3668V19.3668H14.5C15.2956 19.3668 16.0587 19.0508 16.6213 18.4881C17.1839 17.9255 17.5 17.1625 17.5 16.3668C17.5 15.5712 17.1839 14.8081 16.6213 14.2455C16.0587 13.6829 15.2956 13.3668 14.5 13.3668H6.5Z" fill="#0F2C4D"/>
</svg>
