<svg width="24" height="25" viewBox="0 0 24 25" fill="none" xmlns="http://www.w3.org/2000/svg">
<path fill-rule="evenodd" clip-rule="evenodd" d="M9 4.36709C9 3.81481 9.44772 3.36709 10 3.36709H19C19.5523 3.36709 20 3.81481 20 4.36709C20 4.91938 19.5523 5.36709 19 5.36709H10C9.44772 5.36709 9 4.91938 9 4.36709Z" fill="#0F2C4D"/>
<path fill-rule="evenodd" clip-rule="evenodd" d="M4 20.3671C4 19.8148 4.44772 19.3671 5 19.3671H14C14.5523 19.3671 15 19.8148 15 20.3671C15 20.9194 14.5523 21.3671 14 21.3671H5C4.44772 21.3671 4 20.9194 4 20.3671Z" fill="#0F2C4D"/>
<path fill-rule="evenodd" clip-rule="evenodd" d="M15.3511 3.43076C15.8682 3.62468 16.1302 4.2011 15.9363 4.71822L9.93633 20.7182C9.74241 21.2353 9.166 21.4973 8.64888 21.3034C8.13176 21.1095 7.86975 20.5331 8.06367 20.016L14.0637 4.01597C14.2576 3.49885 14.834 3.23684 15.3511 3.43076Z" fill="#0F2C4D"/>
</svg>
