<svg width="24" height="25" viewBox="0 0 24 25" fill="none" xmlns="http://www.w3.org/2000/svg">
<path fill-rule="evenodd" clip-rule="evenodd" d="M5 4.36682C4.44772 4.36682 4 4.81454 4 5.36682V19.3668C4 19.9191 4.44772 20.3668 5 20.3668H19C19.5523 20.3668 20 19.9191 20 19.3668V5.36682C20 4.81454 19.5523 4.36682 19 4.36682H5ZM2 5.36682C2 3.70997 3.34315 2.36682 5 2.36682H19C20.6569 2.36682 22 3.70997 22 5.36682V19.3668C22 21.0237 20.6569 22.3668 19 22.3668H5C3.34315 22.3668 2 21.0237 2 19.3668V5.36682Z" fill="#0F2C4D"/>
</svg>
