<svg width="24" height="24" viewBox="0 0 24 24" fill="none" xmlns="http://www.w3.org/2000/svg">
<path fill-rule="evenodd" clip-rule="evenodd" d="M20.4063 3.31598C20.1628 3.1069 19.8509 2.99453 19.5299 3.00021L19.5123 3.00036H17.8423V12.0004H19.5123L19.5299 12.0005C19.8509 12.0062 20.1628 11.8938 20.4063 11.6847C20.6352 11.4883 20.7889 11.2192 20.8423 10.9235V4.07723C20.7889 3.78151 20.6352 3.51246 20.4063 3.31598ZM15.8423 12.7881L12.2344 20.9058C11.933 20.8096 11.6559 20.6424 11.428 20.4146C11.053 20.0395 10.8423 19.5308 10.8423 19.0004V15.0004C10.8423 14.4481 10.3945 14.0004 9.84225 14.0004H4.18225L4.17093 14.0004C4.02598 14.0021 3.8824 13.9722 3.75014 13.9128C3.61789 13.8535 3.50012 13.7661 3.405 13.6567C3.30988 13.5473 3.23968 13.4185 3.19926 13.2793C3.1589 13.1403 3.1492 12.9941 3.17084 12.851L4.55095 3.8503C4.58711 3.61184 4.70823 3.39449 4.892 3.23829C5.07576 3.0821 5.30979 2.99757 5.55095 3.0003L15.8423 3.00036V12.7881ZM19.5042 1.00036C20.3118 0.988428 21.096 1.27219 21.709 1.79838C22.3245 2.32667 22.7245 3.06255 22.8332 3.86632C22.8392 3.91075 22.8423 3.95553 22.8423 4.00036V11.0004C22.8423 11.0452 22.8392 11.09 22.8332 11.1344C22.7245 11.9382 22.3245 12.6741 21.709 13.2023C21.096 13.7285 20.3118 14.0123 19.5042 14.0004H17.4921L13.7561 22.4065C13.5956 22.7676 13.2374 23.0004 12.8423 23.0004C11.7814 23.0004 10.764 22.5789 10.0138 21.8288C9.26368 21.0786 8.84225 20.0612 8.84225 19.0004V16.0004H4.18737C3.75462 16.0044 3.32609 15.9147 2.93122 15.7375C2.53446 15.5594 2.18116 15.2972 1.89579 14.969C1.61042 14.6409 1.39982 14.2546 1.27857 13.8369C1.15732 13.4193 1.12832 12.9803 1.19358 12.5503L2.57356 3.55043C2.68221 2.83542 3.04564 2.18282 3.5967 1.71442C4.14641 1.24716 4.84604 0.993702 5.56734 1.00036H19.5042Z" fill="#0F2C4D"/>
</svg>
