<svg width="24" height="25" viewBox="0 0 24 25" fill="none" xmlns="http://www.w3.org/2000/svg">
<g clip-path="url(#clip0)">
<path fill-rule="evenodd" clip-rule="evenodd" d="M0.292893 5.92607C0.683417 5.53555 1.31658 5.53555 1.70711 5.92607L8.5 12.719L12.7929 8.42607C13.1834 8.03555 13.8166 8.03555 14.2071 8.42607L23.7071 17.9261C24.0976 18.3166 24.0976 18.9498 23.7071 19.3403C23.3166 19.7308 22.6834 19.7308 22.2929 19.3403L13.5 10.5474L9.20711 14.8403C8.81658 15.2308 8.18342 15.2308 7.79289 14.8403L0.292893 7.34029C-0.0976311 6.94976 -0.0976311 6.3166 0.292893 5.92607Z" fill="#0F2C4D"/>
<path fill-rule="evenodd" clip-rule="evenodd" d="M23 11.6332C23.5523 11.6332 24 12.0809 24 12.6332V18.6332C24 19.1855 23.5523 19.6332 23 19.6332H17C16.4477 19.6332 16 19.1855 16 18.6332C16 18.0809 16.4477 17.6332 17 17.6332H22V12.6332C22 12.0809 22.4477 11.6332 23 11.6332Z" fill="#0F2C4D"/>
</g>
<defs>
<clipPath id="clip0">
<rect width="24" height="24" fill="white" transform="translate(0 0.633179)"/>
</clipPath>
</defs>
</svg>
