<svg width="24" height="24" viewBox="0 0 24 24" fill="none" xmlns="http://www.w3.org/2000/svg">
<path fill-rule="evenodd" clip-rule="evenodd" d="M10.5291 2.33445C10.9784 2.0815 11.4853 1.94861 12.0009 1.94861C12.5165 1.94861 13.0234 2.0815 13.4727 2.33445C13.922 2.5874 14.2985 2.95188 14.5659 3.39272L14.5688 3.39747L23.0387 17.5375L23.0469 17.5513C23.3088 18.0049 23.4474 18.5192 23.4489 19.0431C23.4503 19.5669 23.3146 20.082 23.0552 20.5371C22.7958 20.9922 22.4218 21.3714 21.9703 21.6371C21.5188 21.9027 21.0057 22.0455 20.4819 22.0513L20.4709 22.0514L3.51988 22.0514C2.99608 22.0456 2.48292 21.9027 2.03145 21.6371C1.57997 21.3714 1.20593 20.9922 0.946525 20.5371C0.687121 20.082 0.551402 19.5669 0.552868 19.0431C0.554335 18.5192 0.692937 18.0049 0.954885 17.5513L0.963008 17.5375L9.43301 3.39748L10.2909 3.91134L9.43588 3.39272C9.70328 2.95188 10.0798 2.5874 10.5291 2.33445ZM11.1471 4.42799L2.68356 18.5572C2.59838 18.707 2.55334 18.8763 2.55286 19.0487C2.55237 19.2233 2.59761 19.395 2.68408 19.5467C2.77055 19.6984 2.89523 19.8248 3.04572 19.9133C3.19489 20.0011 3.36427 20.0487 3.53727 20.0514H20.4645C20.6375 20.0487 20.8069 20.0011 20.956 19.9133C21.1065 19.8248 21.2312 19.6984 21.3177 19.5467C21.4041 19.395 21.4494 19.2233 21.4489 19.0487C21.4484 18.8763 21.4034 18.707 21.3182 18.5572L12.8559 4.42998L12.8547 4.42799C12.7656 4.28194 12.6406 4.16116 12.4915 4.07722C12.3417 3.9929 12.1727 3.94861 12.0009 3.94861C11.829 3.94861 11.66 3.9929 11.5103 4.07722C11.3612 4.16116 11.2361 4.28194 11.1471 4.42799Z" fill="#0F2C4D"/>
</svg>
