<svg width="24" height="25" viewBox="0 0 24 25" fill="none" xmlns="http://www.w3.org/2000/svg">
<path d="M21.2411 14.2769C21.2411 11.5046 18.9309 9.19436 16.1586 9.19436C11.4458 9.19436 8.67347 9.19436 4.33024 9.19436L7.19492 6.32967C7.37974 6.14485 7.37974 5.86762 7.19492 5.6828C7.0101 5.49799 6.73288 5.49799 6.54806 5.6828L2.85169 9.37917C2.75928 9.47158 2.75928 9.56399 2.75928 9.74881C2.75928 9.93363 2.75928 10.026 2.85169 10.1184L6.54806 13.8148C6.73288 13.9996 7.0101 13.9996 7.19492 13.8148C7.37974 13.63 7.37974 13.3528 7.19492 13.168L4.33024 10.3033C8.67347 10.3033 11.4458 10.3033 16.1586 10.3033C18.4689 10.3033 20.3171 12.1515 20.3171 14.4617C20.3171 16.7719 18.4689 18.6201 16.1586 18.6201H6.91769C6.64047 18.6201 6.45565 18.8049 6.45565 19.0822C6.45565 19.3594 6.64047 19.5442 6.91769 19.5442H16.1586C18.9309 19.3594 21.2411 17.0492 21.2411 14.2769Z" fill="#0F2C4D"/>
<path fill-rule="evenodd" clip-rule="evenodd" d="M20.097 11.9613C19.2736 10.6609 17.8225 9.80327 16.1586 9.80327H3.25941C3.2593 9.78721 3.2593 9.76967 3.2593 9.74881C3.2593 9.72795 3.2593 9.71041 3.25941 9.69436H16.1586C17.8153 9.69436 19.2915 10.6134 20.097 11.9613ZM6.22918 19.7707C6.41642 19.9579 6.66548 20.0442 6.91771 20.0442H16.1753L16.1919 20.0431C19.2075 19.842 21.7411 17.3313 21.7411 14.2769C21.7411 11.2285 19.2071 8.69436 16.1586 8.69436H5.53736L7.5485 6.68322C7.92858 6.30314 7.92858 5.70933 7.5485 5.32925C7.16842 4.94917 6.5746 4.94917 6.19452 5.32925L2.49815 9.02562C2.25452 9.26925 2.25749 9.56083 2.25907 9.71639C2.25919 9.72798 2.2593 9.73881 2.2593 9.74881C2.2593 9.75881 2.25919 9.76964 2.25907 9.78123C2.25749 9.93679 2.25452 10.2284 2.49815 10.472L6.19452 14.1684C6.5746 14.5485 7.16842 14.5485 7.5485 14.1684C7.92858 13.7883 7.92858 13.1945 7.5485 12.8144L5.53736 10.8033H16.1586C18.1927 10.8033 19.8171 12.4276 19.8171 14.4617C19.8171 16.4958 18.1927 18.1201 16.1586 18.1201H6.91771C6.66548 18.1201 6.41642 18.2064 6.22918 18.3936C6.04193 18.5809 5.95567 18.8299 5.95567 19.0822C5.95567 19.3344 6.04193 19.5834 6.22918 19.7707Z" fill="#0F2C4D"/>
</svg>
