<svg width="24" height="24" viewBox="0 0 24 24" fill="none" xmlns="http://www.w3.org/2000/svg">
<g clip-path="url(#clip0)">
<path fill-rule="evenodd" clip-rule="evenodd" d="M11.2977 11.2917C11.6883 10.9011 12.3214 10.9011 12.712 11.2917L16.712 15.2917C17.1025 15.6822 17.1025 16.3153 16.712 16.7059C16.3214 17.0964 15.6883 17.0964 15.2977 16.7059L12.0048 13.413L8.71195 16.7059C8.32143 17.0964 7.68826 17.0964 7.29774 16.7059C6.90721 16.3153 6.90721 15.6822 7.29774 15.2917L11.2977 11.2917Z" fill="#0F2C4D"/>
<path fill-rule="evenodd" clip-rule="evenodd" d="M12.0048 10.9988C12.5571 10.9988 13.0048 11.4465 13.0048 11.9988V20.9988C13.0048 21.551 12.5571 21.9988 12.0048 21.9988C11.4526 21.9988 11.0048 21.551 11.0048 20.9988V11.9988C11.0048 11.4465 11.4526 10.9988 12.0048 10.9988Z" fill="#0F2C4D"/>
<path fill-rule="evenodd" clip-rule="evenodd" d="M8.66814 2.00732C10.0276 1.95723 11.3808 2.21599 12.6259 2.76414C13.871 3.31229 14.9756 4.13556 15.8567 5.17207C16.5682 6.009 17.1189 6.96736 17.4839 7.99876H18.0048C19.3379 7.99964 20.6333 8.44442 21.6855 9.2629C22.7377 10.0814 23.4873 11.2269 23.8162 12.5188C24.145 13.8106 24.0342 15.1752 23.5014 16.3971C22.9685 17.619 22.0439 18.6287 20.8735 19.2668C20.3886 19.5311 19.7812 19.3523 19.5168 18.8674C19.2525 18.3825 19.4313 17.7751 19.9162 17.5108C20.6965 17.0854 21.3128 16.4123 21.6681 15.5977C22.0233 14.7831 22.0972 13.8733 21.8779 13.0121C21.6587 12.1509 21.159 11.3872 20.4575 10.8415C19.7561 10.2959 18.8929 9.99935 18.0042 9.99876H16.7448C16.289 9.99876 15.8908 9.69044 15.7767 9.24907C15.5118 8.22466 15.0182 7.27361 14.3329 6.46744C13.6476 5.66127 12.7884 5.02094 11.82 4.5946C10.8516 4.16826 9.79916 3.96701 8.74178 4.00597C7.6844 4.04493 6.64961 4.32308 5.71521 4.81953C4.7808 5.31597 3.9711 6.01779 3.34697 6.8722C2.72284 7.72662 2.30053 8.71141 2.11178 9.75254C1.92304 10.7937 1.97277 11.864 2.25724 12.8832C2.54171 13.9023 3.05351 14.8437 3.75418 15.6366C4.1199 16.0504 4.08088 16.6824 3.66704 17.0481C3.25319 17.4138 2.62123 17.3748 2.25551 16.961C1.35466 15.9416 0.696621 14.7312 0.330874 13.4209C-0.0348721 12.1106 -0.0988121 10.7344 0.143862 9.39577C0.386536 8.05718 0.929508 6.79102 1.73196 5.69249C2.53441 4.59395 3.57546 3.69162 4.77683 3.05333C5.97821 2.41504 7.30865 2.05741 8.66814 2.00732Z" fill="#0F2C4D"/>
<path fill-rule="evenodd" clip-rule="evenodd" d="M11.2977 11.2917C11.6883 10.9011 12.3214 10.9011 12.712 11.2917L16.712 15.2917C17.1025 15.6822 17.1025 16.3153 16.712 16.7059C16.3214 17.0964 15.6883 17.0964 15.2977 16.7059L12.0048 13.413L8.71195 16.7059C8.32143 17.0964 7.68826 17.0964 7.29774 16.7059C6.90721 16.3153 6.90721 15.6822 7.29774 15.2917L11.2977 11.2917Z" fill="#0F2C4D"/>
</g>
<defs>
<clipPath id="clip0">
<rect width="24" height="24" fill="white"/>
</clipPath>
</defs>
</svg>
