<svg width="24" height="24" viewBox="0 0 24 24" fill="none" xmlns="http://www.w3.org/2000/svg">
<path fill-rule="evenodd" clip-rule="evenodd" d="M12.0401 10.5011C9.70152 10.5011 7.43693 11.3206 5.64006 12.8173C5.21569 13.1708 4.58514 13.1133 4.23168 12.6889C3.87822 12.2646 3.93569 11.634 4.36006 11.2806C6.51631 9.48456 9.23381 8.50106 12.0401 8.50106C14.8463 8.50106 17.5638 9.48456 19.7201 11.2806C20.1444 11.634 20.2019 12.2646 19.8484 12.6889C19.495 13.1133 18.8644 13.1708 18.4401 12.8173C16.6432 11.3206 14.3786 10.5011 12.0401 10.5011Z" fill="#0F2C4D"/>
<path fill-rule="evenodd" clip-rule="evenodd" d="M12.0001 5.50159C8.34783 5.50159 4.82108 6.83407 2.08131 9.2491C1.667 9.6143 1.03509 9.57449 0.669891 9.16019C0.304692 8.74588 0.344501 8.11397 0.758806 7.74877C3.86388 5.01174 7.86087 3.50159 12.0001 3.50159C16.1392 3.50159 20.1362 5.01174 23.2413 7.74877C23.6556 8.11397 23.6954 8.74588 23.3302 9.16019C22.965 9.57449 22.3331 9.6143 21.9188 9.2491C19.179 6.83407 15.6523 5.50159 12.0001 5.50159Z" fill="#0F2C4D"/>
<path fill-rule="evenodd" clip-rule="evenodd" d="M12.0051 15.5002C10.9673 15.5002 9.95522 15.8231 9.10922 16.4241C8.65899 16.744 8.03471 16.6383 7.71485 16.1881C7.39498 15.7379 7.50066 15.1136 7.95089 14.7937C9.13529 13.9523 10.5522 13.5002 12.0051 13.5002C13.4579 13.5002 14.8748 13.9523 16.0592 14.7937C16.5094 15.1136 16.6151 15.7379 16.2953 16.1881C15.9754 16.6383 15.3511 16.744 14.9009 16.4241C14.0549 15.8231 13.0428 15.5002 12.0051 15.5002Z" fill="#0F2C4D"/>
<path fill-rule="evenodd" clip-rule="evenodd" d="M11.0001 19.4989C11.0001 18.9467 11.4478 18.4989 12.0001 18.4989H12.0101C12.5623 18.4989 13.0101 18.9467 13.0101 19.4989C13.0101 20.0512 12.5623 20.4989 12.0101 20.4989H12.0001C11.4478 20.4989 11.0001 20.0512 11.0001 19.4989Z" fill="#0F2C4D"/>
</svg>
