<svg width="24" height="25" viewBox="0 0 24 25" fill="none" xmlns="http://www.w3.org/2000/svg">
<path d="M2.33919 18.1914V16.4914L6.33919 12.8214C6.66919 12.4914 6.95919 12.2014 7.18919 11.9414C7.39505 11.7082 7.56984 11.4494 7.70919 11.1714C7.82894 10.9146 7.89041 10.6346 7.88919 10.3514C7.89875 10.0528 7.82239 9.75778 7.66919 9.50135C7.52182 9.26414 7.31034 9.07346 7.05919 8.95135C6.78493 8.81953 6.4834 8.75443 6.17919 8.76135C5.87108 8.75857 5.56649 8.82702 5.28919 8.96135C5.03861 9.10005 4.83366 9.30848 4.69919 9.56135C4.56026 9.84773 4.4917 10.1631 4.49919 10.4814H2.22919C2.21325 9.81353 2.38659 9.15482 2.72919 8.58135C3.0614 8.0423 3.54 7.60878 4.10919 7.33135C4.75327 7.02938 5.45794 6.87886 6.16919 6.89135C6.88832 6.87528 7.60209 7.01872 8.25919 7.31135C8.81892 7.56563 9.29677 7.97076 9.63919 8.48135C9.97517 8.98757 10.1495 9.58387 10.1392 10.1914C10.1344 10.6167 10.0496 11.0374 9.88919 11.4314C9.65397 11.9321 9.34374 12.3941 8.96919 12.8014C8.41498 13.4357 7.82041 14.0336 7.18919 14.5914L5.55919 16.1914V16.2614H10.2392V18.1914H2.33919Z" fill="#0F2C4D"/>
<path d="M16.309 18.1913H12.359V7.04133H16.359C17.3565 7.00854 18.3464 7.22507 19.239 7.67133C20.0537 8.12914 20.7069 8.82773 21.109 9.67133C21.5732 10.6016 21.7999 11.6322 21.769 12.6713C21.7975 13.7102 21.5709 14.7403 21.109 15.6713C20.6884 16.4849 20.0336 17.1537 19.229 17.5913C18.3217 18.0338 17.3173 18.2402 16.309 18.1913ZM14.719 16.1913H16.219C16.8247 16.1986 17.4238 16.0651 17.969 15.8013C18.4441 15.5545 18.8239 15.1571 19.049 14.6713C19.3147 14.039 19.4409 13.3568 19.419 12.6713C19.4445 11.9855 19.3181 11.3026 19.049 10.6713C18.8478 10.1428 18.4649 9.70322 17.969 9.43133C17.4194 9.17185 16.8166 9.04511 16.209 9.06133H14.709L14.719 16.1913Z" fill="#0F2C4D"/>
</svg>
