<svg width="24" height="25" viewBox="0 0 24 25" fill="none" xmlns="http://www.w3.org/2000/svg">
<path fill-rule="evenodd" clip-rule="evenodd" d="M3.29289 4.92607C3.68342 4.53555 4.31658 4.53555 4.70711 4.92607L10.7071 10.9261C11.0976 11.3166 11.0976 11.9498 10.7071 12.3403L4.70711 18.3403C4.31658 18.7308 3.68342 18.7308 3.29289 18.3403C2.90237 17.9498 2.90237 17.3166 3.29289 16.9261L8.58579 11.6332L3.29289 6.34029C2.90237 5.94976 2.90237 5.3166 3.29289 4.92607Z" fill="#0F2C4D"/>
<path fill-rule="evenodd" clip-rule="evenodd" d="M11 19.6332C11 19.0809 11.4477 18.6332 12 18.6332H20C20.5523 18.6332 21 19.0809 21 19.6332C21 20.1855 20.5523 20.6332 20 20.6332H12C11.4477 20.6332 11 20.1855 11 19.6332Z" fill="#0F2C4D"/>
</svg>
