<svg width="24" height="25" viewBox="0 0 24 25" fill="none" xmlns="http://www.w3.org/2000/svg">
<path fill-rule="evenodd" clip-rule="evenodd" d="M17.7071 6.92607C18.0976 7.3166 18.0976 7.94976 17.7071 8.34029L7.70711 18.3403C7.31658 18.7308 6.68342 18.7308 6.29289 18.3403C5.90237 17.9498 5.90237 17.3166 6.29289 16.9261L16.2929 6.92607C16.6834 6.53555 17.3166 6.53555 17.7071 6.92607Z" fill="#0F2C4D"/>
<path fill-rule="evenodd" clip-rule="evenodd" d="M6 7.63318C6 7.08089 6.44772 6.63318 7 6.63318H17C17.5523 6.63318 18 7.08089 18 7.63318V17.6332C18 18.1855 17.5523 18.6332 17 18.6332C16.4477 18.6332 16 18.1855 16 17.6332V8.63318H7C6.44772 8.63318 6 8.18546 6 7.63318Z" fill="#0F2C4D"/>
</svg>
