<svg width="24" height="24" viewBox="0 0 24 24" fill="none" xmlns="http://www.w3.org/2000/svg">
<path fill-rule="evenodd" clip-rule="evenodd" d="M4.21832 8.49733C4.55994 8.25481 4.76592 8.19812 4.87633 8.19812H10.395C10.9472 8.19812 11.395 7.7504 11.395 7.19812C11.395 6.64584 10.9472 6.19812 10.395 6.19812H4.87633C4.11106 6.19812 3.4544 6.57168 2.95492 6.94332C2.917 6.97153 2.88113 7.0024 2.84758 7.03568C2.3259 7.55322 2 8.35681 2 9.05956V19.1332C2 19.9764 2.3489 20.6624 2.84758 21.1571C3.36895 21.6743 4.1752 21.9947 4.87633 21.9947H14.9202C15.7624 21.9947 16.4502 21.6519 16.949 21.1571C17.4707 20.6396 17.7966 19.836 17.7966 19.1332V13.6584C17.7966 13.1061 17.3488 12.6584 16.7966 12.6584C16.2443 12.6584 15.7966 13.1061 15.7966 13.6584V19.1332C15.7966 19.3065 15.681 19.5978 15.5404 19.7373C15.3769 19.8995 15.1818 19.9947 14.9202 19.9947H4.87633C4.69448 19.9947 4.39701 19.877 4.25615 19.7373C4.09259 19.575 4 19.385 4 19.1332V9.05956C4 8.90216 4.09544 8.64721 4.21832 8.49733Z" fill="#0F2C4D"/>
<path d="M15.1748 2.76624C14.6225 2.76624 14.1748 3.21395 14.1748 3.76624C14.1748 4.31852 14.6225 4.76624 15.1748 4.76624H17.7994L10.1471 12.4014C9.75612 12.7915 9.75541 13.4247 10.1455 13.8156C10.5356 14.2066 11.1687 14.2073 11.5597 13.8172L19.3204 6.07392V8.90066C19.3204 9.45295 19.7681 9.90066 20.3204 9.90066C20.8727 9.90066 21.3204 9.45295 21.3204 8.90066V3.76624C21.3204 3.21395 20.8727 2.76624 20.3204 2.76624H15.1748Z" fill="#0F2C4D"/>
</svg>
