<svg width="24" height="25" viewBox="0 0 24 25" fill="none" xmlns="http://www.w3.org/2000/svg">
<path fill-rule="evenodd" clip-rule="evenodd" d="M3 14.6332C3.55228 14.6332 4 15.0809 4 15.6332V19.6332C4 19.8984 4.10536 20.1528 4.29289 20.3403C4.48043 20.5278 4.73478 20.6332 5 20.6332H19C19.2652 20.6332 19.5196 20.5278 19.7071 20.3403C19.8946 20.1527 20 19.8984 20 19.6332V15.6332C20 15.0809 20.4477 14.6332 21 14.6332C21.5523 14.6332 22 15.0809 22 15.6332V19.6332C22 20.4288 21.6839 21.1919 21.1213 21.7545C20.5587 22.3171 19.7957 22.6332 19 22.6332H5C4.20435 22.6332 3.44129 22.3171 2.87868 21.7545C2.31607 21.1919 2 20.4288 2 19.6332V15.6332C2 15.0809 2.44772 14.6332 3 14.6332Z" fill="#0F2C4D"/>
<path fill-rule="evenodd" clip-rule="evenodd" d="M11.2929 2.92607C11.6834 2.53555 12.3166 2.53555 12.7071 2.92607L17.7071 7.92607C18.0976 8.3166 18.0976 8.94976 17.7071 9.34029C17.3166 9.73081 16.6834 9.73081 16.2929 9.34029L12 5.04739L7.70711 9.34029C7.31658 9.73081 6.68342 9.73081 6.29289 9.34029C5.90237 8.94976 5.90237 8.3166 6.29289 7.92607L11.2929 2.92607Z" fill="#0F2C4D"/>
<path fill-rule="evenodd" clip-rule="evenodd" d="M12 2.63318C12.5523 2.63318 13 3.08089 13 3.63318V15.6332C13 16.1855 12.5523 16.6332 12 16.6332C11.4477 16.6332 11 16.1855 11 15.6332V3.63318C11 3.08089 11.4477 2.63318 12 2.63318Z" fill="#0F2C4D"/>
</svg>
