<svg width="24" height="25" viewBox="0 0 24 25" fill="none" xmlns="http://www.w3.org/2000/svg">
<path fill-rule="evenodd" clip-rule="evenodd" d="M3 14.6332C3.55228 14.6332 4 15.0809 4 15.6332V19.6332C4 19.8984 4.10536 20.1528 4.29289 20.3403C4.48043 20.5278 4.73478 20.6332 5 20.6332H19C19.2652 20.6332 19.5196 20.5278 19.7071 20.3403C19.8946 20.1527 20 19.8984 20 19.6332V15.6332C20 15.0809 20.4477 14.6332 21 14.6332C21.5523 14.6332 22 15.0809 22 15.6332V19.6332C22 20.4288 21.6839 21.1919 21.1213 21.7545C20.5587 22.3171 19.7957 22.6332 19 22.6332H5C4.20435 22.6332 3.44129 22.3171 2.87868 21.7545C2.31607 21.1919 2 20.4288 2 19.6332V15.6332C2 15.0809 2.44772 14.6332 3 14.6332Z" fill="#0F2C4D"/>
<path fill-rule="evenodd" clip-rule="evenodd" d="M6.29289 9.92607C6.68342 9.53555 7.31658 9.53555 7.70711 9.92607L12 14.219L16.2929 9.92607C16.6834 9.53555 17.3166 9.53555 17.7071 9.92607C18.0976 10.3166 18.0976 10.9498 17.7071 11.3403L12.7071 16.3403C12.3166 16.7308 11.6834 16.7308 11.2929 16.3403L6.29289 11.3403C5.90237 10.9498 5.90237 10.3166 6.29289 9.92607Z" fill="#0F2C4D"/>
<path fill-rule="evenodd" clip-rule="evenodd" d="M12 2.63318C12.5523 2.63318 13 3.08089 13 3.63318V15.6332C13 16.1855 12.5523 16.6332 12 16.6332C11.4477 16.6332 11 16.1855 11 15.6332V3.63318C11 3.08089 11.4477 2.63318 12 2.63318Z" fill="#0F2C4D"/>
</svg>
