<svg width="24" height="25" viewBox="0 0 24 25" fill="none" xmlns="http://www.w3.org/2000/svg">
<g clip-path="url(#clip0)">
<path fill-rule="evenodd" clip-rule="evenodd" d="M23.7071 5.92607C24.0976 6.3166 24.0976 6.94976 23.7071 7.34029L14.2071 16.8403C13.8166 17.2308 13.1834 17.2308 12.7929 16.8403L8.5 12.5474L1.70711 19.3403C1.31658 19.7308 0.683417 19.7308 0.292893 19.3403C-0.0976311 18.9498 -0.0976311 18.3166 0.292893 17.9261L7.79289 10.4261C8.18342 10.0355 8.81658 10.0355 9.20711 10.4261L13.5 14.719L22.2929 5.92607C22.6834 5.53555 23.3166 5.53555 23.7071 5.92607Z" fill="#0F2C4D"/>
<path fill-rule="evenodd" clip-rule="evenodd" d="M16 6.63318C16 6.08089 16.4477 5.63318 17 5.63318H23C23.5523 5.63318 24 6.08089 24 6.63318V12.6332C24 13.1855 23.5523 13.6332 23 13.6332C22.4477 13.6332 22 13.1855 22 12.6332V7.63318H17C16.4477 7.63318 16 7.18546 16 6.63318Z" fill="#0F2C4D"/>
</g>
<defs>
<clipPath id="clip0">
<rect width="24" height="24" fill="white" transform="translate(0 0.633179)"/>
</clipPath>
</defs>
</svg>
