<svg width="24" height="25" viewBox="0 0 24 25" fill="none" xmlns="http://www.w3.org/2000/svg">
<path fill-rule="evenodd" clip-rule="evenodd" d="M14.5 3.63318C14.5 3.08089 14.9477 2.63318 15.5 2.63318H20.5C21.0523 2.63318 21.5 3.08089 21.5 3.63318V8.63318C21.5 9.18546 21.0523 9.63318 20.5 9.63318C19.9477 9.63318 19.5 9.18546 19.5 8.63318V4.63318H15.5C14.9477 4.63318 14.5 4.18546 14.5 3.63318Z" fill="#0F2C4D"/>
<path fill-rule="evenodd" clip-rule="evenodd" d="M21.2071 2.92607C21.5976 3.3166 21.5976 3.94976 21.2071 4.34029L4.20711 21.3403C3.81658 21.7308 3.18342 21.7308 2.79289 21.3403C2.40237 20.9498 2.40237 20.3166 2.79289 19.9261L19.7929 2.92607C20.1834 2.53555 20.8166 2.53555 21.2071 2.92607Z" fill="#0F2C4D"/>
<path fill-rule="evenodd" clip-rule="evenodd" d="M20.5 15.6332C21.0523 15.6332 21.5 16.0809 21.5 16.6332V21.6332C21.5 22.1855 21.0523 22.6332 20.5 22.6332H15.5C14.9477 22.6332 14.5 22.1855 14.5 21.6332C14.5 21.0809 14.9477 20.6332 15.5 20.6332H19.5V16.6332C19.5 16.0809 19.9477 15.6332 20.5 15.6332Z" fill="#0F2C4D"/>
<path fill-rule="evenodd" clip-rule="evenodd" d="M13.7929 14.9261C14.1834 14.5355 14.8166 14.5355 15.2071 14.9261L21.2071 20.9261C21.5976 21.3166 21.5976 21.9498 21.2071 22.3403C20.8166 22.7308 20.1834 22.7308 19.7929 22.3403L13.7929 16.3403C13.4024 15.9498 13.4024 15.3166 13.7929 14.9261Z" fill="#0F2C4D"/>
<path fill-rule="evenodd" clip-rule="evenodd" d="M2.79289 3.92607C3.18342 3.53555 3.81658 3.53555 4.20711 3.92607L9.20711 8.92607C9.59763 9.3166 9.59763 9.94976 9.20711 10.3403C8.81658 10.7308 8.18342 10.7308 7.79289 10.3403L2.79289 5.34029C2.40237 4.94976 2.40237 4.3166 2.79289 3.92607Z" fill="#0F2C4D"/>
</svg>
