<svg width="24" height="25" viewBox="0 0 24 25" fill="none" xmlns="http://www.w3.org/2000/svg">
<path fill-rule="evenodd" clip-rule="evenodd" d="M11.2929 5.92607C11.6834 5.53555 12.3166 5.53555 12.7071 5.92607L17.7071 10.9261C18.0976 11.3166 18.0976 11.9498 17.7071 12.3403C17.3166 12.7308 16.6834 12.7308 16.2929 12.3403L12 8.04739L7.70711 12.3403C7.31658 12.7308 6.68342 12.7308 6.29289 12.3403C5.90237 11.9498 5.90237 11.3166 6.29289 10.9261L11.2929 5.92607Z" fill="#0F2C4D"/>
<path fill-rule="evenodd" clip-rule="evenodd" d="M11.2929 12.9261C11.6834 12.5355 12.3166 12.5355 12.7071 12.9261L17.7071 17.9261C18.0976 18.3166 18.0976 18.9498 17.7071 19.3403C17.3166 19.7308 16.6834 19.7308 16.2929 19.3403L12 15.0474L7.70711 19.3403C7.31658 19.7308 6.68342 19.7308 6.29289 19.3403C5.90237 18.9498 5.90237 18.3166 6.29289 17.9261L11.2929 12.9261Z" fill="#0F2C4D"/>
</svg>
