<svg width="24" height="24" viewBox="0 0 24 24" fill="none" xmlns="http://www.w3.org/2000/svg">
<g clip-path="url(#clip0)">
<path fill-rule="evenodd" clip-rule="evenodd" d="M3.00061 6C2.73539 6 2.48104 6.10536 2.2935 6.29289C2.10597 6.48043 2.00061 6.73478 2.00061 7V17C2.00061 17.2652 2.10597 17.5196 2.2935 17.7071C2.48104 17.8946 2.73539 18 3.00061 18H14.0006C14.2658 18 14.5202 17.8946 14.7077 17.7071C14.8953 17.5196 15.0006 17.2652 15.0006 17V16.4142L4.5864 6H3.00061ZM0.87929 4.87868C1.4419 4.31607 2.20496 4 3.00061 4H5.00061C5.26583 4 5.52018 4.10536 5.70772 4.29289L16.7077 15.2929C16.8953 15.4804 17.0006 15.7348 17.0006 16V17C17.0006 17.7957 16.6845 18.5587 16.1219 19.1213C15.5593 19.6839 14.7963 20 14.0006 20H3.00061C2.20496 20 1.4419 19.6839 0.87929 19.1213C0.316681 18.5587 0.000610381 17.7957 0.000610381 17V7C0.000610381 6.20435 0.316681 5.44129 0.87929 4.87868ZM14.0006 6H10.6606C10.1083 6 9.66061 5.55228 9.66061 5C9.66061 4.44772 10.1083 4 10.6606 4H14.0006C14.7963 4 15.5593 4.31607 16.1219 4.87868C16.6845 5.44129 17.0006 6.20435 17.0006 7V9.92579L17.1051 10.0303L22.4145 6.18975C22.7189 5.96958 23.121 5.93857 23.4555 6.10947C23.7901 6.28037 24.0006 6.62434 24.0006 7V17C24.0006 17.5523 23.5529 18 23.0006 18C22.4483 18 22.0006 17.5523 22.0006 17V8.95752L17.5867 12.1503C17.1888 12.4381 16.6408 12.3944 16.2935 12.0471L15.2935 11.0471C15.106 10.8596 15.0006 10.6052 15.0006 10.34V7C15.0006 6.73478 14.8953 6.48043 14.7077 6.29289C14.5202 6.10536 14.2658 6 14.0006 6Z" fill="#0F2C4D"/>
<path fill-rule="evenodd" clip-rule="evenodd" d="M0.293504 0.292893C0.684028 -0.0976311 1.31719 -0.0976311 1.70772 0.292893L23.7077 22.2929C24.0982 22.6834 24.0982 23.3166 23.7077 23.7071C23.3172 24.0976 22.684 24.0976 22.2935 23.7071L0.293504 1.70711C-0.0970207 1.31658 -0.0970207 0.683417 0.293504 0.292893Z" fill="#0F2C4D"/>
</g>
<defs>
<clipPath id="clip0">
<rect width="24" height="24" fill="white" transform="translate(0.000610352)"/>
</clipPath>
</defs>
</svg>
