<svg width="25" height="24" viewBox="0 0 25 24" fill="none" xmlns="http://www.w3.org/2000/svg">
<path fill-rule="evenodd" clip-rule="evenodd" d="M12.6928 0.876413C13.1044 0.865674 13.5094 0.982262 13.8523 1.21026C13.8644 1.21834 13.8764 1.22668 13.8882 1.23528L23.4782 8.23528C23.8195 8.48465 24.0734 8.836 24.2028 9.23845C24.3311 9.63762 24.3307 10.0669 24.2017 10.4657L20.7098 21.7418C20.5742 22.1595 20.3048 22.5209 19.9433 22.7703C19.5897 23.0143 19.1672 23.1378 18.7384 23.123H6.92885C6.50001 23.1378 6.07748 23.0143 5.72389 22.7703C5.36245 22.521 5.09314 22.1595 4.95751 21.7419L1.29896 10.4763C1.17163 10.0947 1.16236 9.6834 1.27245 9.29629C1.38315 8.90707 1.60931 8.56058 1.92106 8.30259C1.93667 8.28967 1.95267 8.27723 1.96904 8.26528L11.5562 1.26735C11.886 1.02361 12.2828 0.887109 12.6928 0.876413ZM12.1486 2.07299L12.7127 2.84574L12.7176 2.83895L12.1486 2.07299ZM12.7246 2.86204L12.7382 2.88071L3.19679 9.84523L3.19978 9.8541L6.85972 21.1241C6.876 21.1233 6.89232 21.123 6.90861 21.123H18.7586C18.7749 21.123 18.7911 21.1234 18.8074 21.1242L22.2934 9.86718L22.2987 9.85047L12.7246 2.86204Z" fill="#0F2C4D"/>
<path fill-rule="evenodd" clip-rule="evenodd" d="M12.1517 8.3533C12.5022 8.09925 12.9764 8.09954 13.3265 8.35404L17.0965 11.094C17.4468 11.3486 17.5934 11.7996 17.4598 12.2115L16.0198 16.6515C15.8861 17.0638 15.5021 17.343 15.0686 17.343H10.3986C9.9652 17.343 9.58112 17.0638 9.4474 16.6515L8.0074 12.2115C7.87369 11.7992 8.02079 11.3477 8.37173 11.0933L12.1517 8.3533ZM10.1341 12.286L11.1256 15.343H14.3417L15.3334 12.2851L12.7378 10.3986L10.1341 12.286Z" fill="#0F2C4D"/>
</svg>
