<svg width="24" height="25" viewBox="0 0 24 25" fill="none" xmlns="http://www.w3.org/2000/svg">
<path d="M1.33 3.22925C0.777717 3.22925 0.330002 3.67696 0.330002 4.22925V20.8592C0.330002 21.4115 0.777717 21.8592 1.33 21.8592C1.88229 21.8592 2.33 21.4115 2.33 20.8592V5.22925H21.67V20.8592C21.67 21.4115 22.1177 21.8592 22.67 21.8592C23.2223 21.8592 23.67 21.4115 23.67 20.8592V4.22925C23.67 3.67696 23.2223 3.22925 22.67 3.22925H1.33Z" fill="#0F2C4D"/>
<path fill-rule="evenodd" clip-rule="evenodd" d="M7.37737 8.94078C7.55424 8.62501 7.88792 8.42944 8.24984 8.42944H15.7398C16.1011 8.42944 16.4343 8.62431 16.6114 8.93918L18.6148 12.5007C19.1418 12.529 19.5604 12.9652 19.5604 13.4993V18.6593C19.5604 19.1217 19.2465 19.5108 18.8202 19.6252V20.7993C18.8202 21.3516 18.3725 21.7993 17.8202 21.7993C17.268 21.7993 16.8202 21.3516 16.8202 20.7993V19.6593H7.23039V20.7993C7.23039 21.3516 6.78268 21.7993 6.23039 21.7993C5.67811 21.7993 5.23039 21.3516 5.23039 20.7993V19.6372C4.77892 19.5407 4.44035 19.1395 4.44035 18.6593V13.4993C4.44035 12.9661 4.85761 12.5304 5.38338 12.5009L7.37737 8.94078ZM17.5604 14.5894H6.44035V17.6593H17.5604V14.5894ZM15.155 10.4294L16.3193 12.4993H7.67662L8.83592 10.4294H15.155Z" fill="#0F2C4D"/>
</svg>
