<svg width="24" height="25" viewBox="0 0 24 25" fill="none" xmlns="http://www.w3.org/2000/svg">
<path fill-rule="evenodd" clip-rule="evenodd" d="M12 3.36682C7.02944 3.36682 3 7.39626 3 12.3668C3 17.3374 7.02944 21.3668 12 21.3668C16.9706 21.3668 21 17.3374 21 12.3668C21 7.39626 16.9706 3.36682 12 3.36682ZM1 12.3668C1 6.29169 5.92487 1.36682 12 1.36682C18.0751 1.36682 23 6.29169 23 12.3668C23 18.442 18.0751 23.3668 12 23.3668C5.92487 23.3668 1 18.442 1 12.3668Z" fill="#0F2C4D"/>
<path fill-rule="evenodd" clip-rule="evenodd" d="M15.7071 8.65971C16.0976 9.05024 16.0976 9.6834 15.7071 10.0739L9.70711 16.0739C9.31658 16.4645 8.68342 16.4645 8.29289 16.0739C7.90237 15.6834 7.90237 15.0502 8.29289 14.6597L14.2929 8.65971C14.6834 8.26919 15.3166 8.26919 15.7071 8.65971Z" fill="#0F2C4D"/>
<path fill-rule="evenodd" clip-rule="evenodd" d="M8.29289 8.65971C8.68342 8.26919 9.31658 8.26919 9.70711 8.65971L15.7071 14.6597C16.0976 15.0502 16.0976 15.6834 15.7071 16.0739C15.3166 16.4645 14.6834 16.4645 14.2929 16.0739L8.29289 10.0739C7.90237 9.6834 7.90237 9.05024 8.29289 8.65971Z" fill="#0F2C4D"/>
</svg>
