<svg width="24" height="25" viewBox="0 0 24 25" fill="none" xmlns="http://www.w3.org/2000/svg">
<path fill-rule="evenodd" clip-rule="evenodd" d="M12 3.36682C7.02944 3.36682 3 7.39626 3 12.3668C3 17.3374 7.02944 21.3668 12 21.3668C16.9706 21.3668 21 17.3374 21 12.3668C21 7.39626 16.9706 3.36682 12 3.36682ZM1 12.3668C1 6.29169 5.92487 1.36682 12 1.36682C18.0751 1.36682 23 6.29169 23 12.3668C23 18.442 18.0751 23.3668 12 23.3668C5.92487 23.3668 1 18.442 1 12.3668Z" fill="#0F2C4D"/>
<path fill-rule="evenodd" clip-rule="evenodd" d="M11.2929 7.65971C11.6834 7.26919 12.3166 7.26919 12.7071 7.65971L16.7071 11.6597C17.0976 12.0502 17.0976 12.6834 16.7071 13.0739C16.3166 13.4645 15.6834 13.4645 15.2929 13.0739L12 9.78103L8.70711 13.0739C8.31658 13.4645 7.68342 13.4645 7.29289 13.0739C6.90237 12.6834 6.90237 12.0502 7.29289 11.6597L11.2929 7.65971Z" fill="#0F2C4D"/>
<path fill-rule="evenodd" clip-rule="evenodd" d="M12 7.36682C12.5523 7.36682 13 7.81454 13 8.36682V16.3668C13 16.9191 12.5523 17.3668 12 17.3668C11.4477 17.3668 11 16.9191 11 16.3668V8.36682C11 7.81454 11.4477 7.36682 12 7.36682Z" fill="#0F2C4D"/>
</svg>
