<svg width="24" height="24" viewBox="0 0 24 24" fill="none" xmlns="http://www.w3.org/2000/svg">
<path fill-rule="evenodd" clip-rule="evenodd" d="M11.4165 3.22303C11.7652 2.97253 12.2348 2.97253 12.5835 3.22303L23.5235 11.083C23.8257 11.3002 23.9708 11.6547 23.9346 12.0001C23.9708 12.3455 23.8257 12.7 23.5235 12.9172L12.5835 20.7772C12.2348 21.0277 11.7652 21.0277 11.4165 20.7772L0.476514 12.9172C0.174283 12.7 0.0292254 12.3455 0.0653463 12.0001C0.0292254 11.6547 0.174283 11.3002 0.476514 11.083L7.26567 6.20527C7.35214 6.11455 7.45443 6.04159 7.56634 5.98924L11.4165 3.22303ZM5.91544 9.63803L2.62777 12.0001L4.54085 13.3746L5.91544 9.63803ZM6.22639 14.5856L8.81208 7.5569L12 5.26649L12.8057 5.84533L8.88175 16.4934L6.22639 14.5856ZM10.567 17.7042L14.4909 7.05615L17.3324 9.09763L14.463 16.7957C14.4376 16.8639 14.4201 16.933 14.4101 17.0022L12 18.7337L10.567 17.7042ZM17.2924 14.9313L21.3722 12.0001L19.016 10.3072L17.2924 14.9313Z" fill="#0F2C4D"/>
</svg>
