<svg width="24" height="24" viewBox="0 0 24 24" fill="none" xmlns="http://www.w3.org/2000/svg">
<line x1="7" y1="21" x2="7" y2="4" stroke="#0F2C4D" stroke-width="2" stroke-linecap="round"/>
<line x1="4" y1="10" x2="21" y2="10" stroke="#0F2C4D" stroke-width="2" stroke-linecap="round" stroke-dasharray="4 3"/>
</svg>
