<svg width="24" height="24" viewBox="0 0 24 24" fill="none" xmlns="http://www.w3.org/2000/svg">
<path fill-rule="evenodd" clip-rule="evenodd" d="M12 3.36255C7.38152 3.36255 3.97498 6.49456 3.97498 10.0075V11.303C3.98995 11.3028 4.00495 11.3026 4.01996 11.3026C4.07104 11.3026 4.12133 11.306 4.1706 11.3126H5.44996C6.25754 11.3126 7.03205 11.6334 7.6031 12.2045C8.17414 12.7755 8.49496 13.55 8.49496 14.3576V15.8176C8.49496 16.6252 8.17414 17.3997 7.6031 17.9708C7.03205 18.5418 6.25754 18.8626 5.44996 18.8626H4.01996C3.40598 18.8626 2.81715 18.6187 2.383 18.1846C2.06449 17.8661 1.84838 17.4643 1.75585 17.0304C1.74756 16.9958 1.74087 16.9605 1.73587 16.9247C1.71542 16.8009 1.70496 16.6748 1.70496 16.5476V13.6176C1.70496 13.5154 1.71171 13.4139 1.72498 13.3138V10.0075C1.72498 4.92054 6.49843 1.11255 12 1.11255C17.4961 1.11255 22.295 4.91595 22.295 9.98755V16.4553C22.295 16.4701 22.295 16.485 22.295 16.4998V16.7675C22.295 16.8475 22.2866 16.9256 22.2708 17.0009C22.2189 17.5588 22.0843 18.107 21.8705 18.6272C21.587 19.317 21.1699 19.9439 20.6431 20.4718C20.1163 20.9997 19.4903 21.4183 18.8012 21.7033C18.1124 21.9881 17.3742 22.134 16.6288 22.1325H16.63V21.0075L16.6275 22.1325L13.4302 22.1325C13.0618 22.5928 12.4953 22.8876 11.86 22.8876C10.7499 22.8876 9.84998 21.9876 9.84998 20.8776C9.84998 19.7675 10.7499 18.8676 11.86 18.8676C12.6081 18.8676 13.2607 19.2762 13.6068 19.8825H16.63L16.6325 19.8825C17.0815 19.8835 17.5263 19.7957 17.9413 19.6241C18.3563 19.4525 18.7332 19.2005 19.0504 18.8826C19.057 18.8759 19.0636 18.8693 19.0702 18.8625H18.55C18.1501 18.8625 17.7541 18.7838 17.3847 18.6308C17.0152 18.4777 16.6796 18.2534 16.3968 17.9707C16.1141 17.6879 15.8898 17.3523 15.7367 16.9828C15.5837 16.6134 15.505 16.2174 15.505 15.8175V14.3575C15.505 13.9577 15.5837 13.5617 15.7367 13.1923C15.8898 12.8228 16.1141 12.4872 16.3968 12.2044C16.6796 11.9217 17.0152 11.6974 17.3847 11.5443C17.7541 11.3913 18.1501 11.3125 18.55 11.3125H19.95C19.9817 11.3125 20.0134 11.3132 20.045 11.3145V9.98755C20.045 6.49915 16.6239 3.36255 12 3.36255ZM3.97498 16.5945C3.98706 16.6061 4.00318 16.6126 4.01996 16.6126H5.44996C5.6608 16.6126 5.86301 16.5289 6.01211 16.3798C6.1612 16.2307 6.24496 16.0285 6.24496 15.8176V14.3576C6.24496 14.1468 6.1612 13.9446 6.01211 13.7955C5.86301 13.6464 5.6608 13.5626 5.44996 13.5626H4.01996C4.00864 13.5626 3.99736 13.5624 3.98612 13.5621C3.98213 13.5645 3.97839 13.5674 3.97498 13.5707V16.5945ZM19.95 16.6125C19.9671 16.6125 19.9836 16.6058 19.9958 16.5937C20.0075 16.5821 20.0144 16.5664 20.015 16.5499V13.6275C20.015 13.6103 20.0081 13.5938 19.9959 13.5816C19.9837 13.5694 19.9672 13.5625 19.95 13.5625H18.55C18.4456 13.5625 18.3422 13.5831 18.2457 13.6231C18.1493 13.663 18.0616 13.7216 17.9878 13.7954C17.914 13.8692 17.8554 13.9569 17.8155 14.0533C17.7755 14.1498 17.755 14.2531 17.755 14.3575V15.8175C17.755 15.922 17.7755 16.0253 17.8155 16.1218C17.8554 16.2182 17.914 16.3059 17.9878 16.3797C18.0616 16.4535 18.1493 16.5121 18.2457 16.552C18.3422 16.592 18.4456 16.6125 18.55 16.6125H19.95Z" fill="#0F2C4D"/>
</svg>
