<svg width="24" height="25" viewBox="0 0 24 25" fill="none" xmlns="http://www.w3.org/2000/svg">
<g clip-path="url(#clip0)">
<path fill-rule="evenodd" clip-rule="evenodd" d="M10.5316 2.68631C11.6504 1.77811 13.1589 1.78438 14.2797 2.66924L14.2807 2.67006L23.5907 10.0401C23.9245 10.3042 24.0544 10.7507 23.9145 11.1527C23.7747 11.5547 23.3957 11.8241 22.9701 11.8241H2.00006C1.57576 11.8241 1.19765 11.5564 1.05678 11.1561C0.915909 10.7559 1.04295 10.3103 1.3737 10.0446L10.5316 2.68631ZM13.0398 4.23856C12.6416 3.92453 12.1717 3.9303 11.791 4.23992L11.7864 4.24368L4.84116 9.82413H20.0957L13.0398 4.23856C13.0397 4.23842 13.04 4.23871 13.0398 4.23856Z" fill="#0F2C4D"/>
<path fill-rule="evenodd" clip-rule="evenodd" d="M3.21973 12.8843C3.77201 12.8843 4.21973 13.332 4.21973 13.8843V21.2443C4.21973 21.6872 4.66109 22.2343 5.44973 22.2343H19.5197C20.3084 22.2343 20.7497 21.6872 20.7497 21.2443V13.8843C20.7497 13.332 21.1974 12.8843 21.7497 12.8843C22.302 12.8843 22.7497 13.332 22.7497 13.8843V21.2443C22.7497 23.0013 21.1911 24.2343 19.5197 24.2343H5.44973C3.77837 24.2343 2.21973 23.0013 2.21973 21.2443V13.8843C2.21973 13.332 2.66744 12.8843 3.21973 12.8843Z" fill="#0F2C4D"/>
<path fill-rule="evenodd" clip-rule="evenodd" d="M19.4102 1.54419C19.9624 1.54419 20.4102 1.9919 20.4102 2.54419V7.25419C20.4102 7.80647 19.9624 8.25419 19.4102 8.25419C18.8579 8.25419 18.4102 7.80647 18.4102 7.25419V2.54419C18.4102 1.9919 18.8579 1.54419 19.4102 1.54419Z" fill="#0F2C4D"/>
<path fill-rule="evenodd" clip-rule="evenodd" d="M8.24023 16.7842C8.24023 16.2319 8.68795 15.7842 9.24023 15.7842H15.7302C16.2825 15.7842 16.7302 16.2319 16.7302 16.7842V22.2142C16.7302 22.7665 16.2825 23.2142 15.7302 23.2142C15.1779 23.2142 14.7302 22.7665 14.7302 22.2142V17.7842H10.2402V22.2142C10.2402 22.7665 9.79252 23.2142 9.24023 23.2142C8.68795 23.2142 8.24023 22.7665 8.24023 22.2142V16.7842Z" fill="#0F2C4D"/>
</g>
<defs>
<clipPath id="clip0">
<rect width="24" height="24" fill="white" transform="translate(0 0.544189)"/>
</clipPath>
</defs>
</svg>
