<svg width="24" height="24" viewBox="0 0 24 24" fill="none" xmlns="http://www.w3.org/2000/svg">
<path fill-rule="evenodd" clip-rule="evenodd" d="M18 4H6C5.82081 4 5.64713 4.02356 5.48188 4.06776L11.8388 10.4247L18.2482 4.01525C18.1669 4.00518 18.084 4 18 4ZM19.8509 5.24093L13.253 11.8389L19.9322 18.5181C19.9764 18.3529 20 18.1792 20 18V6C20 5.73131 19.947 5.47499 19.8509 5.24093ZM10.4246 11.8389L4.06772 5.48203C4.02355 5.64723 4 5.82087 4 6V18C4 18.084 4.00518 18.1669 4.01525 18.2482L10.4246 11.8389ZM5.24093 19.8509L11.8388 13.2531L18.518 19.9323C18.3528 19.9764 18.1791 20 18 20H6C5.73131 20 5.47499 19.947 5.24093 19.8509ZM6 2C3.79086 2 2 3.79086 2 6V18C2 20.2091 3.79086 22 6 22H18C20.2091 22 22 20.2091 22 18V6C22 3.79086 20.2091 2 18 2H6Z" fill="#0F2C4D"/>
</svg>
