<svg width="24" height="25" viewBox="0 0 24 25" fill="none" xmlns="http://www.w3.org/2000/svg">
<g clip-path="url(#clip0)">
<path fill-rule="evenodd" clip-rule="evenodd" d="M10.9733 3.4899C15.1414 3.04 18.75 6.18696 18.75 10.2142C18.75 11.8202 18.1701 13.2929 17.2105 14.4517C16.4061 15.4261 15.8606 16.5403 15.6546 17.6992L15.6526 17.7101C15.4224 18.9268 14.356 19.7842 13.16 19.7842H10.37C9.14022 19.7842 8.0959 18.881 7.88484 17.6658M10.9733 3.4899C7.81443 3.82701 5.22876 6.27739 4.8379 9.36875C4.59028 11.3379 5.23032 13.1656 6.39983 14.5339L6.40383 14.5386C7.18273 15.4386 7.68533 16.5211 7.88484 17.6658M16.75 10.2142C16.75 7.44164 14.239 5.14873 11.1874 5.4784L11.186 5.47855C8.9053 5.72172 7.09139 7.49104 6.82214 9.61932C6.65001 10.989 7.08908 12.2609 7.91829 13.2323C8.93812 14.4116 9.59482 15.8284 9.85516 17.3225C9.90445 17.6069 10.1401 17.7842 10.37 17.7842H13.16C13.4028 17.7842 13.6353 17.6033 13.6867 17.3422C13.9615 15.8041 14.6751 14.3811 15.6689 13.1775L15.6699 13.1763C16.35 12.3552 16.75 11.328 16.75 10.2142Z" fill="#0F2C4D"/>
<path fill-rule="evenodd" clip-rule="evenodd" d="M14.394 20.3597C14.9267 20.5055 15.2403 21.0555 15.0945 21.5882C14.6972 23.0399 13.267 23.9642 11.77 23.9642C10.2699 23.9642 9.12836 22.8436 8.66204 21.8332C8.4306 21.3318 8.64949 20.7377 9.15094 20.5062C9.65239 20.2748 10.2465 20.4937 10.478 20.9951C10.7316 21.5448 11.2901 21.9642 11.77 21.9642C12.513 21.9642 13.0428 21.5084 13.1655 21.0602C13.3113 20.5275 13.8613 20.2139 14.394 20.3597Z" fill="#0F2C4D"/>
<path d="M3.02 11.8342C3.58333 11.8342 4.04 11.3775 4.04 10.8142C4.04 10.2509 3.58333 9.79419 3.02 9.79419C2.45667 9.79419 2 10.2509 2 10.8142C2 11.3775 2.45667 11.8342 3.02 11.8342Z" fill="#0F2C4D"/>
<path d="M20.73 11.7442C21.2933 11.7442 21.75 11.2875 21.75 10.7242C21.75 10.1609 21.2933 9.70419 20.73 9.70419C20.1667 9.70419 19.71 10.1609 19.71 10.7242C19.71 11.2875 20.1667 11.7442 20.73 11.7442Z" fill="#0F2C4D"/>
<path d="M18.76 5.55419C19.3233 5.55419 19.78 5.09752 19.78 4.53419C19.78 3.97086 19.3233 3.51419 18.76 3.51419C18.1967 3.51419 17.74 3.97086 17.74 4.53419C17.74 5.09752 18.1967 5.55419 18.76 5.55419Z" fill="#0F2C4D"/>
<path d="M4.52 5.55419C5.08333 5.55419 5.54 5.09752 5.54 4.53419C5.54 3.97086 5.08333 3.51419 4.52 3.51419C3.95667 3.51419 3.5 3.97086 3.5 4.53419C3.5 5.09752 3.95667 5.55419 4.52 5.55419Z" fill="#0F2C4D"/>
<path d="M11.77 2.58419C12.3333 2.58419 12.79 2.12752 12.79 1.56419C12.79 1.00086 12.3333 0.544189 11.77 0.544189C11.2067 0.544189 10.75 1.00086 10.75 1.56419C10.75 2.12752 11.2067 2.58419 11.77 2.58419Z" fill="#0F2C4D"/>
</g>
<defs>
<clipPath id="clip0">
<rect width="24" height="24" fill="white" transform="translate(0 0.544189)"/>
</clipPath>
</defs>
</svg>
