<svg width="24" height="25" viewBox="0 0 24 25" fill="none" xmlns="http://www.w3.org/2000/svg">
<path d="M12.0006 23.3668C5.90061 23.3668 1.00061 18.4668 1.00061 12.3668C1.00061 6.26682 5.90061 1.36682 12.0006 1.36682C18.1006 1.36682 23.0006 6.26682 23.0006 12.3668C23.0006 18.4668 18.1006 23.3668 12.0006 23.3668ZM12.0006 3.36682C7.00061 3.36682 3.00061 7.36682 3.00061 12.3668C3.00061 17.3668 7.00061 21.3668 12.0006 21.3668C17.0006 21.3668 21.0006 17.3668 21.0006 12.3668C21.0006 7.36682 17.0006 3.36682 12.0006 3.36682Z" fill="#0F2C4D"/>
<path d="M16.6006 21.8668C16.1006 21.8668 15.7006 21.5668 15.6006 21.0668C14.9006 18.1668 14.3006 15.9668 13.5006 13.9668C13.4006 13.9668 13.2006 14.0668 13.1006 14.0668C10.6006 14.9668 8.30061 16.8668 6.10061 20.0668C5.80061 20.5668 5.20061 20.6668 4.70061 20.2668C4.20061 19.9668 4.10061 19.3668 4.50061 18.8668C6.90061 15.3668 9.50061 13.1668 12.4006 12.1668C12.5006 12.1668 12.6006 12.0668 12.8006 12.0668C12.6006 11.6668 12.5006 11.2668 12.3006 10.8668C9.40061 11.7668 6.00061 12.0668 2.30061 12.1668C1.70061 12.1668 1.30061 11.7668 1.30061 11.1668C1.30061 10.5668 1.70061 10.1668 2.30061 10.1668C6.00061 10.2668 8.90061 9.86682 11.4006 9.16682C10.4006 7.46682 9.30061 5.76682 7.80061 3.66682C7.40061 3.26682 7.50061 2.66682 8.00061 2.26682C8.40061 1.96682 9.00061 2.06682 9.40061 2.56682C11.0006 4.76682 12.3006 6.66682 13.3006 8.56682C15.4006 7.66682 17.0006 6.46682 18.4006 4.86682C18.8006 4.46682 19.4006 4.36682 19.8006 4.76682C20.2006 5.16682 20.3006 5.76682 19.9006 6.16682C18.3006 8.06682 16.4006 9.46682 14.2006 10.3668C14.4006 10.8668 14.6006 11.2668 14.8006 11.7668C17.0006 11.4668 19.5006 11.6668 22.0006 12.2668C22.5006 12.3668 22.9006 12.9668 22.7006 13.4668C22.6006 13.9668 22.0006 14.2668 21.5006 14.1668C19.4006 13.5668 17.4006 13.4668 15.6006 13.5668C16.3006 15.5668 16.9006 17.7668 17.6006 20.5668C17.7006 21.0668 17.4006 21.6668 16.9006 21.7668C16.7006 21.8668 16.7006 21.8668 16.6006 21.8668Z" fill="#0F2C4D"/>
</svg>
