<svg width="24" height="25" viewBox="0 0 24 25" fill="none" xmlns="http://www.w3.org/2000/svg">
<g clip-path="url(#clip0)">
<path fill-rule="evenodd" clip-rule="evenodd" d="M11.6179 0.442971C11.9916 0.28819 12.4217 0.373746 12.7077 0.659744L18.2077 6.15974C18.5982 6.55027 18.5982 7.18343 18.2077 7.57396L13.4148 12.3669L18.2077 17.1597C18.5982 17.5503 18.5982 18.1834 18.2077 18.574L12.7077 24.074C12.4217 24.36 11.9916 24.4455 11.6179 24.2907C11.2443 24.1359 11.0006 23.7713 11.0006 23.3668V14.7811L7.20772 18.574C6.81719 18.9645 6.18403 18.9645 5.7935 18.574C5.40298 18.1834 5.40298 17.5503 5.7935 17.1597L10.5864 12.3669L5.7935 7.57396C5.40298 7.18343 5.40298 6.55027 5.7935 6.15974C6.18403 5.76922 6.81719 5.76922 7.20772 6.15974L11.0006 9.95264V1.36685C11.0006 0.962388 11.2443 0.597752 11.6179 0.442971ZM13.0006 14.7811L16.0864 17.8668L13.0006 20.9526V14.7811ZM13.0006 9.95264V3.78106L16.0864 6.86685L13.0006 9.95264Z" fill="#0F2C4D"/>
</g>
<defs>
<clipPath id="clip0">
<rect width="24" height="24" fill="white" transform="translate(0.000610352 0.366821)"/>
</clipPath>
</defs>
</svg>
