<svg width="24" height="25" viewBox="0 0 24 25" fill="none" xmlns="http://www.w3.org/2000/svg">
<path fill-rule="evenodd" clip-rule="evenodd" d="M14.5006 3.36682C14.2229 3.36682 14.0006 3.58911 14.0006 3.86682V8.86682C14.0006 9.14454 14.2229 9.36682 14.5006 9.36682C14.7783 9.36682 15.0006 9.14454 15.0006 8.86682V3.86682C15.0006 3.58911 14.7783 3.36682 14.5006 3.36682ZM12.0006 3.86682C12.0006 2.48454 13.1183 1.36682 14.5006 1.36682C15.8829 1.36682 17.0006 2.48454 17.0006 3.86682V8.86682C17.0006 10.2491 15.8829 11.3668 14.5006 11.3668C13.1183 11.3668 12.0006 10.2491 12.0006 8.86682V3.86682Z" fill="#0F2C4D"/>
<path fill-rule="evenodd" clip-rule="evenodd" d="M20.5006 8.36682C20.2229 8.36682 20.0006 8.58911 20.0006 8.86682V9.36682H20.5006C20.7783 9.36682 21.0006 9.14454 21.0006 8.86682C21.0006 8.58911 20.7783 8.36682 20.5006 8.36682ZM18.0006 8.86682C18.0006 7.48454 19.1183 6.36682 20.5006 6.36682C21.8829 6.36682 23.0006 7.48454 23.0006 8.86682C23.0006 10.2491 21.8829 11.3668 20.5006 11.3668H19.0006C18.4483 11.3668 18.0006 10.9191 18.0006 10.3668V8.86682Z" fill="#0F2C4D"/>
<path fill-rule="evenodd" clip-rule="evenodd" d="M9.50061 15.3668C9.22289 15.3668 9.00061 15.5891 9.00061 15.8668V20.8668C9.00061 21.1445 9.22289 21.3668 9.50061 21.3668C9.77833 21.3668 10.0006 21.1445 10.0006 20.8668V15.8668C10.0006 15.5891 9.77833 15.3668 9.50061 15.3668ZM7.00061 15.8668C7.00061 14.4845 8.11833 13.3668 9.50061 13.3668C10.8829 13.3668 12.0006 14.4845 12.0006 15.8668V20.8668C12.0006 22.2491 10.8829 23.3668 9.50061 23.3668C8.11833 23.3668 7.00061 22.2491 7.00061 20.8668V15.8668Z" fill="#0F2C4D"/>
<path fill-rule="evenodd" clip-rule="evenodd" d="M3.50061 15.3668C3.2229 15.3668 3.00061 15.5891 3.00061 15.8668C3.00061 16.1445 3.2229 16.3668 3.50061 16.3668C3.77833 16.3668 4.00061 16.1445 4.00061 15.8668V15.3668H3.50061ZM1.00061 15.8668C1.00061 14.4845 2.11833 13.3668 3.50061 13.3668H5.00061C5.5529 13.3668 6.00061 13.8145 6.00061 14.3668V15.8668C6.00061 17.2491 4.88289 18.3668 3.50061 18.3668C2.11833 18.3668 1.00061 17.2491 1.00061 15.8668Z" fill="#0F2C4D"/>
<path fill-rule="evenodd" clip-rule="evenodd" d="M15.5006 14.3668C15.2229 14.3668 15.0006 14.5891 15.0006 14.8668C15.0006 15.1445 15.2229 15.3668 15.5006 15.3668H20.5006C20.7783 15.3668 21.0006 15.1445 21.0006 14.8668C21.0006 14.5891 20.7783 14.3668 20.5006 14.3668H15.5006ZM13.0006 14.8668C13.0006 13.4845 14.1183 12.3668 15.5006 12.3668H20.5006C21.8829 12.3668 23.0006 13.4845 23.0006 14.8668C23.0006 16.2491 21.8829 17.3668 20.5006 17.3668H15.5006C14.1183 17.3668 13.0006 16.2491 13.0006 14.8668Z" fill="#0F2C4D"/>
<path fill-rule="evenodd" clip-rule="evenodd" d="M13.0006 19.3668C13.0006 18.8145 13.4483 18.3668 14.0006 18.3668H15.5006C16.8829 18.3668 18.0006 19.4845 18.0006 20.8668C18.0006 22.2491 16.8829 23.3668 15.5006 23.3668C14.1183 23.3668 13.0006 22.2491 13.0006 20.8668V19.3668ZM15.0006 20.3668V20.8668C15.0006 21.1445 15.2229 21.3668 15.5006 21.3668C15.7783 21.3668 16.0006 21.1445 16.0006 20.8668C16.0006 20.5891 15.7783 20.3668 15.5006 20.3668H15.0006Z" fill="#0F2C4D"/>
<path fill-rule="evenodd" clip-rule="evenodd" d="M1.00061 9.86682C1.00061 8.48454 2.11833 7.36682 3.50061 7.36682H8.50061C9.88289 7.36682 11.0006 8.48454 11.0006 9.86682C11.0006 11.2491 9.88289 12.3668 8.50061 12.3668H3.50061C2.11833 12.3668 1.00061 11.2491 1.00061 9.86682ZM3.50061 9.36682C3.2229 9.36682 3.00061 9.58911 3.00061 9.86682C3.00061 10.1445 3.2229 10.3668 3.50061 10.3668H8.50061C8.77833 10.3668 9.00061 10.1445 9.00061 9.86682C9.00061 9.58911 8.77833 9.36682 8.50061 9.36682H3.50061Z" fill="#0F2C4D"/>
<path fill-rule="evenodd" clip-rule="evenodd" d="M6.00061 3.86682C6.00061 2.48454 7.11833 1.36682 8.50061 1.36682C9.88289 1.36682 11.0006 2.48454 11.0006 3.86682V5.36682C11.0006 5.91911 10.5529 6.36682 10.0006 6.36682H8.50061C7.11833 6.36682 6.00061 5.24911 6.00061 3.86682ZM8.50061 3.36682C8.2229 3.36682 8.00061 3.58911 8.00061 3.86682C8.00061 4.14454 8.2229 4.36682 8.50061 4.36682H9.00061V3.86682C9.00061 3.58911 8.77833 3.36682 8.50061 3.36682Z" fill="#0F2C4D"/>
</svg>
