<svg width="24" height="25" viewBox="0 0 24 25" fill="none" xmlns="http://www.w3.org/2000/svg">
<g clip-path="url(#clip0)">
<path fill-rule="evenodd" clip-rule="evenodd" d="M4.53651 2.83952C4.5353 2.8358 4.53413 2.83207 4.53299 2.82832L4.53651 2.83952ZM5.08736 4.53072L6.97906 10.3376C7.11316 10.7493 7.49694 11.0279 7.92988 11.0279H16.0299C16.4631 11.0279 16.8471 10.7489 16.9809 10.3369L18.8666 4.53296L20.7588 10.3569L21.9831 13.9817L11.9799 21.2517L2.01546 14.0099L5.08736 4.53072ZM22.1272 14.0562L22.0465 13.9452C22.0576 13.9309 22.071 13.9184 22.0864 13.9084L22.1734 14.0427L22.1272 14.0562ZM22.1504 14.0881L22.6299 14.7479L22.1933 14.0735L22.1504 14.0881ZM23.2002 15.5696L12.5678 23.2968C12.2172 23.5516 11.7425 23.5516 11.392 23.2968L0.74198 15.5568L0.737419 15.5535C0.424672 15.3235 0.192688 15.0004 0.074656 14.6306C-0.0429729 14.262 -0.0414221 13.8658 0.0790303 13.4982L3.73882 2.20887C3.74447 2.19147 3.7506 2.17423 3.7572 2.15716C3.83692 1.95104 3.96365 1.76637 4.12728 1.61786C4.39056 1.37821 4.7338 1.24536 5.08988 1.24536C5.44678 1.24536 5.79078 1.37882 6.0543 1.61952C6.06125 1.62587 6.0681 1.63231 6.07487 1.63885C6.24544 1.80372 6.37194 2.00865 6.4429 2.23488L8.65584 9.02787H15.3033L17.5188 2.20887C17.5245 2.19147 17.5306 2.17423 17.5372 2.15716C17.6169 1.95103 17.7436 1.76637 17.9073 1.61786C18.1706 1.37821 18.5138 1.24536 18.8699 1.24536C19.2268 1.24536 19.5708 1.37882 19.8343 1.61952C19.8412 1.62587 19.8481 1.63231 19.8549 1.63885C20.0256 1.80384 20.1521 2.00895 20.2231 2.23537L22.6591 9.73326L23.9273 13.4879C23.9293 13.4938 23.9312 13.4997 23.9331 13.5057C23.9355 13.5132 23.9378 13.5207 23.94 13.5283C24.0507 13.9083 24.0358 14.3139 23.8977 14.6848C23.7634 15.0457 23.5193 15.355 23.2002 15.5696ZM17.9073 1.61786L17.9091 1.61621L18.5799 2.35787L17.9055 1.61952L17.9073 1.61786Z" fill="#0F2C4D"/>
</g>
<defs>
<clipPath id="clip0">
<rect width="24" height="24" fill="white" transform="translate(0.000610352 0.366821)"/>
</clipPath>
</defs>
</svg>
