<svg width="24" height="24" viewBox="0 0 24 24" fill="none" xmlns="http://www.w3.org/2000/svg">
<path d="M11.9992 15.0999C10.2992 15.0999 8.99924 13.7999 8.99924 12.0999C8.99924 10.3999 10.2992 9.0999 11.9992 9.0999C13.6992 9.0999 14.9992 10.3999 14.9992 12.0999C14.9992 13.7999 13.5992 15.0999 11.9992 15.0999ZM11.9992 11.0999C11.3992 11.0999 10.9992 11.4999 10.9992 12.0999C10.9992 12.6999 11.3992 13.0999 11.9992 13.0999C12.5992 13.0999 12.9992 12.6999 12.9992 12.0999C12.9992 11.4999 12.4992 11.0999 11.9992 11.0999Z" fill="#0F2C4D"/>
<path d="M19.0992 20.0999C18.7992 20.0999 18.5992 19.9999 18.3992 19.7999C17.9992 19.3999 17.9992 18.7999 18.3992 18.3999C21.8992 14.8999 21.8992 9.1999 18.3992 5.6999C17.9992 5.2999 17.9992 4.6999 18.3992 4.2999C18.7992 3.8999 19.3992 3.8999 19.7992 4.2999C24.0992 8.5999 24.0992 15.5999 19.7992 19.8999C19.5992 19.9999 19.2992 20.0999 19.0992 20.0999ZM4.89924 20.0999C4.59924 20.0999 4.39924 19.9999 4.19924 19.7999C-0.100757 15.4999 -0.100757 8.4999 4.19924 4.1999C4.59924 3.7999 5.19924 3.7999 5.59924 4.1999C5.99924 4.5999 5.99924 5.1999 5.59924 5.5999C2.09924 9.0999 2.09924 14.7999 5.59924 18.2999C5.99924 18.6999 5.99924 19.2999 5.59924 19.6999C5.39924 19.9999 5.19924 20.0999 4.89924 20.0999ZM16.1992 17.2999C15.9992 17.2999 15.8992 17.2999 15.7992 17.1999C15.2992 16.9999 15.0992 16.3999 15.3992 15.8999C15.4992 15.7999 15.5992 15.6999 15.6992 15.5999C17.5992 13.6999 17.5992 10.4999 15.5992 8.5999C15.1992 8.1999 15.1992 7.5999 15.5992 7.1999C15.9992 6.7999 16.5992 6.7999 16.9992 7.1999C19.6992 9.8999 19.6992 14.3999 16.9992 17.0999C16.7992 17.1999 16.4992 17.2999 16.1992 17.2999ZM7.79924 17.2999C7.49924 17.2999 7.29924 17.1999 7.09924 16.9999C4.39924 14.2999 4.39924 9.7999 7.09924 7.0999C7.49924 6.6999 8.09924 6.6999 8.49924 7.0999C8.89924 7.4999 8.89924 8.0999 8.49924 8.4999C7.49924 9.4999 6.99924 10.6999 6.99924 12.0999C6.99924 13.3999 7.49924 14.6999 8.49924 15.5999C8.89924 15.9999 8.89924 16.5999 8.49924 16.9999C8.29924 17.1999 7.99924 17.2999 7.79924 17.2999Z" fill="#0F2C4D"/>
</svg>
