<svg width="24" height="24" viewBox="0 0 24 24" fill="none" xmlns="http://www.w3.org/2000/svg">
<path fill-rule="evenodd" clip-rule="evenodd" d="M11 20.5608C11 20.0085 11.4477 19.5608 12 19.5608H21C21.5522 19.5608 22 20.0085 22 20.5608C22 21.1131 21.5522 21.5608 21 21.5608H12C11.4477 21.5608 11 21.1131 11 20.5608Z" fill="#0F2C4D"/>
<path fill-rule="evenodd" clip-rule="evenodd" d="M18 4.43945C17.7026 4.43945 17.4174 4.55759 17.2071 4.76788L4.90292 17.072L4.37433 19.1864L6.48871 18.6578L18.7929 6.35367C18.897 6.24954 18.9796 6.12593 19.0359 5.98988C19.0923 5.85384 19.1213 5.70803 19.1213 5.56077C19.1213 5.41352 19.0923 5.26771 19.0359 5.13166C18.9796 4.99562 18.897 4.872 18.7929 4.76788C18.6887 4.66376 18.5651 4.58116 18.4291 4.52481C18.293 4.46846 18.1472 4.43945 18 4.43945ZM15.7929 3.35367C16.3782 2.76831 17.1721 2.43945 18 2.43945C18.4099 2.43945 18.8157 2.52019 19.1944 2.67705C19.5731 2.83391 19.9172 3.06383 20.2071 3.35367C20.4969 3.64351 20.7268 3.9876 20.8837 4.3663C21.0405 4.74499 21.1213 5.15088 21.1213 5.56077C21.1213 5.97067 21.0405 6.37656 20.8837 6.75525C20.7268 7.13395 20.4969 7.47804 20.2071 7.76788L7.70707 20.2679C7.57891 20.396 7.41833 20.487 7.2425 20.5309L3.2425 21.5309C2.90172 21.6161 2.54123 21.5163 2.29285 21.2679C2.04447 21.0195 1.94462 20.659 2.02982 20.3182L3.02982 16.3182C3.07378 16.1424 3.16469 15.9818 3.29285 15.8537L15.7929 3.35367Z" fill="#0F2C4D"/>
</svg>
