<svg width="24" height="24" viewBox="0 0 24 24" fill="none" xmlns="http://www.w3.org/2000/svg">
<path d="M3.00173 22C2.70173 22 2.50173 21.9 2.30173 21.7C2.00173 21.4 1.90173 21 2.10173 20.7L3.90173 15.4C3.30173 14.2 3.00173 12.8 3.00173 11.5C3.00173 7.9 5.00173 4.6 8.30173 3C9.60173 2.3 11.0017 2 12.5017 2H13.0017C17.9017 2.3 21.7017 6.1 22.0017 10.9V11.5C22.0017 13 21.7017 14.4 21.0017 15.8C19.4017 19 16.1017 21 12.5017 21C11.2017 21 9.80173 20.7 8.60173 20.2L3.30173 22C3.20173 22 3.10173 22 3.00173 22ZM12.5017 4C11.3017 4 10.2017 4.3 9.20173 4.8C6.60173 6.1 5.00173 8.6 5.00173 11.5C5.00173 12.7 5.30173 13.8 5.80173 14.8C5.90173 15 5.90173 15.3 5.90173 15.6L4.60173 19.4L8.40173 18.1C8.70173 18 8.90173 18 9.20173 18.2C10.2017 18.7 11.4017 19 12.5017 19C15.4017 19 17.9017 17.4 19.2017 14.9C19.7017 13.9 20.0017 12.7 20.0017 11.6V11C19.8017 7.2 16.8017 4.2 12.9017 4H12.5017Z" fill="#0F2C4D"/>
</svg>
