<svg width="24" height="24" viewBox="0 0 24 24" fill="none" xmlns="http://www.w3.org/2000/svg">
<path fill-rule="evenodd" clip-rule="evenodd" d="M10.2449 1.59386C10.4054 1.23273 10.7635 1 11.1587 1C12.2196 1 13.237 1.42143 13.9871 2.17157C14.7373 2.92172 15.1587 3.93913 15.1587 5V8H19.8136C20.2463 7.996 20.6749 8.08567 21.0697 8.26289C21.4665 8.44096 21.8198 8.70317 22.1052 9.03134C22.3905 9.35951 22.6011 9.7458 22.7224 10.1634C22.8436 10.5811 22.8726 11.0201 22.8074 11.4501L21.4274 20.4499C21.3188 21.165 20.9553 21.8175 20.4042 22.2859C19.8545 22.7532 19.1548 23.0067 18.4335 23H4.15869C3.36304 23 2.59998 22.6839 2.03737 22.1213C1.47476 21.5587 1.15869 20.7957 1.15869 20V13C1.15869 12.2044 1.47476 11.4413 2.03737 10.8787C2.59998 10.3161 3.36304 10 4.15869 10H6.50882L10.2449 1.59386ZM8.15869 11.2122L11.7665 3.0946C12.0679 3.19075 12.3451 3.35794 12.5729 3.58579C12.948 3.96086 13.1587 4.46957 13.1587 5V9C13.1587 9.55228 13.6064 10 14.1587 10H19.8187L19.83 9.99994C19.975 9.99829 20.1185 10.0282 20.2508 10.0875C20.3831 10.1469 20.5008 10.2343 20.5959 10.3437C20.6911 10.4531 20.7613 10.5818 20.8017 10.7211C20.8421 10.8601 20.8518 11.0063 20.8301 11.1495L19.45 20.1501C19.4138 20.3885 19.2927 20.6059 19.1089 20.7621C18.9252 20.9183 18.6912 21.0028 18.45 21.0001L8.15869 21V11.2122ZM6.15869 21V12H4.15869C3.89348 12 3.63912 12.1054 3.45158 12.2929C3.26405 12.4804 3.15869 12.7348 3.15869 13V20C3.15869 20.2652 3.26405 20.5196 3.45158 20.7071C3.63912 20.8946 3.89348 21 4.15869 21H6.15869Z" fill="#0F2C4D"/>
</svg>
