<svg width="24" height="24" viewBox="0 0 24 24" fill="none" xmlns="http://www.w3.org/2000/svg">
<path fill-rule="evenodd" clip-rule="evenodd" d="M15.663 3.77928C13.8902 2.98938 11.9096 2.79369 10.0166 3.22141C8.12351 3.64912 6.41942 4.67731 5.15845 6.15264C3.89749 7.62797 3.14721 9.47138 3.01951 11.408C2.89181 13.3445 3.39354 15.2705 4.44987 16.8986C5.50619 18.5268 7.06051 19.7698 8.88102 20.4424C10.7015 21.115 12.6907 21.1811 14.5518 20.6308C16.413 20.0805 18.0464 18.9434 19.2084 17.3889C20.3705 15.8345 20.9989 13.9461 21 12.0053V11.0858C21 10.5336 21.4477 10.0858 22 10.0858C22.5523 10.0858 23 10.5336 23 11.0858V12.0058C22.9986 14.3779 22.2306 16.6866 20.8103 18.5864C19.39 20.4863 17.3936 21.8761 15.1189 22.5487C12.8442 23.2213 10.413 23.1405 8.18792 22.3185C5.96285 21.4964 4.06312 19.9771 2.77206 17.9872C1.48099 15.9973 0.86777 13.6433 1.02384 11.2764C1.17992 8.90944 2.09693 6.65638 3.63811 4.8532C5.17929 3.05002 7.26206 1.79334 9.57581 1.27058C11.8896 0.747819 14.3103 0.986989 16.477 1.95242C16.9815 2.1772 17.2082 2.76837 16.9834 3.27285C16.7587 3.77732 16.1675 4.00406 15.663 3.77928Z" fill="#0F2C4D"/>
<path fill-rule="evenodd" clip-rule="evenodd" d="M22.7068 3.29839C23.0975 3.68872 23.0978 4.32188 22.7075 4.7126L12.7075 14.7226C12.52 14.9103 12.2656 15.0158 12.0003 15.0158C11.735 15.0159 11.4805 14.9106 11.2929 14.723L8.2929 11.723C7.90238 11.3324 7.90238 10.6993 8.2929 10.3087C8.68342 9.91822 9.31659 9.91822 9.70711 10.3087L11.9997 12.6013L21.2925 3.29909C21.6829 2.90837 22.316 2.90806 22.7068 3.29839Z" fill="#0F2C4D"/>
</svg>
