<svg width="24" height="24" viewBox="0 0 24 24" fill="none" xmlns="http://www.w3.org/2000/svg">
<path fill-rule="evenodd" clip-rule="evenodd" d="M12 2.00012C9.87827 2.00012 7.84344 2.84298 6.34315 4.34327C4.84285 5.84356 4 7.87839 4 10.0001C4 13.0982 6.01574 16.1044 8.22595 18.4374C9.31061 19.5823 10.3987 20.5196 11.2167 21.171C11.5211 21.4134 11.787 21.6153 12 21.7727C12.213 21.6153 12.4789 21.4134 12.7833 21.171C13.6013 20.5196 14.6894 19.5823 15.774 18.4374C17.9843 16.1044 20 13.0982 20 10.0001C20 7.87839 19.1571 5.84356 17.6569 4.34327C16.1566 2.84298 14.1217 2.00012 12 2.00012ZM12 23.0001C11.4453 23.8322 11.4448 23.8318 11.4448 23.8318L11.4419 23.8299L11.4352 23.8254L11.4123 23.8099C11.3928 23.7967 11.3651 23.7777 11.3296 23.7531C11.2585 23.7039 11.1565 23.6322 11.0278 23.5393C10.7705 23.3535 10.4064 23.0823 9.97082 22.7355C9.10133 22.0432 7.93939 21.0429 6.77405 19.8129C4.48426 17.3959 2 13.9021 2 10.0001C2 7.34796 3.05357 4.80442 4.92893 2.92905C6.8043 1.05369 9.34784 0.00012207 12 0.00012207C14.6522 0.00012207 17.1957 1.05369 19.0711 2.92905C20.9464 4.80442 22 7.34796 22 10.0001C22 13.9021 19.5157 17.3959 17.226 19.8129C16.0606 21.0429 14.8987 22.0432 14.0292 22.7355C13.5936 23.0823 13.2295 23.3535 12.9722 23.5393C12.8435 23.6322 12.7415 23.7039 12.6704 23.7531C12.6349 23.7777 12.6072 23.7967 12.5877 23.8099L12.5648 23.8254L12.5581 23.8299L12.556 23.8313C12.556 23.8313 12.5547 23.8322 12 23.0001ZM12 23.0001L12.5547 23.8322C12.2188 24.0561 11.7807 24.0557 11.4448 23.8318L12 23.0001Z" fill="#0F2C4D"/>
<path fill-rule="evenodd" clip-rule="evenodd" d="M12 8.00012C10.8954 8.00012 10 8.89555 10 10.0001C10 11.1047 10.8954 12.0001 12 12.0001C13.1046 12.0001 14 11.1047 14 10.0001C14 8.89555 13.1046 8.00012 12 8.00012ZM8 10.0001C8 7.79098 9.79086 6.00012 12 6.00012C14.2091 6.00012 16 7.79098 16 10.0001C16 12.2093 14.2091 14.0001 12 14.0001C9.79086 14.0001 8 12.2093 8 10.0001Z" fill="#0F2C4D"/>
</svg>
