<svg width="24" height="25" viewBox="0 0 24 25" fill="none" xmlns="http://www.w3.org/2000/svg">
<g clip-path="url(#clip0)">
<path d="M19.5022 23.8245C19.4022 23.8245 19.3022 23.8245 19.2022 23.8245C16.0022 23.4245 12.8022 22.3245 10.1022 20.6245C7.60217 19.0245 5.40217 16.8245 3.80217 14.3245C2.10217 11.6245 1.00217 8.42448 0.602168 5.22448C0.502168 4.42448 0.802168 3.62448 1.30217 3.02448C1.80217 2.42448 2.50217 2.02448 3.30217 1.92448C3.40217 1.92448 3.50217 1.92448 3.60217 1.92448H6.60217C8.10217 1.92448 9.40217 3.02448 9.60217 4.52448C9.70217 5.42448 9.90217 6.32448 10.2022 7.12448C10.6022 8.22448 10.4022 9.42448 9.60217 10.2245L8.90217 10.9245C10.1022 12.7245 11.6022 14.3245 13.5022 15.5245L14.2022 14.8245C15.0022 14.0245 16.3022 13.7245 17.4022 14.1245C18.2022 14.4245 19.1022 14.6245 20.0022 14.7245C21.5022 14.9245 22.6022 16.2245 22.6022 17.7245V20.7245C22.6022 21.5245 22.3022 22.3245 21.7022 22.8245C21.1022 23.3245 20.3022 23.8245 19.5022 23.8245ZM6.60217 3.92448H3.60217C3.20217 3.92448 3.00217 4.12448 2.80217 4.32448C2.70217 4.52448 2.60217 4.72448 2.60217 5.02448C2.90217 7.92448 3.90217 10.7245 5.50217 13.2245C7.00217 15.5245 8.90217 17.5245 11.2022 18.9245C13.7022 20.5245 16.5022 21.5245 19.4022 21.8245C19.8022 21.8245 20.0022 21.7245 20.2022 21.5245C20.4022 21.3245 20.5022 21.1245 20.5022 20.8245V17.8245C20.5022 17.3245 20.1022 16.9245 19.6022 16.8245C18.6022 16.7245 17.6022 16.4245 16.6022 16.0245C16.2022 15.9245 15.8022 15.9245 15.5022 16.2245L14.2022 17.5245C13.9022 17.8245 13.4022 17.9245 13.0022 17.7245C10.3022 16.2245 8.10217 14.0245 6.60217 11.3245C6.50217 10.9245 6.60217 10.4245 6.90217 10.1245L8.20217 8.82448C8.50217 8.52448 8.60217 8.12448 8.40217 7.72448C8.00217 6.72448 7.80217 5.72448 7.60217 4.72448C7.50217 4.32448 7.10217 3.92448 6.60217 3.92448ZM18.5022 10.9245C18.0022 10.9245 17.6022 10.6245 17.5022 10.1245C17.2022 8.52448 15.9022 7.32448 14.3022 6.92448C13.8022 6.82448 13.4022 6.32448 13.5022 5.72448C13.6022 5.22448 14.1022 4.82448 14.7022 4.92448C17.1022 5.42448 19.0022 7.22448 19.4022 9.62448C19.5022 10.1245 19.2022 10.7245 18.6022 10.8245L18.5022 10.9245ZM22.5022 10.8245C22.0022 10.8245 21.6022 10.4245 21.5022 9.92448C21.1022 6.22448 18.2022 3.32448 14.4022 2.82448C13.9022 2.72448 13.5022 2.22448 13.5022 1.72448C13.6022 1.22448 14.1022 0.824484 14.6022 0.924484C19.3022 1.42448 22.9022 5.02448 23.4022 9.72448C23.5022 10.2245 23.1022 10.7245 22.5022 10.8245Z" fill="#0F2C4D"/>
</g>
<defs>
<clipPath id="clip0">
<rect width="24" height="24" fill="white" transform="translate(0 0.366821)"/>
</clipPath>
</defs>
</svg>
