<svg width="24" height="25" viewBox="0 0 24 25" fill="none" xmlns="http://www.w3.org/2000/svg">
<g clip-path="url(#clip0)">
<path d="M22.4603 8.91687C21.8603 8.91687 21.4603 8.51687 21.4603 7.91687V2.91687H16.4603C15.8603 2.91687 15.4603 2.51687 15.4603 1.91687C15.4603 1.31687 15.8603 0.91687 16.4603 0.91687H22.4603C23.0603 0.91687 23.4603 1.31687 23.4603 1.91687V7.91687C23.4603 8.51687 22.9603 8.91687 22.4603 8.91687Z" fill="#0F2C4D"/>
<path d="M15.4603 9.91687C15.1603 9.91687 14.9603 9.81687 14.7603 9.61687C14.3603 9.21687 14.3603 8.61687 14.7603 8.21687L21.7603 1.21687C22.1603 0.81687 22.7603 0.81687 23.1603 1.21687C23.5603 1.61687 23.5603 2.21687 23.1603 2.61687L16.1603 9.61687C15.9603 9.81687 15.6603 9.91687 15.4603 9.91687Z" fill="#0F2C4D"/>
<path d="M19.4603 23.8169C19.3603 23.8169 19.2603 23.8169 19.1603 23.8169C15.9603 23.4169 12.7603 22.3169 10.0603 20.6169C7.5603 19.0169 5.3603 16.8169 3.7603 14.3169C2.0603 11.6169 0.960298 8.41687 0.560298 5.21687C0.460298 4.41687 0.760298 3.61687 1.2603 3.01687C1.7603 2.41687 2.4603 2.01687 3.2603 1.91687C3.3603 1.91687 3.4603 1.91687 3.5603 1.91687H6.5603C8.0603 1.91687 9.3603 3.01687 9.5603 4.51687C9.6603 5.41687 9.8603 6.31687 10.1603 7.11687C10.5603 8.21687 10.3603 9.41687 9.5603 10.2169L8.8603 10.9169C10.0603 12.7169 11.5603 14.3169 13.4603 15.5169L14.1603 14.8169C14.9603 14.0169 16.2603 13.7169 17.3603 14.1169C18.1603 14.4169 19.0603 14.6169 19.9603 14.7169C21.4603 14.9169 22.5603 16.2169 22.5603 17.7169V20.7169C22.5603 21.5169 22.2603 22.3169 21.6603 22.8169C21.0603 23.3169 20.2603 23.8169 19.4603 23.8169ZM6.5603 3.91687H3.5603C3.1603 3.91687 2.9603 4.11687 2.7603 4.31687C2.6603 4.51687 2.5603 4.71687 2.5603 5.01687C2.8603 7.91687 3.8603 10.7169 5.4603 13.2169C6.9603 15.5169 8.8603 17.5169 11.1603 18.9169C13.6603 20.5169 16.4603 21.5169 19.3603 21.8169C19.7603 21.8169 19.9603 21.7169 20.1603 21.5169C20.3603 21.3169 20.4603 21.1169 20.4603 20.8169V17.8169C20.4603 17.3169 20.0603 16.9169 19.5603 16.8169C18.5603 16.7169 17.5603 16.4169 16.5603 16.0169C16.1603 15.9169 15.7603 15.9169 15.4603 16.2169L14.1603 17.5169C13.8603 17.8169 13.3603 17.9169 12.9603 17.7169C10.2603 16.2169 8.0603 14.0169 6.5603 11.3169C6.4603 10.9169 6.5603 10.4169 6.8603 10.1169L8.1603 8.81687C8.4603 8.51687 8.5603 8.11687 8.3603 7.71687C7.9603 6.71687 7.7603 5.71687 7.5603 4.71687C7.4603 4.31687 7.0603 3.91687 6.5603 3.91687Z" fill="#0F2C4D"/>
</g>
<defs>
<clipPath id="clip0">
<rect width="24" height="24" fill="white" transform="translate(0 0.366821)"/>
</clipPath>
</defs>
</svg>
