<svg width="24" height="24" viewBox="0 0 24 24" fill="none" xmlns="http://www.w3.org/2000/svg">
<rect width="24" height="24" fill="white"/>
<path fill-rule="evenodd" clip-rule="evenodd" d="M2 4C2 2.89543 2.89543 2 4 2H20C21.1046 2 22 2.89543 22 4V20C22 21.1046 21.1046 22 20 22H4C2.89543 22 2 21.1046 2 20V4ZM12.1716 4L5 4L11.1768 10.1768C11.4278 10.0632 11.7065 10 12 10H18.1716L12.1716 4ZM20 9L15 4L20 4V9ZM10 12C10 11.9445 10.0023 11.8895 10.0067 11.8351L4 5.82843V13L10 19V12ZM4 15.8284V20H8.17157L4 15.8284ZM20 20H12V12H20V20Z" fill="#0F2C4D"/>
</svg>
