<svg width="24" height="24" viewBox="0 0 24 24" fill="none" xmlns="http://www.w3.org/2000/svg">
<path fill-rule="evenodd" clip-rule="evenodd" d="M22 4C22 2.89543 21.1046 2 20 2H4C2.89543 2 2 2.89543 2 4V20C2 21.1046 2.89543 22 4 22H20C21.1046 22 22 21.1046 22 20V4ZM20 19L5 4H11.1716L20 12.8284V19ZM20 10L14 4H20V10ZM4 5.82843L18.1716 20H11L4 13V5.82843ZM4 15.8284V20H8.17157L4 15.8284Z" fill="#0F2C4D"/>
</svg>
