<svg width="24" height="25" viewBox="0 0 24 25" fill="none" xmlns="http://www.w3.org/2000/svg">
<path fill-rule="evenodd" clip-rule="evenodd" d="M12.0199 7.51213C11.8534 7.52165 11.6864 7.52165 11.5199 7.51213C11.1145 7.44768 10.7258 7.30387 10.3761 7.08894C10.0264 6.87401 9.72254 6.59219 9.48194 6.25962C9.24134 5.92705 9.06873 5.55028 8.974 5.15088C8.87926 4.75149 8.86427 4.33733 8.92988 3.93213C9.06677 3.12681 9.51598 2.40807 10.1799 1.93213C10.506 1.6794 10.8788 1.49363 11.277 1.38551C11.6751 1.27739 12.0907 1.24906 12.4999 1.30213C12.9087 1.36072 13.3019 1.49992 13.6565 1.71164C14.0112 1.92336 14.3203 2.20338 14.5659 2.53548C14.8114 2.86758 14.9886 3.24513 15.0872 3.64624C15.1857 4.04736 15.2036 4.46404 15.1399 4.87213C15.0737 5.27144 14.9291 5.65371 14.7146 5.99695C14.5001 6.3402 14.2198 6.63762 13.8899 6.87213C13.3527 7.28313 12.6962 7.50781 12.0199 7.51213ZM12.0199 3.26213C11.783 3.25924 11.5515 3.33289 11.3599 3.47213C11.1192 3.65073 10.9577 3.91625 10.9099 4.21213C10.8872 4.35795 10.8935 4.50682 10.9285 4.65018C10.9635 4.79355 11.0264 4.92859 11.1138 5.04753C11.2012 5.16648 11.3112 5.26699 11.4375 5.34329C11.5638 5.41959 11.7039 5.47017 11.8499 5.49213C11.9962 5.5166 12.1459 5.51151 12.2901 5.47716C12.4344 5.44281 12.5703 5.37989 12.6899 5.29213C12.9207 5.13076 13.0816 4.88768 13.1399 4.61213C13.1832 4.31686 13.1091 4.01636 12.9333 3.77517C12.7576 3.53398 12.4942 3.37132 12.1999 3.32213L12.0199 3.26213Z" fill="#0F2C4D"/>
<path d="M12.0098 23.8121C10.8798 23.8121 0.92981 23.7121 0.92981 20.1921C0.92981 18.8021 2.49981 17.7821 5.58981 17.1921C5.71851 17.1658 5.85112 17.1651 5.98008 17.1901C6.10904 17.2151 6.23182 17.2652 6.3414 17.3377C6.45098 17.4101 6.54521 17.5034 6.61872 17.6123C6.69223 17.7211 6.74357 17.8434 6.76981 17.9721C6.7961 18.1008 6.79678 18.2334 6.77181 18.3624C6.74683 18.4913 6.6967 18.6141 6.62426 18.7237C6.55183 18.8333 6.45852 18.9275 6.34966 19.001C6.24079 19.0745 6.11852 19.1259 5.98981 19.1521C4.91979 19.282 3.89365 19.6548 2.98981 20.2421C3.64981 20.8721 6.90981 21.8621 11.9898 21.8621C17.0698 21.8621 20.3498 20.8621 20.9898 20.2421C20.0871 19.6526 19.0604 19.2796 17.9898 19.1521C17.8611 19.1259 17.7388 19.0745 17.63 19.001C17.5211 18.9275 17.4278 18.8333 17.3554 18.7237C17.2829 18.6141 17.2328 18.4913 17.2078 18.3624C17.1828 18.2334 17.1835 18.1008 17.2098 17.9721C17.2629 17.7143 17.4155 17.4878 17.6346 17.3417C17.8536 17.1957 18.1214 17.1419 18.3798 17.1921C21.4998 17.8221 23.0698 18.8421 23.0698 20.1921C23.1398 23.7121 13.1398 23.8121 12.0098 23.8121Z" fill="#0F2C4D"/>
<path fill-rule="evenodd" clip-rule="evenodd" d="M11.1393 20.6723H12.8793C13.393 20.6692 13.8916 20.4985 14.2995 20.1863C14.7073 19.8741 15.0022 19.4373 15.1393 18.9423L17.3093 11.3123C17.4077 10.9599 17.4228 10.5894 17.3533 10.2301C17.2839 9.87089 17.1319 9.5327 16.9093 9.24229C16.6899 8.95169 16.4057 8.7163 16.0794 8.55485C15.753 8.3934 15.3934 8.31035 15.0293 8.31229H9.02933C8.66379 8.31034 8.3028 8.39334 7.97482 8.55473C7.64683 8.71612 7.36082 8.95149 7.13933 9.24229C6.91675 9.5327 6.76475 9.87089 6.69533 10.2301C6.62591 10.5894 6.64097 10.9599 6.73933 11.3123L8.85933 18.9423C9.00032 19.4389 9.29897 19.8762 9.71023 20.1883C10.1215 20.5004 10.6231 20.6702 11.1393 20.6723ZM8.8678 10.3481C8.91814 10.3238 8.97344 10.3115 9.02933 10.3123H14.9993C15.0552 10.3115 15.1105 10.3238 15.1609 10.3481C15.2112 10.3724 15.2552 10.408 15.2893 10.4523C15.3231 10.4975 15.346 10.5499 15.3564 10.6053C15.3668 10.6608 15.3644 10.7179 15.3493 10.7723L13.2293 18.4023C13.2078 18.479 13.1621 18.5467 13.0991 18.5953C13.036 18.6439 12.959 18.6709 12.8793 18.6723H11.1493C11.0693 18.6726 10.9914 18.6462 10.928 18.5973C10.8646 18.5484 10.8193 18.4798 10.7993 18.4023L8.67933 10.7723C8.66177 10.7182 8.65806 10.6605 8.66854 10.6046C8.67902 10.5487 8.70336 10.4964 8.73933 10.4523C8.77348 10.408 8.81747 10.3724 8.8678 10.3481Z" fill="#0F2C4D"/>
</svg>
