<svg width="24" height="25" viewBox="0 0 24 25" fill="none" xmlns="http://www.w3.org/2000/svg">
<path d="M11.9997 20.8774C7.40469 20.8774 3.66636 17.1391 3.66636 12.5441C3.66636 7.94911 7.40469 4.21078 11.9997 4.21078C16.5947 4.21078 20.333 7.94911 20.333 12.5441C20.333 17.1391 16.5947 20.8774 11.9997 20.8774ZM11.9997 5.46078C8.09386 5.46078 4.91636 8.63828 4.91636 12.5441C4.91636 16.4499 8.09386 19.6274 11.9997 19.6274C15.9055 19.6274 19.083 16.4499 19.083 12.5441C19.083 8.63828 15.9055 5.46078 11.9997 5.46078Z" fill="#0F2C4D"/>
<path fill-rule="evenodd" clip-rule="evenodd" d="M11.9997 4.46078C7.54276 4.46078 3.91636 8.08718 3.91636 12.5441C3.91636 17.001 7.54276 20.6274 11.9997 20.6274C16.4566 20.6274 20.083 17.001 20.083 12.5441C20.083 8.08718 16.4566 4.46078 11.9997 4.46078ZM3.41636 12.5441C3.41636 7.81104 7.26662 3.96078 11.9997 3.96078C16.7328 3.96078 20.583 7.81104 20.583 12.5441C20.583 17.2772 16.7328 21.1274 11.9997 21.1274C7.26662 21.1274 3.41636 17.2772 3.41636 12.5441ZM4.66636 12.5441C4.66636 8.50021 7.95578 5.21078 11.9997 5.21078C16.0436 5.21078 19.333 8.50021 19.333 12.5441C19.333 16.588 16.0436 19.8774 11.9997 19.8774C7.95578 19.8774 4.66636 16.588 4.66636 12.5441ZM11.9997 5.71078C8.23193 5.71078 5.16636 8.77635 5.16636 12.5441C5.16636 16.3119 8.23193 19.3774 11.9997 19.3774C15.7675 19.3774 18.833 16.3119 18.833 12.5441C18.833 8.77635 15.7675 5.71078 11.9997 5.71078Z" fill="#0F2C4D"/>
<path d="M12 6.71086C11.655 6.71086 11.375 6.43086 11.375 6.08586V3.16919C11.375 2.82419 11.655 2.54419 12 2.54419C12.345 2.54419 12.625 2.82419 12.625 3.16919V6.08586C12.625 6.43086 12.345 6.71086 12 6.71086Z" fill="#0F2C4D"/>
<path fill-rule="evenodd" clip-rule="evenodd" d="M12 2.79419C11.7931 2.79419 11.625 2.96226 11.625 3.16919V6.08586C11.625 6.29279 11.7931 6.46086 12 6.46086C12.2069 6.46086 12.375 6.29279 12.375 6.08586V3.16919C12.375 2.96226 12.2069 2.79419 12 2.79419ZM11.125 3.16919C11.125 2.68612 11.5169 2.29419 12 2.29419C12.4831 2.29419 12.875 2.68612 12.875 3.16919V6.08586C12.875 6.56893 12.4831 6.96086 12 6.96086C11.5169 6.96086 11.125 6.56893 11.125 6.08586V3.16919Z" fill="#0F2C4D"/>
<path d="M21.3753 13.1692H18.4587C18.1137 13.1692 17.8337 12.8892 17.8337 12.5442C17.8337 12.1992 18.1137 11.9192 18.4587 11.9192H21.3753C21.7203 11.9192 22.0003 12.1992 22.0003 12.5442C22.0003 12.8892 21.7203 13.1692 21.3753 13.1692Z" fill="#0F2C4D"/>
<path fill-rule="evenodd" clip-rule="evenodd" d="M18.4587 12.1692C18.2517 12.1692 18.0837 12.3373 18.0837 12.5442C18.0837 12.7511 18.2517 12.9192 18.4587 12.9192H21.3753C21.5822 12.9192 21.7503 12.7511 21.7503 12.5442C21.7503 12.3373 21.5822 12.1692 21.3753 12.1692H18.4587ZM17.5837 12.5442C17.5837 12.0611 17.9756 11.6692 18.4587 11.6692H21.3753C21.8584 11.6692 22.2503 12.0611 22.2503 12.5442C22.2503 13.0273 21.8584 13.4192 21.3753 13.4192H18.4587C17.9756 13.4192 17.5837 13.0273 17.5837 12.5442Z" fill="#0F2C4D"/>
<path d="M12 22.544C11.655 22.544 11.375 22.264 11.375 21.919V19.0024C11.375 18.6574 11.655 18.3774 12 18.3774C12.345 18.3774 12.625 18.6574 12.625 19.0024V21.919C12.625 22.264 12.345 22.544 12 22.544Z" fill="#0F2C4D"/>
<path fill-rule="evenodd" clip-rule="evenodd" d="M12 18.6274C11.7931 18.6274 11.625 18.7955 11.625 19.0024V21.919C11.625 22.126 11.7931 22.294 12 22.294C12.2069 22.294 12.375 22.126 12.375 21.919V19.0024C12.375 18.7955 12.2069 18.6274 12 18.6274ZM11.125 19.0024C11.125 18.5193 11.5169 18.1274 12 18.1274C12.4831 18.1274 12.875 18.5193 12.875 19.0024V21.919C12.875 22.4021 12.4831 22.794 12 22.794C11.5169 22.794 11.125 22.4021 11.125 21.919V19.0024Z" fill="#0F2C4D"/>
<path d="M5.54167 13.1692H2.625C2.28 13.1692 2 12.8892 2 12.5442C2 12.1992 2.28 11.9192 2.625 11.9192H5.54167C5.88667 11.9192 6.16667 12.1992 6.16667 12.5442C6.16667 12.8892 5.88667 13.1692 5.54167 13.1692Z" fill="#0F2C4D"/>
<path fill-rule="evenodd" clip-rule="evenodd" d="M2.625 12.1692C2.41807 12.1692 2.25 12.3373 2.25 12.5442C2.25 12.7511 2.41807 12.9192 2.625 12.9192H5.54167C5.7486 12.9192 5.91667 12.7511 5.91667 12.5442C5.91667 12.3373 5.7486 12.1692 5.54167 12.1692H2.625ZM1.75 12.5442C1.75 12.0611 2.14193 11.6692 2.625 11.6692H5.54167C6.02474 11.6692 6.41667 12.0611 6.41667 12.5442C6.41667 13.0273 6.02474 13.4192 5.54167 13.4192H2.625C2.14193 13.4192 1.75 13.0273 1.75 12.5442Z" fill="#0F2C4D"/>
<path d="M12 15.0442C10.6217 15.0442 9.5 13.9225 9.5 12.5442C9.5 11.1659 10.6217 10.0442 12 10.0442C13.3783 10.0442 14.5 11.1659 14.5 12.5442C14.5 13.9225 13.3783 15.0442 12 15.0442ZM12 11.2942C11.3108 11.2942 10.75 11.855 10.75 12.5442C10.75 13.2334 11.3108 13.7942 12 13.7942C12.6892 13.7942 13.25 13.2334 13.25 12.5442C13.25 11.855 12.6892 11.2942 12 11.2942Z" fill="#209564"/>
<path fill-rule="evenodd" clip-rule="evenodd" d="M12 10.2942C10.7597 10.2942 9.75 11.3039 9.75 12.5442C9.75 13.7845 10.7597 14.7942 12 14.7942C13.2403 14.7942 14.25 13.7845 14.25 12.5442C14.25 11.3039 13.2403 10.2942 12 10.2942ZM9.25 12.5442C9.25 11.0278 10.4836 9.79419 12 9.79419C13.5164 9.79419 14.75 11.0278 14.75 12.5442C14.75 14.0606 13.5164 15.2942 12 15.2942C10.4836 15.2942 9.25 14.0606 9.25 12.5442ZM10.5 12.5442C10.5 11.717 11.1728 11.0442 12 11.0442C12.8272 11.0442 13.5 11.717 13.5 12.5442C13.5 13.3714 12.8272 14.0442 12 14.0442C11.1728 14.0442 10.5 13.3714 10.5 12.5442ZM12 11.5442C11.4489 11.5442 11 11.9931 11 12.5442C11 13.0953 11.4489 13.5442 12 13.5442C12.5511 13.5442 13 13.0953 13 12.5442C13 11.9931 12.5511 11.5442 12 11.5442Z" fill="#209564"/>
</svg>
