<svg width="24" height="25" viewBox="0 0 24 25" fill="none" xmlns="http://www.w3.org/2000/svg">
<path d="M16.7993 13.3407V18.1787C16.7993 18.5657 16.6054 19.0495 16.3145 19.3398C16.0236 19.6301 15.6357 19.8236 15.1508 19.8236H6.32659C5.93871 19.8236 5.45386 19.6301 5.16295 19.3398C4.87204 19.0495 4.6781 18.6625 4.6781 18.1787V9.27675C4.6781 8.88971 4.87204 8.40591 5.16295 8.11563C5.55083 7.82536 5.93871 7.63184 6.32659 7.63184H11.1751" stroke="#0F2C4D" stroke-width="2" stroke-linecap="round" stroke-linejoin="round"/>
<path d="M14.4718 5.3103H19.3203V10.1483" stroke="#2CA874" stroke-width="2" stroke-linecap="round" stroke-linejoin="round"/>
<path d="M10.4 14.114L19.2 5.33374" stroke="#2CA874" stroke-width="2" stroke-linecap="round" stroke-linejoin="round"/>
</svg>
