<svg width="24" height="25" viewBox="0 0 24 25" fill="none" xmlns="http://www.w3.org/2000/svg">
<path d="M7.91016 6.70474H11.2671" stroke="#2CA874" stroke-width="2" stroke-linecap="round" stroke-linejoin="round"/>
<path d="M7.91016 9.80996H11.2671" stroke="#2CA874" stroke-width="2" stroke-linecap="round" stroke-linejoin="round"/>
<path fill-rule="evenodd" clip-rule="evenodd" d="M9.9353 22.4922H4.3615C3.62521 22.4922 3.02832 21.8953 3.02832 21.1591V4.70501C3.02832 3.96871 3.62521 3.37183 4.3615 3.37183H9.9353C10.6716 3.37183 11.2684 3.96871 11.2684 4.70501V21.1591C11.2684 21.8953 10.6716 22.4922 9.9353 22.4922Z" stroke="#0F2C4D" stroke-width="2" stroke-linecap="round" stroke-linejoin="round"/>
<path d="M19.3628 19.135V22.492" stroke="#0F2C4D" stroke-width="2" stroke-linecap="round" stroke-linejoin="round"/>
<path d="M16.2583 19.135V22.492" stroke="#0F2C4D" stroke-width="2" stroke-linecap="round" stroke-linejoin="round"/>
<path fill-rule="evenodd" clip-rule="evenodd" d="M5.80859 18.3936C5.80859 17.6707 6.39468 17.0845 7.11773 17.0845C7.84069 17.0845 8.42678 17.6707 8.42678 18.3936C8.42678 19.1166 7.84069 19.7027 7.11773 19.7027C6.39468 19.7027 5.80859 19.1166 5.80859 18.3936Z" fill="#2CA874"/>
<path fill-rule="evenodd" clip-rule="evenodd" d="M3.02763 21.1592V15.5854C3.02763 14.8491 3.62452 14.2522 4.36076 14.2522L21.3973 14.2522C22.1336 14.2522 22.7305 14.8491 22.7305 15.5854V21.1592C22.7305 21.8955 22.1336 22.4923 21.3973 22.4923L4.36076 22.4923C3.62452 22.4923 3.02763 21.8955 3.02763 21.1592Z" stroke="#0F2C4D" stroke-width="2" stroke-linecap="round" stroke-linejoin="round"/>
</svg>
