<svg width="24" height="25" viewBox="0 0 24 25" fill="none" xmlns="http://www.w3.org/2000/svg">
<path d="M15.418 7.39817H15.9997L12.8541 10.5438V9.96216H11.6822V12.5443H14.2643V11.3724H13.6827L16.8283 8.22677V8.80845H18.0002V6.2263H15.418V7.39817Z" fill="#0F2C4D"/>
<path fill-rule="evenodd" clip-rule="evenodd" d="M2 3.54419C2 2.9919 2.44772 2.54419 3 2.54419H4C4.55229 2.54419 5 2.9919 5 3.54419C5 4.09647 4.55229 4.54419 4 4.54419C4 5.09647 3.55228 5.54419 3 5.54419C2.44772 5.54419 2 5.09647 2 4.54419V3.54419ZM7 3.54419C7 2.9919 7.44772 2.54419 8 2.54419H10C10.5523 2.54419 11 2.9919 11 3.54419C11 4.09647 10.5523 4.54419 10 4.54419H8C7.44772 4.54419 7 4.09647 7 3.54419ZM13 3.54419C13 2.9919 13.4477 2.54419 14 2.54419H16C16.5523 2.54419 17 2.9919 17 3.54419C17 4.09647 16.5523 4.54419 16 4.54419H14C13.4477 4.54419 13 4.09647 13 3.54419ZM19 3.54419C19 2.9919 19.4477 2.54419 20 2.54419H21C21.5523 2.54419 22 2.9919 22 3.54419V4.54419C22 5.09647 21.5523 5.54419 21 5.54419C20.4477 5.54419 20 5.09647 20 4.54419C19.4477 4.54419 19 4.09647 19 3.54419ZM3 7.54419C3.55228 7.54419 4 7.9919 4 8.54419V10.5442C4 11.0965 3.55228 11.5442 3 11.5442C2.44772 11.5442 2 11.0965 2 10.5442V8.54419C2 7.9919 2.44772 7.54419 3 7.54419ZM21 7.54419C21.5523 7.54419 22 7.9919 22 8.54419V10.5442C22 11.0965 21.5523 11.5442 21 11.5442C20.4477 11.5442 20 11.0965 20 10.5442V8.54419C20 7.9919 20.4477 7.54419 21 7.54419ZM21 13.5442C21.5523 13.5442 22 13.9919 22 14.5442V16.5442C22 17.0965 21.5523 17.5442 21 17.5442C20.4477 17.5442 20 17.0965 20 16.5442V14.5442C20 13.9919 20.4477 13.5442 21 13.5442ZM21 19.5442C21.5523 19.5442 22 19.9919 22 20.5442V21.5442C22 22.0965 21.5523 22.5442 21 22.5442H20C19.4477 22.5442 19 22.0965 19 21.5442C19 20.9919 19.4477 20.5442 20 20.5442C20 19.9919 20.4477 19.5442 21 19.5442ZM13 21.5442C13 20.9919 13.4477 20.5442 14 20.5442H16C16.5523 20.5442 17 20.9919 17 21.5442C17 22.0965 16.5523 22.5442 16 22.5442H14C13.4477 22.5442 13 22.0965 13 21.5442Z" fill="#0F2C4D"/>
<path fill-rule="evenodd" clip-rule="evenodd" d="M4 15.5442V20.5442H9V15.5442H4ZM3.5 13.5442C2.67157 13.5442 2 14.2158 2 15.0442V21.0442C2 21.8726 2.67157 22.5442 3.5 22.5442H9.5C10.3284 22.5442 11 21.8726 11 21.0442V15.0442C11 14.2158 10.3284 13.5442 9.5 13.5442H3.5Z" fill="#209564"/>
</svg>
