<svg width="24" height="25" viewBox="0 0 24 25" fill="none" xmlns="http://www.w3.org/2000/svg">
<path fill-rule="evenodd" clip-rule="evenodd" d="M18.2929 11.6597C18.6834 11.2692 19.3166 11.2692 19.7071 11.6597L22.7071 14.6597C23.0976 15.0503 23.0976 15.6834 22.7071 16.0739L15.7071 23.0739C15.3166 23.4645 14.6834 23.4645 14.2929 23.0739L11.2929 20.0739C10.9024 19.6834 10.9024 19.0503 11.2929 18.6597L18.2929 11.6597ZM13.4142 19.3668L15 20.9526L20.5858 15.3668L19 13.7811L13.4142 19.3668Z" fill="#0F2C4D"/>
<path fill-rule="evenodd" clip-rule="evenodd" d="M1.29288 1.65973C1.53922 1.4134 1.89599 1.31302 2.23463 1.39476L16.7346 4.89476C17.1131 4.98613 17.4042 5.2889 17.4806 5.67073L18.9806 13.1707C19.0461 13.4986 18.9435 13.8375 18.7071 14.0739L13.7071 19.0739C13.4707 19.3104 13.1317 19.413 12.8039 19.3474L5.30387 17.8474C4.92205 17.7711 4.61927 17.48 4.52791 17.1015L1.02791 2.60148C0.946167 2.26284 1.04655 1.90607 1.29288 1.65973ZM3.35603 3.72288L6.32225 16.0115L12.6713 17.2813L16.9145 13.0382L15.6446 6.6891L3.35603 3.72288Z" fill="#0F2C4D"/>
<path fill-rule="evenodd" clip-rule="evenodd" d="M1.29288 1.65973C1.68341 1.26921 2.31657 1.26921 2.7071 1.65973L10.2931 9.24574C10.6836 9.63626 10.6836 10.2694 10.2931 10.6599C9.90257 11.0505 9.26941 11.0505 8.87888 10.6599L1.29288 3.07395C0.902359 2.68342 0.902359 2.05026 1.29288 1.65973Z" fill="#0F2C4D"/>
<path fill-rule="evenodd" clip-rule="evenodd" d="M11 10.3668C10.4477 10.3668 9.99999 10.8146 9.99999 11.3668C9.99999 11.9191 10.4477 12.3668 11 12.3668C11.5523 12.3668 12 11.9191 12 11.3668C12 10.8146 11.5523 10.3668 11 10.3668ZM7.99999 11.3668C7.99999 9.70999 9.34313 8.36684 11 8.36684C12.6568 8.36684 14 9.70999 14 11.3668C14 13.0237 12.6568 14.3668 11 14.3668C9.34313 14.3668 7.99999 13.0237 7.99999 11.3668Z" fill="#0F2C4D"/>
</svg>
