<svg width="24" height="25" viewBox="0 0 24 25" fill="none" xmlns="http://www.w3.org/2000/svg">
<path fill-rule="evenodd" clip-rule="evenodd" d="M1.46447 15.8313C2.40215 14.8936 3.67392 14.3668 5 14.3668H12C13.3261 14.3668 14.5979 14.8936 15.5355 15.8313C16.4732 16.769 17 18.0407 17 19.3668V21.3668C17 21.9191 16.5523 22.3668 16 22.3668C15.4477 22.3668 15 21.9191 15 21.3668V19.3668C15 18.5712 14.6839 17.8081 14.1213 17.2455C13.5587 16.6829 12.7956 16.3668 12 16.3668H5C4.20435 16.3668 3.44129 16.6829 2.87868 17.2455C2.31607 17.8081 2 18.5712 2 19.3668V21.3668C2 21.9191 1.55228 22.3668 1 22.3668C0.447715 22.3668 0 21.9191 0 21.3668V19.3668C0 18.0407 0.526784 16.769 1.46447 15.8313Z" fill="#0F2C4D"/>
<path fill-rule="evenodd" clip-rule="evenodd" d="M8.5 4.36682C6.84315 4.36682 5.5 5.70997 5.5 7.36682C5.5 9.02368 6.84315 10.3668 8.5 10.3668C10.1569 10.3668 11.5 9.02368 11.5 7.36682C11.5 5.70997 10.1569 4.36682 8.5 4.36682ZM3.5 7.36682C3.5 4.6054 5.73858 2.36682 8.5 2.36682C11.2614 2.36682 13.5 4.6054 13.5 7.36682C13.5 10.1282 11.2614 12.3668 8.5 12.3668C5.73858 12.3668 3.5 10.1282 3.5 7.36682Z" fill="#0F2C4D"/>
<path fill-rule="evenodd" clip-rule="evenodd" d="M23.7071 8.65971C24.0976 9.05024 24.0976 9.6834 23.7071 10.0739L19.7071 14.0739C19.3166 14.4645 18.6834 14.4645 18.2929 14.0739L16.2929 12.0739C15.9024 11.6834 15.9024 11.0502 16.2929 10.6597C16.6834 10.2692 17.3166 10.2692 17.7071 10.6597L19 11.9526L22.2929 8.65971C22.6834 8.26919 23.3166 8.26919 23.7071 8.65971Z" fill="#0F2C4D"/>
</svg>
