<svg width="24" height="25" viewBox="0 0 24 25" fill="none" xmlns="http://www.w3.org/2000/svg">
<g clip-path="url(#clip0)">
<path fill-rule="evenodd" clip-rule="evenodd" d="M8.08824 1.41312C9.50712 1.26864 10.94 1.46344 12.2688 1.98145C13.5977 2.49946 14.7843 3.32586 15.7311 4.39252C16.5039 5.2632 17.0987 6.27361 17.4852 7.36653H18.007C19.3842 7.36816 20.7189 7.84348 21.7871 8.71274C22.8553 9.58199 23.5919 10.7922 23.8734 12.1404C24.1548 13.4885 23.9639 14.8924 23.3327 16.1164C22.7016 17.3404 21.6685 18.31 20.407 18.8625C19.9011 19.0841 19.3114 18.8536 19.0899 18.3477C18.8683 17.8418 19.0988 17.2521 19.6047 17.0305C20.4457 16.6622 21.1344 16.0158 21.5552 15.1998C21.9759 14.3837 22.1032 13.4478 21.9156 12.5491C21.7279 11.6503 21.2368 10.8435 20.5247 10.264C19.8127 9.68458 18.9231 9.3677 18.0051 9.36653H16.7459C16.2899 9.36653 15.8916 9.05807 15.7776 8.61657C15.5003 7.54253 14.9716 6.54978 14.2353 5.72015C13.4989 4.89052 12.5759 4.24776 11.5424 3.84486C10.5089 3.44197 9.39442 3.29046 8.29085 3.40283C7.18728 3.51521 6.12621 3.88824 5.19511 4.49119C4.26401 5.09414 3.48953 5.90974 2.93552 6.87077C2.3815 7.83179 2.06381 8.91072 2.00864 10.0186C1.95346 11.1265 2.16237 12.2317 2.61815 13.243C3.07394 14.2543 3.76354 15.1428 4.63013 15.8353C5.06158 16.1801 5.13185 16.8093 4.78708 17.2408C4.44231 17.6722 3.81305 17.7425 3.3816 17.3977C2.26742 16.5074 1.38079 15.365 0.794778 14.0648C0.208771 12.7645 -0.0598314 11.3436 0.0111118 9.91914C0.082055 8.49469 0.490512 7.1075 1.20282 5.87189C1.91512 4.63629 2.91087 3.58766 4.10801 2.81244C5.30514 2.03722 6.66936 1.5576 8.08824 1.41312Z" fill="#0F2C4D"/>
<path fill-rule="evenodd" clip-rule="evenodd" d="M7.00586 16.3665C7.00586 15.8142 7.45358 15.3665 8.00586 15.3665H8.01586C8.56815 15.3665 9.01586 15.8142 9.01586 16.3665C9.01586 16.9188 8.56815 17.3665 8.01586 17.3665H8.00586C7.45358 17.3665 7.00586 16.9188 7.00586 16.3665Z" fill="#0F2C4D"/>
<path fill-rule="evenodd" clip-rule="evenodd" d="M7.00586 20.3665C7.00586 19.8142 7.45358 19.3665 8.00586 19.3665H8.01586C8.56815 19.3665 9.01586 19.8142 9.01586 20.3665C9.01586 20.9188 8.56815 21.3665 8.01586 21.3665H8.00586C7.45358 21.3665 7.00586 20.9188 7.00586 20.3665Z" fill="#0F2C4D"/>
<path fill-rule="evenodd" clip-rule="evenodd" d="M11.0059 18.3665C11.0059 17.8142 11.4536 17.3665 12.0059 17.3665H12.0159C12.5681 17.3665 13.0159 17.8142 13.0159 18.3665C13.0159 18.9188 12.5681 19.3665 12.0159 19.3665H12.0059C11.4536 19.3665 11.0059 18.9188 11.0059 18.3665Z" fill="#0F2C4D"/>
<path fill-rule="evenodd" clip-rule="evenodd" d="M11.0059 22.3665C11.0059 21.8142 11.4536 21.3665 12.0059 21.3665H12.0159C12.5681 21.3665 13.0159 21.8142 13.0159 22.3665C13.0159 22.9188 12.5681 23.3665 12.0159 23.3665H12.0059C11.4536 23.3665 11.0059 22.9188 11.0059 22.3665Z" fill="#0F2C4D"/>
<path fill-rule="evenodd" clip-rule="evenodd" d="M15.0059 16.3665C15.0059 15.8142 15.4536 15.3665 16.0059 15.3665H16.0159C16.5681 15.3665 17.0159 15.8142 17.0159 16.3665C17.0159 16.9188 16.5681 17.3665 16.0159 17.3665H16.0059C15.4536 17.3665 15.0059 16.9188 15.0059 16.3665Z" fill="#0F2C4D"/>
<path fill-rule="evenodd" clip-rule="evenodd" d="M15.0059 20.3665C15.0059 19.8142 15.4536 19.3665 16.0059 19.3665H16.0159C16.5681 19.3665 17.0159 19.8142 17.0159 20.3665C17.0159 20.9188 16.5681 21.3665 16.0159 21.3665H16.0059C15.4536 21.3665 15.0059 20.9188 15.0059 20.3665Z" fill="#0F2C4D"/>
</g>
<defs>
<clipPath id="clip0">
<rect width="24" height="24" fill="white" transform="translate(0 0.366821)"/>
</clipPath>
</defs>
</svg>
